G04 DipTrace 2.4.0.2*
%INTopMask.gbr*%
%MOIN*%
%ADD25C,0.1181*%
%ADD26C,0.0868*%
%ADD28R,0.0474X0.1183*%
%ADD30R,0.0297X0.1183*%
%ADD32R,0.2049X0.2049*%
%FSLAX44Y44*%
G04*
G70*
G90*
G75*
G01*
%LNTopMask*%
%LPD*%
D32*
X1559Y10573D3*
X1877Y1224D3*
X114961Y10581D3*
X114954Y1213D3*
D30*
X10529Y5906D3*
X9643D3*
D28*
X10086D3*
D30*
X21323D3*
X20437D3*
D28*
X20880D3*
D30*
X32117D3*
X31231D3*
D28*
X31674D3*
D30*
X42911D3*
X42025D3*
D28*
X42468D3*
D30*
X53705D3*
X52819D3*
D28*
X53262D3*
D30*
X64499D3*
X63613D3*
D28*
X64056D3*
D30*
X75293D3*
X74407D3*
D28*
X74850D3*
D30*
X86087D3*
X85201D3*
D28*
X85644D3*
D30*
X96881D3*
X95995D3*
D28*
X96438D3*
D30*
X107678D3*
X106792D3*
D28*
X107235D3*
D26*
X15469Y6693D3*
X4549D3*
X26280D3*
X37051D3*
X47861D3*
X58533D3*
X69528D3*
X80234D3*
X90925D3*
X101908D3*
X114282D3*
D25*
X1575Y8402D3*
X115748Y3387D3*
M02*
