G04 DipTrace 2.4.0.2*
%INBottomMask.gbr*%
%MOIN*%
%ADD20C,0.1772*%
%ADD22C,0.0669*%
%ADD24R,0.0461X0.0827*%
%ADD26R,0.0878X0.0827*%
%ADD28R,0.1654X0.1063*%
%FSLAX44Y44*%
G04*
G70*
G90*
G75*
G01*
%LNBotMask*%
%LPD*%
D28*
X4923Y7185D3*
D26*
X6274Y5906D3*
D24*
X5487D3*
D28*
X4923Y4626D3*
D26*
X10374Y5906D3*
D24*
X9587D3*
D28*
X396652Y7184D3*
Y4626D3*
D26*
X14474Y5906D3*
D24*
X13686D3*
D26*
X18573D3*
D24*
X17786D3*
D26*
X22673D3*
D24*
X21885D3*
D26*
X26772D3*
D24*
X25985D3*
D26*
X30872D3*
D24*
X30085D3*
D26*
X34972D3*
D24*
X34184D3*
D20*
X3150Y3150D3*
D22*
D3*
D20*
X398425D3*
D22*
D3*
D20*
Y50000D3*
D22*
D3*
D20*
X3150D3*
D22*
D3*
D26*
X39071Y5906D3*
D24*
X38284D3*
D26*
X43171D3*
D24*
X42383D3*
D26*
X47270D3*
D24*
X46483D3*
D26*
X51370D3*
D24*
X50583D3*
D26*
X55470D3*
D24*
X54682D3*
D26*
X59569D3*
D24*
X58782D3*
D26*
X63669D3*
D24*
X62881D3*
D26*
X67769D3*
D24*
X66981D3*
D26*
X71868D3*
D24*
X71081D3*
D26*
X75968D3*
D24*
X75180D3*
D26*
X80067D3*
D24*
X79280D3*
D26*
X84167D3*
D24*
X83380D3*
D26*
X88267D3*
D24*
X87479D3*
D26*
X92366D3*
D24*
X91579D3*
D26*
X96466D3*
D24*
X95678D3*
D26*
X100565D3*
D24*
X99778D3*
D26*
X104665D3*
D24*
X103878D3*
D26*
X108765D3*
D24*
X107977D3*
D26*
X112864D3*
D24*
X112077D3*
D26*
X116964D3*
D24*
X116176D3*
D26*
X121063D3*
D24*
X120276D3*
D26*
X125163D3*
D24*
X124376D3*
D26*
X129263D3*
D24*
X128475D3*
D26*
X133362D3*
D24*
X132575D3*
D26*
X137462D3*
D24*
X136674D3*
D26*
X141561D3*
D24*
X140774D3*
D26*
X145661D3*
D24*
X144874D3*
D26*
X149761D3*
D24*
X148973D3*
D26*
X153860D3*
D24*
X153073D3*
D26*
X157960D3*
D24*
X157172D3*
D26*
X162059D3*
D24*
X161272D3*
D26*
X166159D3*
D24*
X165372D3*
D26*
X170259D3*
D24*
X169471D3*
D26*
X174358D3*
D24*
X173571D3*
D26*
X178458D3*
D24*
X177670D3*
D26*
X182557D3*
D24*
X181770D3*
D26*
X186657D3*
D24*
X185870D3*
D26*
X190757D3*
D24*
X189969D3*
D26*
X194856D3*
D24*
X194069D3*
D26*
X198956D3*
D24*
X198169D3*
D26*
X203055D3*
D24*
X202268D3*
D26*
X207155D3*
D24*
X206368D3*
D26*
X211255D3*
D24*
X210467D3*
D26*
X215354D3*
D24*
X214567D3*
D26*
X219454D3*
D24*
X218667D3*
D26*
X223554D3*
D24*
X222766D3*
D26*
X227653D3*
D24*
X226866D3*
D26*
X231753D3*
D24*
X230965D3*
D26*
X235852D3*
D24*
X235065D3*
D26*
X239952D3*
D24*
X239165D3*
D26*
X244052D3*
D24*
X243264D3*
D26*
X248151D3*
D24*
X247364D3*
D26*
X252251D3*
D24*
X251463D3*
D26*
X256350D3*
D24*
X255563D3*
D26*
X260450D3*
D24*
X259663D3*
D26*
X264550D3*
D24*
X263762D3*
D26*
X268649D3*
D24*
X267862D3*
D26*
X272749D3*
D24*
X271961D3*
D26*
X276848D3*
D24*
X276061D3*
D26*
X280948D3*
D24*
X280161D3*
D26*
X285048D3*
D24*
X284260D3*
D26*
X289147D3*
D24*
X288360D3*
D26*
X293247D3*
D24*
X292459D3*
D26*
X297346D3*
D24*
X296559D3*
D26*
X301446D3*
D24*
X300659D3*
D26*
X305546D3*
D24*
X304758D3*
D26*
X309645D3*
D24*
X308858D3*
D26*
X313745D3*
D24*
X312957D3*
D26*
X317844D3*
D24*
X317057D3*
D26*
X321944D3*
D24*
X321157D3*
D26*
X326044D3*
D24*
X325256D3*
D26*
X330143D3*
D24*
X329356D3*
D26*
X334243D3*
D24*
X333455D3*
D26*
X338343D3*
D24*
X337555D3*
D26*
X342442D3*
D24*
X341655D3*
D26*
X346542D3*
D24*
X345754D3*
D26*
X350641D3*
D24*
X349854D3*
D26*
X354741D3*
D24*
X353954D3*
D26*
X358841D3*
D24*
X358053D3*
D26*
X362940D3*
D24*
X362153D3*
D26*
X367040D3*
D24*
X366252D3*
D26*
X371139D3*
D24*
X370352D3*
D26*
X375239D3*
D24*
X374452D3*
D26*
X379339D3*
D24*
X378551D3*
D26*
X383438D3*
D24*
X382651D3*
D26*
X387538D3*
D24*
X386750D3*
D26*
X391637D3*
D24*
X390850D3*
D26*
X395737D3*
D24*
X394950D3*
D28*
X4923Y11319D3*
D26*
X6274Y10039D3*
D24*
X5487D3*
D28*
X4923Y8760D3*
D26*
X10374Y10039D3*
D24*
X9587D3*
D28*
X396652Y11318D3*
Y8760D3*
D26*
X14474Y10039D3*
D24*
X13686D3*
D26*
X18573D3*
D24*
X17786D3*
D26*
X22673D3*
D24*
X21885D3*
D26*
X26772D3*
D24*
X25985D3*
D26*
X30872D3*
D24*
X30085D3*
D26*
X34972D3*
D24*
X34184D3*
D26*
X39071D3*
D24*
X38284D3*
D26*
X43171D3*
D24*
X42383D3*
D26*
X47270D3*
D24*
X46483D3*
D26*
X51370D3*
D24*
X50583D3*
D26*
X55470D3*
D24*
X54682D3*
D26*
X59569D3*
D24*
X58782D3*
D26*
X63669D3*
D24*
X62881D3*
D26*
X67769D3*
D24*
X66981D3*
D26*
X71868D3*
D24*
X71081D3*
D26*
X75968D3*
D24*
X75180D3*
D26*
X80067D3*
D24*
X79280D3*
D26*
X84167D3*
D24*
X83380D3*
D26*
X88267D3*
D24*
X87479D3*
D26*
X92366D3*
D24*
X91579D3*
D26*
X96466D3*
D24*
X95678D3*
D26*
X100565D3*
D24*
X99778D3*
D26*
X104665D3*
D24*
X103878D3*
D26*
X108765D3*
D24*
X107977D3*
D26*
X112864D3*
D24*
X112077D3*
D26*
X116964D3*
D24*
X116176D3*
D26*
X121063D3*
D24*
X120276D3*
D26*
X125163D3*
D24*
X124376D3*
D26*
X129263D3*
D24*
X128475D3*
D26*
X133362D3*
D24*
X132575D3*
D26*
X137462D3*
D24*
X136674D3*
D26*
X141561D3*
D24*
X140774D3*
D26*
X145661D3*
D24*
X144874D3*
D26*
X149761D3*
D24*
X148973D3*
D26*
X153860D3*
D24*
X153073D3*
D26*
X157960D3*
D24*
X157172D3*
D26*
X162059D3*
D24*
X161272D3*
D26*
X166159D3*
D24*
X165372D3*
D26*
X170259D3*
D24*
X169471D3*
D26*
X174358D3*
D24*
X173571D3*
D26*
X178458D3*
D24*
X177670D3*
D26*
X182557D3*
D24*
X181770D3*
D26*
X186657D3*
D24*
X185870D3*
D26*
X190757D3*
D24*
X189969D3*
D26*
X194856D3*
D24*
X194069D3*
D26*
X198956D3*
D24*
X198169D3*
D26*
X203055D3*
D24*
X202268D3*
D26*
X207155D3*
D24*
X206368D3*
D26*
X211255D3*
D24*
X210467D3*
D26*
X215354D3*
D24*
X214567D3*
D26*
X219454D3*
D24*
X218667D3*
D26*
X223554D3*
D24*
X222766D3*
D26*
X227653D3*
D24*
X226866D3*
D26*
X231753D3*
D24*
X230965D3*
D26*
X235852D3*
D24*
X235065D3*
D26*
X239952D3*
D24*
X239165D3*
D26*
X244052D3*
D24*
X243264D3*
D26*
X248151D3*
D24*
X247364D3*
D26*
X252251D3*
D24*
X251463D3*
D26*
X256350D3*
D24*
X255563D3*
D26*
X260450D3*
D24*
X259663D3*
D26*
X264550D3*
D24*
X263762D3*
D26*
X268649D3*
D24*
X267862D3*
D26*
X272749D3*
D24*
X271961D3*
D26*
X276848D3*
D24*
X276061D3*
D26*
X280948D3*
D24*
X280161D3*
D26*
X285048D3*
D24*
X284260D3*
D26*
X289147D3*
D24*
X288360D3*
D26*
X293247D3*
D24*
X292459D3*
D26*
X297346D3*
D24*
X296559D3*
D26*
X301446D3*
D24*
X300659D3*
D26*
X305546D3*
D24*
X304758D3*
D26*
X309645D3*
D24*
X308858D3*
D26*
X313745D3*
D24*
X312957D3*
D26*
X317844D3*
D24*
X317057D3*
D26*
X321944D3*
D24*
X321157D3*
D26*
X326044D3*
D24*
X325256D3*
D26*
X330143D3*
D24*
X329356D3*
D26*
X334243D3*
D24*
X333455D3*
D26*
X338343D3*
D24*
X337555D3*
D26*
X342442D3*
D24*
X341655D3*
D26*
X346542D3*
D24*
X345754D3*
D26*
X350641D3*
D24*
X349854D3*
D26*
X354741D3*
D24*
X353954D3*
D26*
X358841D3*
D24*
X358053D3*
D26*
X362940D3*
D24*
X362153D3*
D26*
X367040D3*
D24*
X366252D3*
D26*
X371139D3*
D24*
X370352D3*
D26*
X375239D3*
D24*
X374452D3*
D26*
X379339D3*
D24*
X378551D3*
D26*
X383438D3*
D24*
X382651D3*
D26*
X387538D3*
D24*
X386750D3*
D26*
X391637D3*
D24*
X390850D3*
D26*
X395737D3*
D24*
X394950D3*
D28*
X4923Y15453D3*
D26*
X6274Y14173D3*
D24*
X5487D3*
D28*
X4923Y12894D3*
D26*
X10374Y14173D3*
D24*
X9587D3*
D28*
X396652Y15451D3*
Y12894D3*
D26*
X14474Y14173D3*
D24*
X13686D3*
D26*
X18573D3*
D24*
X17786D3*
D26*
X22673D3*
D24*
X21885D3*
D26*
X26772D3*
D24*
X25985D3*
D26*
X30872D3*
D24*
X30085D3*
D26*
X34972D3*
D24*
X34184D3*
D26*
X39071D3*
D24*
X38284D3*
D26*
X43171D3*
D24*
X42383D3*
D26*
X47270D3*
D24*
X46483D3*
D26*
X51370D3*
D24*
X50583D3*
D26*
X55470D3*
D24*
X54682D3*
D26*
X59569D3*
D24*
X58782D3*
D26*
X63669D3*
D24*
X62881D3*
D26*
X67769D3*
D24*
X66981D3*
D26*
X71868D3*
D24*
X71081D3*
D26*
X75968D3*
D24*
X75180D3*
D26*
X80067D3*
D24*
X79280D3*
D26*
X84167D3*
D24*
X83380D3*
D26*
X88267D3*
D24*
X87479D3*
D26*
X92366D3*
D24*
X91579D3*
D26*
X96466D3*
D24*
X95678D3*
D26*
X100565D3*
D24*
X99778D3*
D26*
X104665D3*
D24*
X103878D3*
D26*
X108765D3*
D24*
X107977D3*
D26*
X112864D3*
D24*
X112077D3*
D26*
X116964D3*
D24*
X116176D3*
D26*
X121063D3*
D24*
X120276D3*
D26*
X125163D3*
D24*
X124376D3*
D26*
X129263D3*
D24*
X128475D3*
D26*
X133362D3*
D24*
X132575D3*
D26*
X137462D3*
D24*
X136674D3*
D26*
X141561D3*
D24*
X140774D3*
D26*
X145661D3*
D24*
X144874D3*
D26*
X149761D3*
D24*
X148973D3*
D26*
X153860D3*
D24*
X153073D3*
D26*
X157960D3*
D24*
X157172D3*
D26*
X162059D3*
D24*
X161272D3*
D26*
X166159D3*
D24*
X165372D3*
D26*
X170259D3*
D24*
X169471D3*
D26*
X174358D3*
D24*
X173571D3*
D26*
X178458D3*
D24*
X177670D3*
D26*
X182557D3*
D24*
X181770D3*
D26*
X186657D3*
D24*
X185870D3*
D26*
X190757D3*
D24*
X189969D3*
D26*
X194856D3*
D24*
X194069D3*
D26*
X198956D3*
D24*
X198169D3*
D26*
X203055D3*
D24*
X202268D3*
D26*
X207155D3*
D24*
X206368D3*
D26*
X211255D3*
D24*
X210467D3*
D26*
X215354D3*
D24*
X214567D3*
D26*
X219454D3*
D24*
X218667D3*
D26*
X223554D3*
D24*
X222766D3*
D26*
X227653D3*
D24*
X226866D3*
D26*
X231753D3*
D24*
X230965D3*
D26*
X235852D3*
D24*
X235065D3*
D26*
X239952D3*
D24*
X239165D3*
D26*
X244052D3*
D24*
X243264D3*
D26*
X248151D3*
D24*
X247364D3*
D26*
X252251D3*
D24*
X251463D3*
D26*
X256350D3*
D24*
X255563D3*
D26*
X260450D3*
D24*
X259663D3*
D26*
X264550D3*
D24*
X263762D3*
D26*
X268649D3*
D24*
X267862D3*
D26*
X272749D3*
D24*
X271961D3*
D26*
X276848D3*
D24*
X276061D3*
D26*
X280948D3*
D24*
X280161D3*
D26*
X285048D3*
D24*
X284260D3*
D26*
X289147D3*
D24*
X288360D3*
D26*
X293247D3*
D24*
X292459D3*
D26*
X297346D3*
D24*
X296559D3*
D26*
X301446D3*
D24*
X300659D3*
D26*
X305546D3*
D24*
X304758D3*
D26*
X309645D3*
D24*
X308858D3*
D26*
X313745D3*
D24*
X312957D3*
D26*
X317844D3*
D24*
X317057D3*
D26*
X321944D3*
D24*
X321157D3*
D26*
X326044D3*
D24*
X325256D3*
D26*
X330143D3*
D24*
X329356D3*
D26*
X334243D3*
D24*
X333455D3*
D26*
X338343D3*
D24*
X337555D3*
D26*
X342442D3*
D24*
X341655D3*
D26*
X346542D3*
D24*
X345754D3*
D26*
X350641D3*
D24*
X349854D3*
D26*
X354741D3*
D24*
X353954D3*
D26*
X358841D3*
D24*
X358053D3*
D26*
X362940D3*
D24*
X362153D3*
D26*
X367040D3*
D24*
X366252D3*
D26*
X371139D3*
D24*
X370352D3*
D26*
X375239D3*
D24*
X374452D3*
D26*
X379339D3*
D24*
X378551D3*
D26*
X383438D3*
D24*
X382651D3*
D26*
X387538D3*
D24*
X386750D3*
D26*
X391637D3*
D24*
X390850D3*
D26*
X395737D3*
D24*
X394950D3*
D28*
X4923Y19587D3*
D26*
X6274Y18307D3*
D24*
X5487D3*
D28*
X4923Y17028D3*
D26*
X10374Y18307D3*
D24*
X9587D3*
D28*
X396652Y19585D3*
Y17028D3*
D26*
X14474Y18307D3*
D24*
X13686D3*
D26*
X18573D3*
D24*
X17786D3*
D26*
X22673D3*
D24*
X21885D3*
D26*
X26772D3*
D24*
X25985D3*
D26*
X30872D3*
D24*
X30085D3*
D26*
X34972D3*
D24*
X34184D3*
D26*
X39071D3*
D24*
X38284D3*
D26*
X43171D3*
D24*
X42383D3*
D26*
X47270D3*
D24*
X46483D3*
D26*
X51370D3*
D24*
X50583D3*
D26*
X55470D3*
D24*
X54682D3*
D26*
X59569D3*
D24*
X58782D3*
D26*
X63669D3*
D24*
X62881D3*
D26*
X67769D3*
D24*
X66981D3*
D26*
X71868D3*
D24*
X71081D3*
D26*
X75968D3*
D24*
X75180D3*
D26*
X80067D3*
D24*
X79280D3*
D26*
X84167D3*
D24*
X83380D3*
D26*
X88267D3*
D24*
X87479D3*
D26*
X92366D3*
D24*
X91579D3*
D26*
X96466D3*
D24*
X95678D3*
D26*
X100565D3*
D24*
X99778D3*
D26*
X104665D3*
D24*
X103878D3*
D26*
X108765D3*
D24*
X107977D3*
D26*
X112864D3*
D24*
X112077D3*
D26*
X116964D3*
D24*
X116176D3*
D26*
X121063D3*
D24*
X120276D3*
D26*
X125163D3*
D24*
X124376D3*
D26*
X129263D3*
D24*
X128475D3*
D26*
X133362D3*
D24*
X132575D3*
D26*
X137462D3*
D24*
X136674D3*
D26*
X141561D3*
D24*
X140774D3*
D26*
X145661D3*
D24*
X144874D3*
D26*
X149761D3*
D24*
X148973D3*
D26*
X153860D3*
D24*
X153073D3*
D26*
X157960D3*
D24*
X157172D3*
D26*
X162059D3*
D24*
X161272D3*
D26*
X166159D3*
D24*
X165372D3*
D26*
X170259D3*
D24*
X169471D3*
D26*
X174358D3*
D24*
X173571D3*
D26*
X178458D3*
D24*
X177670D3*
D26*
X182557D3*
D24*
X181770D3*
D26*
X186657D3*
D24*
X185870D3*
D26*
X190757D3*
D24*
X189969D3*
D26*
X194856D3*
D24*
X194069D3*
D26*
X198956D3*
D24*
X198169D3*
D26*
X203055D3*
D24*
X202268D3*
D26*
X207155D3*
D24*
X206368D3*
D26*
X211255D3*
D24*
X210467D3*
D26*
X215354D3*
D24*
X214567D3*
D26*
X219454D3*
D24*
X218667D3*
D26*
X223554D3*
D24*
X222766D3*
D26*
X227653D3*
D24*
X226866D3*
D26*
X231753D3*
D24*
X230965D3*
D26*
X235852D3*
D24*
X235065D3*
D26*
X239952D3*
D24*
X239165D3*
D26*
X244052D3*
D24*
X243264D3*
D26*
X248151D3*
D24*
X247364D3*
D26*
X252251D3*
D24*
X251463D3*
D26*
X256350D3*
D24*
X255563D3*
D26*
X260450D3*
D24*
X259663D3*
D26*
X264550D3*
D24*
X263762D3*
D26*
X268649D3*
D24*
X267862D3*
D26*
X272749D3*
D24*
X271961D3*
D26*
X276848D3*
D24*
X276061D3*
D26*
X280948D3*
D24*
X280161D3*
D26*
X285048D3*
D24*
X284260D3*
D26*
X289147D3*
D24*
X288360D3*
D26*
X293247D3*
D24*
X292459D3*
D26*
X297346D3*
D24*
X296559D3*
D26*
X301446D3*
D24*
X300659D3*
D26*
X305546D3*
D24*
X304758D3*
D26*
X309645D3*
D24*
X308858D3*
D26*
X313745D3*
D24*
X312957D3*
D26*
X317844D3*
D24*
X317057D3*
D26*
X321944D3*
D24*
X321157D3*
D26*
X326044D3*
D24*
X325256D3*
D26*
X330143D3*
D24*
X329356D3*
D26*
X334243D3*
D24*
X333455D3*
D26*
X338343D3*
D24*
X337555D3*
D26*
X342442D3*
D24*
X341655D3*
D26*
X346542D3*
D24*
X345754D3*
D26*
X350641D3*
D24*
X349854D3*
D26*
X354741D3*
D24*
X353954D3*
D26*
X358841D3*
D24*
X358053D3*
D26*
X362940D3*
D24*
X362153D3*
D26*
X367040D3*
D24*
X366252D3*
D26*
X371139D3*
D24*
X370352D3*
D26*
X375239D3*
D24*
X374452D3*
D26*
X379339D3*
D24*
X378551D3*
D26*
X383438D3*
D24*
X382651D3*
D26*
X387538D3*
D24*
X386750D3*
D26*
X391637D3*
D24*
X390850D3*
D26*
X395737D3*
D24*
X394950D3*
D28*
X4923Y23720D3*
D26*
X6274Y22441D3*
D24*
X5487D3*
D28*
X4923Y21161D3*
D26*
X10374Y22441D3*
D24*
X9587D3*
D28*
X396652Y23719D3*
Y21161D3*
D26*
X14474Y22441D3*
D24*
X13686D3*
D26*
X18573D3*
D24*
X17786D3*
D26*
X22673D3*
D24*
X21885D3*
D26*
X26772D3*
D24*
X25985D3*
D26*
X30872D3*
D24*
X30085D3*
D26*
X34972D3*
D24*
X34184D3*
D26*
X39071D3*
D24*
X38284D3*
D26*
X43171D3*
D24*
X42383D3*
D26*
X47270D3*
D24*
X46483D3*
D26*
X51370D3*
D24*
X50583D3*
D26*
X55470D3*
D24*
X54682D3*
D26*
X59569D3*
D24*
X58782D3*
D26*
X63669D3*
D24*
X62881D3*
D26*
X67769D3*
D24*
X66981D3*
D26*
X71868D3*
D24*
X71081D3*
D26*
X75968D3*
D24*
X75180D3*
D26*
X80067D3*
D24*
X79280D3*
D26*
X84167D3*
D24*
X83380D3*
D26*
X88267D3*
D24*
X87479D3*
D26*
X92366D3*
D24*
X91579D3*
D26*
X96466D3*
D24*
X95678D3*
D26*
X100565D3*
D24*
X99778D3*
D26*
X104665D3*
D24*
X103878D3*
D26*
X108765D3*
D24*
X107977D3*
D26*
X112864D3*
D24*
X112077D3*
D26*
X116964D3*
D24*
X116176D3*
D26*
X121063D3*
D24*
X120276D3*
D26*
X125163D3*
D24*
X124376D3*
D26*
X129263D3*
D24*
X128475D3*
D26*
X133362D3*
D24*
X132575D3*
D26*
X137462D3*
D24*
X136674D3*
D26*
X141561D3*
D24*
X140774D3*
D26*
X145661D3*
D24*
X144874D3*
D26*
X149761D3*
D24*
X148973D3*
D26*
X153860D3*
D24*
X153073D3*
D26*
X157960D3*
D24*
X157172D3*
D26*
X162059D3*
D24*
X161272D3*
D26*
X166159D3*
D24*
X165372D3*
D26*
X170259D3*
D24*
X169471D3*
D26*
X174358D3*
D24*
X173571D3*
D26*
X178458D3*
D24*
X177670D3*
D26*
X182557D3*
D24*
X181770D3*
D26*
X186657D3*
D24*
X185870D3*
D26*
X190757D3*
D24*
X189969D3*
D26*
X194856D3*
D24*
X194069D3*
D26*
X198956D3*
D24*
X198169D3*
D26*
X203055D3*
D24*
X202268D3*
D26*
X207155D3*
D24*
X206368D3*
D26*
X211255D3*
D24*
X210467D3*
D26*
X215354D3*
D24*
X214567D3*
D26*
X219454D3*
D24*
X218667D3*
D26*
X223554D3*
D24*
X222766D3*
D26*
X227653D3*
D24*
X226866D3*
D26*
X231753D3*
D24*
X230965D3*
D26*
X235852D3*
D24*
X235065D3*
D26*
X239952D3*
D24*
X239165D3*
D26*
X244052D3*
D24*
X243264D3*
D26*
X248151D3*
D24*
X247364D3*
D26*
X252251D3*
D24*
X251463D3*
D26*
X256350D3*
D24*
X255563D3*
D26*
X260450D3*
D24*
X259663D3*
D26*
X264550D3*
D24*
X263762D3*
D26*
X268649D3*
D24*
X267862D3*
D26*
X272749D3*
D24*
X271961D3*
D26*
X276848D3*
D24*
X276061D3*
D26*
X280948D3*
D24*
X280161D3*
D26*
X285048D3*
D24*
X284260D3*
D26*
X289147D3*
D24*
X288360D3*
D26*
X293247D3*
D24*
X292459D3*
D26*
X297346D3*
D24*
X296559D3*
D26*
X301446D3*
D24*
X300659D3*
D26*
X305546D3*
D24*
X304758D3*
D26*
X309645D3*
D24*
X308858D3*
D26*
X313745D3*
D24*
X312957D3*
D26*
X317844D3*
D24*
X317057D3*
D26*
X321944D3*
D24*
X321157D3*
D26*
X326044D3*
D24*
X325256D3*
D26*
X330143D3*
D24*
X329356D3*
D26*
X334243D3*
D24*
X333455D3*
D26*
X338343D3*
D24*
X337555D3*
D26*
X342442D3*
D24*
X341655D3*
D26*
X346542D3*
D24*
X345754D3*
D26*
X350641D3*
D24*
X349854D3*
D26*
X354741D3*
D24*
X353954D3*
D26*
X358841D3*
D24*
X358053D3*
D26*
X362940D3*
D24*
X362153D3*
D26*
X367040D3*
D24*
X366252D3*
D26*
X371139D3*
D24*
X370352D3*
D26*
X375239D3*
D24*
X374452D3*
D26*
X379339D3*
D24*
X378551D3*
D26*
X383438D3*
D24*
X382651D3*
D26*
X387538D3*
D24*
X386750D3*
D26*
X391637D3*
D24*
X390850D3*
D26*
X395737D3*
D24*
X394950D3*
D28*
X4923Y27854D3*
D26*
X6274Y26575D3*
D24*
X5487D3*
D28*
X4923Y25295D3*
D26*
X10374Y26575D3*
D24*
X9587D3*
D28*
X396652Y27853D3*
Y25295D3*
D26*
X14474Y26575D3*
D24*
X13686D3*
D26*
X18573D3*
D24*
X17786D3*
D26*
X22673D3*
D24*
X21885D3*
D26*
X26772D3*
D24*
X25985D3*
D26*
X30872D3*
D24*
X30085D3*
D26*
X34972D3*
D24*
X34184D3*
D26*
X39071D3*
D24*
X38284D3*
D26*
X43171D3*
D24*
X42383D3*
D26*
X47270D3*
D24*
X46483D3*
D26*
X51370D3*
D24*
X50583D3*
D26*
X55470D3*
D24*
X54682D3*
D26*
X59569D3*
D24*
X58782D3*
D26*
X63669D3*
D24*
X62881D3*
D26*
X67769D3*
D24*
X66981D3*
D26*
X71868D3*
D24*
X71081D3*
D26*
X75968D3*
D24*
X75180D3*
D26*
X80067D3*
D24*
X79280D3*
D26*
X84167D3*
D24*
X83380D3*
D26*
X88267D3*
D24*
X87479D3*
D26*
X92366D3*
D24*
X91579D3*
D26*
X96466D3*
D24*
X95678D3*
D26*
X100565D3*
D24*
X99778D3*
D26*
X104665D3*
D24*
X103878D3*
D26*
X108765D3*
D24*
X107977D3*
D26*
X112864D3*
D24*
X112077D3*
D26*
X116964D3*
D24*
X116176D3*
D26*
X121063D3*
D24*
X120276D3*
D26*
X125163D3*
D24*
X124376D3*
D26*
X129263D3*
D24*
X128475D3*
D26*
X133362D3*
D24*
X132575D3*
D26*
X137462D3*
D24*
X136674D3*
D26*
X141561D3*
D24*
X140774D3*
D26*
X145661D3*
D24*
X144874D3*
D26*
X149761D3*
D24*
X148973D3*
D26*
X153860D3*
D24*
X153073D3*
D26*
X157960D3*
D24*
X157172D3*
D26*
X162059D3*
D24*
X161272D3*
D26*
X166159D3*
D24*
X165372D3*
D26*
X170259D3*
D24*
X169471D3*
D26*
X174358D3*
D24*
X173571D3*
D26*
X178458D3*
D24*
X177670D3*
D26*
X182557D3*
D24*
X181770D3*
D26*
X186657D3*
D24*
X185870D3*
D26*
X190757D3*
D24*
X189969D3*
D26*
X194856D3*
D24*
X194069D3*
D26*
X198956D3*
D24*
X198169D3*
D26*
X203055D3*
D24*
X202268D3*
D26*
X207155D3*
D24*
X206368D3*
D26*
X211255D3*
D24*
X210467D3*
D26*
X215354D3*
D24*
X214567D3*
D26*
X219454D3*
D24*
X218667D3*
D26*
X223554D3*
D24*
X222766D3*
D26*
X227653D3*
D24*
X226866D3*
D26*
X231753D3*
D24*
X230965D3*
D26*
X235852D3*
D24*
X235065D3*
D26*
X239952D3*
D24*
X239165D3*
D26*
X244052D3*
D24*
X243264D3*
D26*
X248151D3*
D24*
X247364D3*
D26*
X252251D3*
D24*
X251463D3*
D26*
X256350D3*
D24*
X255563D3*
D26*
X260450D3*
D24*
X259663D3*
D26*
X264550D3*
D24*
X263762D3*
D26*
X268649D3*
D24*
X267862D3*
D26*
X272749D3*
D24*
X271961D3*
D26*
X276848D3*
D24*
X276061D3*
D26*
X280948D3*
D24*
X280161D3*
D26*
X285048D3*
D24*
X284260D3*
D26*
X289147D3*
D24*
X288360D3*
D26*
X293247D3*
D24*
X292459D3*
D26*
X297346D3*
D24*
X296559D3*
D26*
X301446D3*
D24*
X300659D3*
D26*
X305546D3*
D24*
X304758D3*
D26*
X309645D3*
D24*
X308858D3*
D26*
X313745D3*
D24*
X312957D3*
D26*
X317844D3*
D24*
X317057D3*
D26*
X321944D3*
D24*
X321157D3*
D26*
X326044D3*
D24*
X325256D3*
D26*
X330143D3*
D24*
X329356D3*
D26*
X334243D3*
D24*
X333455D3*
D26*
X338343D3*
D24*
X337555D3*
D26*
X342442D3*
D24*
X341655D3*
D26*
X346542D3*
D24*
X345754D3*
D26*
X350641D3*
D24*
X349854D3*
D26*
X354741D3*
D24*
X353954D3*
D26*
X358841D3*
D24*
X358053D3*
D26*
X362940D3*
D24*
X362153D3*
D26*
X367040D3*
D24*
X366252D3*
D26*
X371139D3*
D24*
X370352D3*
D26*
X375239D3*
D24*
X374452D3*
D26*
X379339D3*
D24*
X378551D3*
D26*
X383438D3*
D24*
X382651D3*
D26*
X387538D3*
D24*
X386750D3*
D26*
X391637D3*
D24*
X390850D3*
D26*
X395737D3*
D24*
X394950D3*
D28*
X4923Y31988D3*
D26*
X6274Y30709D3*
D24*
X5487D3*
D28*
X4923Y29429D3*
D26*
X10374Y30709D3*
D24*
X9587D3*
D28*
X396652Y31987D3*
Y29429D3*
D26*
X14474Y30709D3*
D24*
X13686D3*
D26*
X18573D3*
D24*
X17786D3*
D26*
X22673D3*
D24*
X21885D3*
D26*
X26772D3*
D24*
X25985D3*
D26*
X30872D3*
D24*
X30085D3*
D26*
X34972D3*
D24*
X34184D3*
D26*
X39071D3*
D24*
X38284D3*
D26*
X43171D3*
D24*
X42383D3*
D26*
X47270D3*
D24*
X46483D3*
D26*
X51370D3*
D24*
X50583D3*
D26*
X55470D3*
D24*
X54682D3*
D26*
X59569D3*
D24*
X58782D3*
D26*
X63669D3*
D24*
X62881D3*
D26*
X67769D3*
D24*
X66981D3*
D26*
X71868D3*
D24*
X71081D3*
D26*
X75968D3*
D24*
X75180D3*
D26*
X80067D3*
D24*
X79280D3*
D26*
X84167D3*
D24*
X83380D3*
D26*
X88267D3*
D24*
X87479D3*
D26*
X92366D3*
D24*
X91579D3*
D26*
X96466D3*
D24*
X95678D3*
D26*
X100565D3*
D24*
X99778D3*
D26*
X104665D3*
D24*
X103878D3*
D26*
X108765D3*
D24*
X107977D3*
D26*
X112864D3*
D24*
X112077D3*
D26*
X116964D3*
D24*
X116176D3*
D26*
X121063D3*
D24*
X120276D3*
D26*
X125163D3*
D24*
X124376D3*
D26*
X129263D3*
D24*
X128475D3*
D26*
X133362D3*
D24*
X132575D3*
D26*
X137462D3*
D24*
X136674D3*
D26*
X141561D3*
D24*
X140774D3*
D26*
X145661D3*
D24*
X144874D3*
D26*
X149761D3*
D24*
X148973D3*
D26*
X153860D3*
D24*
X153073D3*
D26*
X157960D3*
D24*
X157172D3*
D26*
X162059D3*
D24*
X161272D3*
D26*
X166159D3*
D24*
X165372D3*
D26*
X170259D3*
D24*
X169471D3*
D26*
X174358D3*
D24*
X173571D3*
D26*
X178458D3*
D24*
X177670D3*
D26*
X182557D3*
D24*
X181770D3*
D26*
X186657D3*
D24*
X185870D3*
D26*
X190757D3*
D24*
X189969D3*
D26*
X194856D3*
D24*
X194069D3*
D26*
X198956D3*
D24*
X198169D3*
D26*
X203055D3*
D24*
X202268D3*
D26*
X207155D3*
D24*
X206368D3*
D26*
X211255D3*
D24*
X210467D3*
D26*
X215354D3*
D24*
X214567D3*
D26*
X219454D3*
D24*
X218667D3*
D26*
X223554D3*
D24*
X222766D3*
D26*
X227653D3*
D24*
X226866D3*
D26*
X231753D3*
D24*
X230965D3*
D26*
X235852D3*
D24*
X235065D3*
D26*
X239952D3*
D24*
X239165D3*
D26*
X244052D3*
D24*
X243264D3*
D26*
X248151D3*
D24*
X247364D3*
D26*
X252251D3*
D24*
X251463D3*
D26*
X256350D3*
D24*
X255563D3*
D26*
X260450D3*
D24*
X259663D3*
D26*
X264550D3*
D24*
X263762D3*
D26*
X268649D3*
D24*
X267862D3*
D26*
X272749D3*
D24*
X271961D3*
D26*
X276848D3*
D24*
X276061D3*
D26*
X280948D3*
D24*
X280161D3*
D26*
X285048D3*
D24*
X284260D3*
D26*
X289147D3*
D24*
X288360D3*
D26*
X293247D3*
D24*
X292459D3*
D26*
X297346D3*
D24*
X296559D3*
D26*
X301446D3*
D24*
X300659D3*
D26*
X305546D3*
D24*
X304758D3*
D26*
X309645D3*
D24*
X308858D3*
D26*
X313745D3*
D24*
X312957D3*
D26*
X317844D3*
D24*
X317057D3*
D26*
X321944D3*
D24*
X321157D3*
D26*
X326044D3*
D24*
X325256D3*
D26*
X330143D3*
D24*
X329356D3*
D26*
X334243D3*
D24*
X333455D3*
D26*
X338343D3*
D24*
X337555D3*
D26*
X342442D3*
D24*
X341655D3*
D26*
X346542D3*
D24*
X345754D3*
D26*
X350641D3*
D24*
X349854D3*
D26*
X354741D3*
D24*
X353954D3*
D26*
X358841D3*
D24*
X358053D3*
D26*
X362940D3*
D24*
X362153D3*
D26*
X367040D3*
D24*
X366252D3*
D26*
X371139D3*
D24*
X370352D3*
D26*
X375239D3*
D24*
X374452D3*
D26*
X379339D3*
D24*
X378551D3*
D26*
X383438D3*
D24*
X382651D3*
D26*
X387538D3*
D24*
X386750D3*
D26*
X391637D3*
D24*
X390850D3*
D26*
X395737D3*
D24*
X394950D3*
D28*
X4923Y36122D3*
D26*
X6274Y34843D3*
D24*
X5487D3*
D28*
X4923Y33563D3*
D26*
X10374Y34843D3*
D24*
X9587D3*
D28*
X396652Y36121D3*
Y33563D3*
D26*
X14474Y34843D3*
D24*
X13686D3*
D26*
X18573D3*
D24*
X17786D3*
D26*
X22673D3*
D24*
X21885D3*
D26*
X26772D3*
D24*
X25985D3*
D26*
X30872D3*
D24*
X30085D3*
D26*
X34972D3*
D24*
X34184D3*
D26*
X39071D3*
D24*
X38284D3*
D26*
X43171D3*
D24*
X42383D3*
D26*
X47270D3*
D24*
X46483D3*
D26*
X51370D3*
D24*
X50583D3*
D26*
X55470D3*
D24*
X54682D3*
D26*
X59569D3*
D24*
X58782D3*
D26*
X63669D3*
D24*
X62881D3*
D26*
X67769D3*
D24*
X66981D3*
D26*
X71868D3*
D24*
X71081D3*
D26*
X75968D3*
D24*
X75180D3*
D26*
X80067D3*
D24*
X79280D3*
D26*
X84167D3*
D24*
X83380D3*
D26*
X88267D3*
D24*
X87479D3*
D26*
X92366D3*
D24*
X91579D3*
D26*
X96466D3*
D24*
X95678D3*
D26*
X100565D3*
D24*
X99778D3*
D26*
X104665D3*
D24*
X103878D3*
D26*
X108765D3*
D24*
X107977D3*
D26*
X112864D3*
D24*
X112077D3*
D26*
X116964D3*
D24*
X116176D3*
D26*
X121063D3*
D24*
X120276D3*
D26*
X125163D3*
D24*
X124376D3*
D26*
X129263D3*
D24*
X128475D3*
D26*
X133362D3*
D24*
X132575D3*
D26*
X137462D3*
D24*
X136674D3*
D26*
X141561D3*
D24*
X140774D3*
D26*
X145661D3*
D24*
X144874D3*
D26*
X149761D3*
D24*
X148973D3*
D26*
X153860D3*
D24*
X153073D3*
D26*
X157960D3*
D24*
X157172D3*
D26*
X162059D3*
D24*
X161272D3*
D26*
X166159D3*
D24*
X165372D3*
D26*
X170259D3*
D24*
X169471D3*
D26*
X174358D3*
D24*
X173571D3*
D26*
X178458D3*
D24*
X177670D3*
D26*
X182557D3*
D24*
X181770D3*
D26*
X186657D3*
D24*
X185870D3*
D26*
X190757D3*
D24*
X189969D3*
D26*
X194856D3*
D24*
X194069D3*
D26*
X198956D3*
D24*
X198169D3*
D26*
X203055D3*
D24*
X202268D3*
D26*
X207155D3*
D24*
X206368D3*
D26*
X211255D3*
D24*
X210467D3*
D26*
X215354D3*
D24*
X214567D3*
D26*
X219454D3*
D24*
X218667D3*
D26*
X223554D3*
D24*
X222766D3*
D26*
X227653D3*
D24*
X226866D3*
D26*
X231753D3*
D24*
X230965D3*
D26*
X235852D3*
D24*
X235065D3*
D26*
X239952D3*
D24*
X239165D3*
D26*
X244052D3*
D24*
X243264D3*
D26*
X248151D3*
D24*
X247364D3*
D26*
X252251D3*
D24*
X251463D3*
D26*
X256350D3*
D24*
X255563D3*
D26*
X260450D3*
D24*
X259663D3*
D26*
X264550D3*
D24*
X263762D3*
D26*
X268649D3*
D24*
X267862D3*
D26*
X272749D3*
D24*
X271961D3*
D26*
X276848D3*
D24*
X276061D3*
D26*
X280948D3*
D24*
X280161D3*
D26*
X285048D3*
D24*
X284260D3*
D26*
X289147D3*
D24*
X288360D3*
D26*
X293247D3*
D24*
X292459D3*
D26*
X297346D3*
D24*
X296559D3*
D26*
X301446D3*
D24*
X300659D3*
D26*
X305546D3*
D24*
X304758D3*
D26*
X309645D3*
D24*
X308858D3*
D26*
X313745D3*
D24*
X312957D3*
D26*
X317844D3*
D24*
X317057D3*
D26*
X321944D3*
D24*
X321157D3*
D26*
X326044D3*
D24*
X325256D3*
D26*
X330143D3*
D24*
X329356D3*
D26*
X334243D3*
D24*
X333455D3*
D26*
X338343D3*
D24*
X337555D3*
D26*
X342442D3*
D24*
X341655D3*
D26*
X346542D3*
D24*
X345754D3*
D26*
X350641D3*
D24*
X349854D3*
D26*
X354741D3*
D24*
X353954D3*
D26*
X358841D3*
D24*
X358053D3*
D26*
X362940D3*
D24*
X362153D3*
D26*
X367040D3*
D24*
X366252D3*
D26*
X371139D3*
D24*
X370352D3*
D26*
X375239D3*
D24*
X374452D3*
D26*
X379339D3*
D24*
X378551D3*
D26*
X383438D3*
D24*
X382651D3*
D26*
X387538D3*
D24*
X386750D3*
D26*
X391637D3*
D24*
X390850D3*
D26*
X395737D3*
D24*
X394950D3*
D28*
X4923Y40256D3*
D26*
X6274Y38976D3*
D24*
X5487D3*
D28*
X4923Y37697D3*
D26*
X10374Y38976D3*
D24*
X9587D3*
D28*
X396652Y40255D3*
Y37697D3*
D26*
X14474Y38976D3*
D24*
X13686D3*
D26*
X18573D3*
D24*
X17786D3*
D26*
X22673D3*
D24*
X21885D3*
D26*
X26772D3*
D24*
X25985D3*
D26*
X30872D3*
D24*
X30085D3*
D26*
X34972D3*
D24*
X34184D3*
D26*
X39071D3*
D24*
X38284D3*
D26*
X43171D3*
D24*
X42383D3*
D26*
X47270D3*
D24*
X46483D3*
D26*
X51370D3*
D24*
X50583D3*
D26*
X55470D3*
D24*
X54682D3*
D26*
X59569D3*
D24*
X58782D3*
D26*
X63669D3*
D24*
X62881D3*
D26*
X67769D3*
D24*
X66981D3*
D26*
X71868D3*
D24*
X71081D3*
D26*
X75968D3*
D24*
X75180D3*
D26*
X80067D3*
D24*
X79280D3*
D26*
X84167D3*
D24*
X83380D3*
D26*
X88267D3*
D24*
X87479D3*
D26*
X92366D3*
D24*
X91579D3*
D26*
X96466D3*
D24*
X95678D3*
D26*
X100565D3*
D24*
X99778D3*
D26*
X104665D3*
D24*
X103878D3*
D26*
X108765D3*
D24*
X107977D3*
D26*
X112864D3*
D24*
X112077D3*
D26*
X116964D3*
D24*
X116176D3*
D26*
X121063D3*
D24*
X120276D3*
D26*
X125163D3*
D24*
X124376D3*
D26*
X129263D3*
D24*
X128475D3*
D26*
X133362D3*
D24*
X132575D3*
D26*
X137462D3*
D24*
X136674D3*
D26*
X141561D3*
D24*
X140774D3*
D26*
X145661D3*
D24*
X144874D3*
D26*
X149761D3*
D24*
X148973D3*
D26*
X153860D3*
D24*
X153073D3*
D26*
X157960D3*
D24*
X157172D3*
D26*
X162059D3*
D24*
X161272D3*
D26*
X166159D3*
D24*
X165372D3*
D26*
X170259D3*
D24*
X169471D3*
D26*
X174358D3*
D24*
X173571D3*
D26*
X178458D3*
D24*
X177670D3*
D26*
X182557D3*
D24*
X181770D3*
D26*
X186657D3*
D24*
X185870D3*
D26*
X190757D3*
D24*
X189969D3*
D26*
X194856D3*
D24*
X194069D3*
D26*
X198956D3*
D24*
X198169D3*
D26*
X203055D3*
D24*
X202268D3*
D26*
X207155D3*
D24*
X206368D3*
D26*
X211255D3*
D24*
X210467D3*
D26*
X215354D3*
D24*
X214567D3*
D26*
X219454D3*
D24*
X218667D3*
D26*
X223554D3*
D24*
X222766D3*
D26*
X227653D3*
D24*
X226866D3*
D26*
X231753D3*
D24*
X230965D3*
D26*
X235852D3*
D24*
X235065D3*
D26*
X239952D3*
D24*
X239165D3*
D26*
X244052D3*
D24*
X243264D3*
D26*
X248151D3*
D24*
X247364D3*
D26*
X252251D3*
D24*
X251463D3*
D26*
X256350D3*
D24*
X255563D3*
D26*
X260450D3*
D24*
X259663D3*
D26*
X264550D3*
D24*
X263762D3*
D26*
X268649D3*
D24*
X267862D3*
D26*
X272749D3*
D24*
X271961D3*
D26*
X276848D3*
D24*
X276061D3*
D26*
X280948D3*
D24*
X280161D3*
D26*
X285048D3*
D24*
X284260D3*
D26*
X289147D3*
D24*
X288360D3*
D26*
X293247D3*
D24*
X292459D3*
D26*
X297346D3*
D24*
X296559D3*
D26*
X301446D3*
D24*
X300659D3*
D26*
X305546D3*
D24*
X304758D3*
D26*
X309645D3*
D24*
X308858D3*
D26*
X313745D3*
D24*
X312957D3*
D26*
X317844D3*
D24*
X317057D3*
D26*
X321944D3*
D24*
X321157D3*
D26*
X326044D3*
D24*
X325256D3*
D26*
X330143D3*
D24*
X329356D3*
D26*
X334243D3*
D24*
X333455D3*
D26*
X338343D3*
D24*
X337555D3*
D26*
X342442D3*
D24*
X341655D3*
D26*
X346542D3*
D24*
X345754D3*
D26*
X350641D3*
D24*
X349854D3*
D26*
X354741D3*
D24*
X353954D3*
D26*
X358841D3*
D24*
X358053D3*
D26*
X362940D3*
D24*
X362153D3*
D26*
X367040D3*
D24*
X366252D3*
D26*
X371139D3*
D24*
X370352D3*
D26*
X375239D3*
D24*
X374452D3*
D26*
X379339D3*
D24*
X378551D3*
D26*
X383438D3*
D24*
X382651D3*
D26*
X387538D3*
D24*
X386750D3*
D26*
X391637D3*
D24*
X390850D3*
D26*
X395737D3*
D24*
X394950D3*
D28*
X4923Y44390D3*
D26*
X6274Y43110D3*
D24*
X5487D3*
D28*
X4923Y41831D3*
D26*
X10374Y43110D3*
D24*
X9587D3*
D28*
X396652Y44388D3*
Y41831D3*
D26*
X14474Y43110D3*
D24*
X13686D3*
D26*
X18573D3*
D24*
X17786D3*
D26*
X22673D3*
D24*
X21885D3*
D26*
X26772D3*
D24*
X25985D3*
D26*
X30872D3*
D24*
X30085D3*
D26*
X34972D3*
D24*
X34184D3*
D26*
X39071D3*
D24*
X38284D3*
D26*
X43171D3*
D24*
X42383D3*
D26*
X47270D3*
D24*
X46483D3*
D26*
X51370D3*
D24*
X50583D3*
D26*
X55470D3*
D24*
X54682D3*
D26*
X59569D3*
D24*
X58782D3*
D26*
X63669D3*
D24*
X62881D3*
D26*
X67769D3*
D24*
X66981D3*
D26*
X71868D3*
D24*
X71081D3*
D26*
X75968D3*
D24*
X75180D3*
D26*
X80067D3*
D24*
X79280D3*
D26*
X84167D3*
D24*
X83380D3*
D26*
X88267D3*
D24*
X87479D3*
D26*
X92366D3*
D24*
X91579D3*
D26*
X96466D3*
D24*
X95678D3*
D26*
X100565D3*
D24*
X99778D3*
D26*
X104665D3*
D24*
X103878D3*
D26*
X108765D3*
D24*
X107977D3*
D26*
X112864D3*
D24*
X112077D3*
D26*
X116964D3*
D24*
X116176D3*
D26*
X121063D3*
D24*
X120276D3*
D26*
X125163D3*
D24*
X124376D3*
D26*
X129263D3*
D24*
X128475D3*
D26*
X133362D3*
D24*
X132575D3*
D26*
X137462D3*
D24*
X136674D3*
D26*
X141561D3*
D24*
X140774D3*
D26*
X145661D3*
D24*
X144874D3*
D26*
X149761D3*
D24*
X148973D3*
D26*
X153860D3*
D24*
X153073D3*
D26*
X157960D3*
D24*
X157172D3*
D26*
X162059D3*
D24*
X161272D3*
D26*
X166159D3*
D24*
X165372D3*
D26*
X170259D3*
D24*
X169471D3*
D26*
X174358D3*
D24*
X173571D3*
D26*
X178458D3*
D24*
X177670D3*
D26*
X182557D3*
D24*
X181770D3*
D26*
X186657D3*
D24*
X185870D3*
D26*
X190757D3*
D24*
X189969D3*
D26*
X194856D3*
D24*
X194069D3*
D26*
X198956D3*
D24*
X198169D3*
D26*
X203055D3*
D24*
X202268D3*
D26*
X207155D3*
D24*
X206368D3*
D26*
X211255D3*
D24*
X210467D3*
D26*
X215354D3*
D24*
X214567D3*
D26*
X219454D3*
D24*
X218667D3*
D26*
X223554D3*
D24*
X222766D3*
D26*
X227653D3*
D24*
X226866D3*
D26*
X231753D3*
D24*
X230965D3*
D26*
X235852D3*
D24*
X235065D3*
D26*
X239952D3*
D24*
X239165D3*
D26*
X244052D3*
D24*
X243264D3*
D26*
X248151D3*
D24*
X247364D3*
D26*
X252251D3*
D24*
X251463D3*
D26*
X256350D3*
D24*
X255563D3*
D26*
X260450D3*
D24*
X259663D3*
D26*
X264550D3*
D24*
X263762D3*
D26*
X268649D3*
D24*
X267862D3*
D26*
X272749D3*
D24*
X271961D3*
D26*
X276848D3*
D24*
X276061D3*
D26*
X280948D3*
D24*
X280161D3*
D26*
X285048D3*
D24*
X284260D3*
D26*
X289147D3*
D24*
X288360D3*
D26*
X293247D3*
D24*
X292459D3*
D26*
X297346D3*
D24*
X296559D3*
D26*
X301446D3*
D24*
X300659D3*
D26*
X305546D3*
D24*
X304758D3*
D26*
X309645D3*
D24*
X308858D3*
D26*
X313745D3*
D24*
X312957D3*
D26*
X317844D3*
D24*
X317057D3*
D26*
X321944D3*
D24*
X321157D3*
D26*
X326044D3*
D24*
X325256D3*
D26*
X330143D3*
D24*
X329356D3*
D26*
X334243D3*
D24*
X333455D3*
D26*
X338343D3*
D24*
X337555D3*
D26*
X342442D3*
D24*
X341655D3*
D26*
X346542D3*
D24*
X345754D3*
D26*
X350641D3*
D24*
X349854D3*
D26*
X354741D3*
D24*
X353954D3*
D26*
X358841D3*
D24*
X358053D3*
D26*
X362940D3*
D24*
X362153D3*
D26*
X367040D3*
D24*
X366252D3*
D26*
X371139D3*
D24*
X370352D3*
D26*
X375239D3*
D24*
X374452D3*
D26*
X379339D3*
D24*
X378551D3*
D26*
X383438D3*
D24*
X382651D3*
D26*
X387538D3*
D24*
X386750D3*
D26*
X391637D3*
D24*
X390850D3*
D26*
X395737D3*
D24*
X394950D3*
D28*
X4923Y48524D3*
D26*
X6274Y47244D3*
D24*
X5487D3*
D28*
X4923Y45965D3*
D26*
X10374Y47244D3*
D24*
X9587D3*
D28*
X396652Y48522D3*
Y45965D3*
D26*
X14474Y47244D3*
D24*
X13686D3*
D26*
X18573D3*
D24*
X17786D3*
D26*
X22673D3*
D24*
X21885D3*
D26*
X26772D3*
D24*
X25985D3*
D26*
X30872D3*
D24*
X30085D3*
D26*
X34972D3*
D24*
X34184D3*
D26*
X39071D3*
D24*
X38284D3*
D26*
X43171D3*
D24*
X42383D3*
D26*
X47270D3*
D24*
X46483D3*
D26*
X51370D3*
D24*
X50583D3*
D26*
X55470D3*
D24*
X54682D3*
D26*
X59569D3*
D24*
X58782D3*
D26*
X63669D3*
D24*
X62881D3*
D26*
X67769D3*
D24*
X66981D3*
D26*
X71868D3*
D24*
X71081D3*
D26*
X75968D3*
D24*
X75180D3*
D26*
X80067D3*
D24*
X79280D3*
D26*
X84167D3*
D24*
X83380D3*
D26*
X88267D3*
D24*
X87479D3*
D26*
X92366D3*
D24*
X91579D3*
D26*
X96466D3*
D24*
X95678D3*
D26*
X100565D3*
D24*
X99778D3*
D26*
X104665D3*
D24*
X103878D3*
D26*
X108765D3*
D24*
X107977D3*
D26*
X112864D3*
D24*
X112077D3*
D26*
X116964D3*
D24*
X116176D3*
D26*
X121063D3*
D24*
X120276D3*
D26*
X125163D3*
D24*
X124376D3*
D26*
X129263D3*
D24*
X128475D3*
D26*
X133362D3*
D24*
X132575D3*
D26*
X137462D3*
D24*
X136674D3*
D26*
X141561D3*
D24*
X140774D3*
D26*
X145661D3*
D24*
X144874D3*
D26*
X149761D3*
D24*
X148973D3*
D26*
X153860D3*
D24*
X153073D3*
D26*
X157960D3*
D24*
X157172D3*
D26*
X162059D3*
D24*
X161272D3*
D26*
X166159D3*
D24*
X165372D3*
D26*
X170259D3*
D24*
X169471D3*
D26*
X174358D3*
D24*
X173571D3*
D26*
X178458D3*
D24*
X177670D3*
D26*
X182557D3*
D24*
X181770D3*
D26*
X186657D3*
D24*
X185870D3*
D26*
X190757D3*
D24*
X189969D3*
D26*
X194856D3*
D24*
X194069D3*
D26*
X198956D3*
D24*
X198169D3*
D26*
X203055D3*
D24*
X202268D3*
D26*
X207155D3*
D24*
X206368D3*
D26*
X211255D3*
D24*
X210467D3*
D26*
X215354D3*
D24*
X214567D3*
D26*
X219454D3*
D24*
X218667D3*
D26*
X223554D3*
D24*
X222766D3*
D26*
X227653D3*
D24*
X226866D3*
D26*
X231753D3*
D24*
X230965D3*
D26*
X235852D3*
D24*
X235065D3*
D26*
X239952D3*
D24*
X239165D3*
D26*
X244052D3*
D24*
X243264D3*
D26*
X248151D3*
D24*
X247364D3*
D26*
X252251D3*
D24*
X251463D3*
D26*
X256350D3*
D24*
X255563D3*
D26*
X260450D3*
D24*
X259663D3*
D26*
X264550D3*
D24*
X263762D3*
D26*
X268649D3*
D24*
X267862D3*
D26*
X272749D3*
D24*
X271961D3*
D26*
X276848D3*
D24*
X276061D3*
D26*
X280948D3*
D24*
X280161D3*
D26*
X285048D3*
D24*
X284260D3*
D26*
X289147D3*
D24*
X288360D3*
D26*
X293247D3*
D24*
X292459D3*
D26*
X297346D3*
D24*
X296559D3*
D26*
X301446D3*
D24*
X300659D3*
D26*
X305546D3*
D24*
X304758D3*
D26*
X309645D3*
D24*
X308858D3*
D26*
X313745D3*
D24*
X312957D3*
D26*
X317844D3*
D24*
X317057D3*
D26*
X321944D3*
D24*
X321157D3*
D26*
X326044D3*
D24*
X325256D3*
D26*
X330143D3*
D24*
X329356D3*
D26*
X334243D3*
D24*
X333455D3*
D26*
X338343D3*
D24*
X337555D3*
D26*
X342442D3*
D24*
X341655D3*
D26*
X346542D3*
D24*
X345754D3*
D26*
X350641D3*
D24*
X349854D3*
D26*
X354741D3*
D24*
X353954D3*
D26*
X358841D3*
D24*
X358053D3*
D26*
X362940D3*
D24*
X362153D3*
D26*
X367040D3*
D24*
X366252D3*
D26*
X371139D3*
D24*
X370352D3*
D26*
X375239D3*
D24*
X374452D3*
D26*
X379339D3*
D24*
X378551D3*
D26*
X383438D3*
D24*
X382651D3*
D26*
X387538D3*
D24*
X386750D3*
D26*
X391637D3*
D24*
X390850D3*
D26*
X395737D3*
D24*
X394950D3*
M02*
