G04 DipTrace 2.4.0.2*
%INBottomPaste.gbr*%
%MOIN*%
%ADD34C,0.1888*%
%ADD36R,0.1888X0.1888*%
%ADD38R,0.0628X0.055*%
%ADD40R,0.0302X0.0668*%
%ADD42R,0.0719X0.0668*%
%ADD44R,0.055X0.0628*%
%ADD46R,0.0668X0.0302*%
%ADD48R,0.0668X0.0719*%
%FSLAX44Y44*%
G04*
G70*
G90*
G75*
G01*
%LNBotPaste*%
%LPD*%
D48*
X2294Y71865D3*
D46*
X2292Y71077D3*
D44*
X3400Y70493D3*
X2296Y70491D3*
D48*
X5625Y71875D3*
D46*
X5623Y71087D3*
D44*
X6731Y70503D3*
X5627Y70501D3*
D48*
X9000Y71875D3*
D46*
X8998Y71087D3*
D44*
X8981Y70503D3*
X7877Y70501D3*
D42*
X2045Y67777D3*
D40*
X2833Y67775D3*
D38*
X3417Y68883D3*
X3419Y67779D3*
D42*
X2045Y63911D3*
D40*
X2833Y63909D3*
D38*
X3417Y65017D3*
X3419Y63913D3*
D42*
X2045Y60045D3*
D40*
X2833Y60043D3*
D38*
X3417Y61151D3*
X3419Y60047D3*
D42*
X2045Y56178D3*
D40*
X2833Y56177D3*
D38*
X3417Y57285D3*
X3419Y56181D3*
D42*
X2045Y52312D3*
D40*
X2833Y52311D3*
D38*
X3417Y53418D3*
X3419Y52314D3*
D42*
X2045Y48446D3*
D40*
X2833Y48445D3*
D38*
X3417Y49552D3*
X3419Y48448D3*
D42*
X2045Y44580D3*
D40*
X2833Y44579D3*
D38*
X3417Y45686D3*
X3419Y44582D3*
D42*
X2045Y40714D3*
D40*
X2833Y40712D3*
D38*
X3417Y41820D3*
X3419Y40716D3*
D42*
X2045Y36848D3*
D40*
X2833Y36846D3*
D38*
X3417Y37954D3*
X3419Y36850D3*
D42*
X2045Y32982D3*
D40*
X2833Y32980D3*
D38*
X3417Y34088D3*
X3419Y32984D3*
D42*
X2045Y29115D3*
D40*
X2833Y29114D3*
D38*
X3417Y30222D3*
X3419Y29118D3*
D42*
X2045Y25249D3*
D40*
X2833Y25248D3*
D38*
X3417Y26355D3*
X3419Y25251D3*
D42*
X2045Y21383D3*
D40*
X2833Y21382D3*
D38*
X3417Y22489D3*
X3419Y21385D3*
D42*
X2045Y17517D3*
D40*
X2833Y17516D3*
D38*
X3417Y18623D3*
X3419Y17519D3*
D42*
X2045Y13651D3*
D40*
X2833Y13649D3*
D38*
X3417Y14757D3*
X3419Y13653D3*
D42*
X2045Y9785D3*
D40*
X2833Y9783D3*
D38*
X3417Y10891D3*
X3419Y9787D3*
D42*
X2045Y5919D3*
D40*
X2833Y5917D3*
D38*
X3417Y7025D3*
X3419Y5921D3*
D42*
X2045Y2052D3*
D40*
X2833Y2051D3*
D38*
X3417Y3159D3*
X3419Y2055D3*
D48*
X6317Y1788D3*
D46*
X6318Y2575D3*
D44*
X5211Y3159D3*
X6315Y3161D3*
D48*
X10351Y1752D3*
D46*
X10352Y2540D3*
D44*
X9245Y3124D3*
X10349Y3126D3*
D48*
X10390Y5618D3*
D46*
X10391Y6405D3*
D44*
X9284Y6989D3*
X10388Y6991D3*
D48*
X10390Y9555D3*
D46*
X10391Y10343D3*
D44*
X9284Y10927D3*
X10388Y10928D3*
D48*
X10375Y13437D3*
D46*
X10376Y14225D3*
D44*
X9269Y14809D3*
X10373Y14811D3*
D48*
X10375Y17312D3*
D46*
X10376Y18100D3*
D44*
X9269Y18684D3*
X10373Y18686D3*
D48*
X10375Y21250D3*
D46*
X10376Y22037D3*
D44*
X9269Y22622D3*
X10373Y22623D3*
D48*
X10360Y25132D3*
D46*
X10361Y25920D3*
D44*
X9253Y26504D3*
X10357Y26505D3*
D48*
X10375Y29000D3*
D46*
X10376Y29787D3*
D44*
X9269Y30372D3*
X10373Y30373D3*
D48*
X10375Y32937D3*
D46*
X10376Y33725D3*
D44*
X9269Y34309D3*
X10373Y34311D3*
D48*
X10360Y36819D3*
D46*
X10361Y37607D3*
D44*
X9253Y38191D3*
X10357Y38193D3*
D48*
X10500Y40625D3*
D46*
X10501Y41412D3*
D44*
X9394Y41997D3*
X10498Y41998D3*
D48*
X10937Y44500D3*
D46*
X10939Y45287D3*
D44*
X9831Y45872D3*
X10935Y45873D3*
D48*
X11875Y48312D3*
D46*
X11876Y49100D3*
D44*
X10769Y49684D3*
X11873Y49686D3*
D48*
X13312Y51875D3*
D46*
X13314Y52662D3*
D44*
X12206Y53247D3*
X13310Y53248D3*
D48*
X15250Y55250D3*
D46*
X15251Y56037D3*
D44*
X14144Y56622D3*
X15248Y56623D3*
D48*
X17625Y58250D3*
D46*
X17626Y59037D3*
D44*
X16519Y59622D3*
X17623Y59623D3*
D48*
X20437Y60937D3*
D46*
X20439Y61725D3*
D44*
X19331Y62309D3*
X20435Y62311D3*
D48*
X23750Y63062D3*
D46*
X23751Y63850D3*
D44*
X22644Y64434D3*
X23748Y64436D3*
D48*
X27375Y64562D3*
D46*
X27376Y65350D3*
D44*
X26269Y65934D3*
X27373Y65936D3*
D48*
X31062Y65375D3*
D46*
X31064Y66162D3*
D44*
X29956Y66747D3*
X31060Y66748D3*
D48*
X35062Y65562D3*
D46*
X35064Y66350D3*
D44*
X33956Y66934D3*
X35060Y66936D3*
D42*
X35204Y69723D3*
D40*
X34417Y69724D3*
D38*
X33832Y68616D3*
X33831Y69720D3*
D42*
X35250Y73500D3*
D40*
X34462Y73501D3*
D38*
X33878Y72394D3*
X33876Y73498D3*
D42*
X31375Y73687D3*
D40*
X30587Y73689D3*
D38*
X30003Y72581D3*
X30001Y73685D3*
D42*
X27503Y72945D3*
D40*
X26715Y72947D3*
D38*
X26131Y71839D3*
X26129Y72943D3*
D48*
X23687Y71625D3*
D46*
X23686Y70837D3*
D44*
X24793Y70253D3*
X23689Y70251D3*
D48*
X20500Y69437D3*
D46*
X20498Y68650D3*
D44*
X21606Y68065D3*
X20502Y68064D3*
D48*
X17875Y66375D3*
D46*
X17873Y65587D3*
D44*
X18981Y65003D3*
X17877Y65001D3*
D48*
X15750Y63187D3*
D46*
X15748Y62400D3*
D44*
X16856Y61815D3*
X15752Y61814D3*
D48*
X13875Y59625D3*
D46*
X13873Y58837D3*
D44*
X14981Y58253D3*
X13877Y58251D3*
D48*
X12187Y56062D3*
D46*
X12186Y55275D3*
D44*
X13293Y54690D3*
X12189Y54689D3*
D48*
X10625Y52562D3*
D46*
X10623Y51775D3*
D44*
X11731Y51190D3*
X10627Y51189D3*
D42*
X9348Y48795D3*
D40*
X8560Y48797D3*
D38*
X7976Y47689D3*
X7974Y48793D3*
D42*
X9250Y52625D3*
D40*
X8462Y52626D3*
D38*
X7878Y51519D3*
X7876Y52623D3*
D42*
X9250Y56375D3*
D40*
X8462Y56376D3*
D38*
X7878Y55269D3*
X7876Y56373D3*
D42*
X9250Y60250D3*
D40*
X8462Y60251D3*
D38*
X7878Y59144D3*
X7876Y60248D3*
D42*
X9250Y64000D3*
D40*
X8462Y64001D3*
D38*
X7878Y62894D3*
X7876Y63998D3*
D42*
X9250Y67812D3*
D40*
X8462Y67814D3*
D38*
X7878Y66706D3*
X7876Y67810D3*
D36*
X32312Y70999D3*
D34*
X33875Y75687D3*
M02*
