G04 DipTrace 2.4.0.2*
%INBottomSilk.gbr*%
%MOIN*%
%ADD10C,0.0098*%
%ADD15C,0.0026*%
%ADD16C,0.0*%
%FSLAX44Y44*%
G04*
G70*
G90*
G75*
G01*
%LNBotSilk*%
%LPD*%
X8398Y58752D2*
D10*
X9469D1*
Y57372D1*
X8398D1*
Y58752D1*
X9617Y59487D2*
X9382D1*
X9613Y58862D2*
X9377D1*
X11952Y56933D2*
X13332D1*
Y58004D1*
X11952D1*
Y56933D1*
X11217Y58153D2*
Y57917D1*
X11842Y58149D2*
Y57913D1*
X13497Y60648D2*
X14878D1*
Y61719D1*
X13497D1*
Y60648D1*
X12762Y61868D2*
Y61632D1*
X13387Y61863D2*
Y61628D1*
X15747Y63898D2*
X17128D1*
Y64969D1*
X15747D1*
Y63898D1*
X15012Y65118D2*
Y64882D1*
X15637Y65113D2*
Y64878D1*
X18810Y66398D2*
X20190D1*
Y67469D1*
X18810D1*
Y66398D1*
X18075Y67618D2*
Y67382D1*
X18700Y67613D2*
Y67378D1*
X22372Y68148D2*
X23753D1*
Y69219D1*
X22372D1*
Y68148D1*
X21637Y69368D2*
Y69132D1*
X22262Y69363D2*
Y69128D1*
X26310Y69210D2*
X27690D1*
Y70281D1*
X26310D1*
Y69210D1*
X25575Y70430D2*
Y70195D1*
X26200Y70426D2*
Y70190D1*
X30247Y69773D2*
X31628D1*
Y70844D1*
X30247D1*
Y69773D1*
X29512Y70993D2*
Y70757D1*
X30137Y70988D2*
Y70753D1*
X34247Y69836D2*
X35628D1*
Y70906D1*
X34247D1*
Y69836D1*
X33512Y71055D2*
Y70820D1*
X34137Y71051D2*
Y70815D1*
X38185Y69460D2*
X39565D1*
Y70531D1*
X38185D1*
Y69460D1*
X37450Y70680D2*
Y70445D1*
X38075Y70676D2*
Y70440D1*
X42193Y69904D2*
X43264D1*
Y68524D1*
X42193D1*
Y69904D1*
X43413Y70639D2*
X43177D1*
X43409Y70014D2*
X43173D1*
X45943Y68279D2*
X47014D1*
Y66899D1*
X45943D1*
Y68279D1*
X47163Y69014D2*
X46927D1*
X47159Y68389D2*
X46923D1*
X49085Y65877D2*
X50156D1*
Y64497D1*
X49085D1*
Y65877D1*
X50305Y66612D2*
X50069D1*
X50301Y65987D2*
X50065D1*
X51335Y62565D2*
X52406D1*
Y61184D1*
X51335D1*
Y62565D1*
X52555Y63300D2*
X52319D1*
X52551Y62675D2*
X52315D1*
X52523Y58752D2*
X53594D1*
Y57372D1*
X52523D1*
Y58752D1*
X53742Y59487D2*
X53507D1*
X53738Y58862D2*
X53502D1*
X52960Y54815D2*
X54031D1*
Y53434D1*
X52960D1*
Y54815D1*
X54180Y55550D2*
X53944D1*
X54176Y54925D2*
X53940D1*
X53210Y50815D2*
X54281D1*
Y49434D1*
X53210D1*
Y50815D1*
X54430Y51550D2*
X54194D1*
X54426Y50925D2*
X54190D1*
X53210Y46815D2*
X54281D1*
Y45434D1*
X53210D1*
Y46815D1*
X54430Y47550D2*
X54194D1*
X54426Y46925D2*
X54190D1*
X50333Y45675D2*
X49262D1*
Y47056D1*
X50333D1*
Y45675D1*
X49113Y44940D2*
X49349D1*
X49118Y45565D2*
X49353D1*
X46414Y45810D2*
X45343D1*
Y47191D1*
X46414D1*
Y45810D1*
X45194Y45075D2*
X45430D1*
X45199Y45700D2*
X45434D1*
X42351Y45810D2*
X41281D1*
Y47191D1*
X42351D1*
Y45810D1*
X41132Y45075D2*
X41367D1*
X41136Y45700D2*
X41372D1*
X38539Y45873D2*
X37468D1*
Y47253D1*
X38539D1*
Y45873D1*
X37319Y45138D2*
X37555D1*
X37324Y45763D2*
X37559D1*
X34601Y45748D2*
X33531D1*
Y47128D1*
X34601D1*
Y45748D1*
X33382Y45013D2*
X33617D1*
X33386Y45638D2*
X33622D1*
X30664Y45248D2*
X29593D1*
Y46628D1*
X30664D1*
Y45248D1*
X29444Y44513D2*
X29680D1*
X29449Y45138D2*
X29684D1*
X26726Y44685D2*
X25656D1*
Y46066D1*
X26726D1*
Y44685D1*
X25507Y43950D2*
X25742D1*
X25511Y44575D2*
X25747D1*
X22914Y43873D2*
X21843D1*
Y45253D1*
X22914D1*
Y43873D1*
X21694Y43138D2*
X21930D1*
X21699Y43763D2*
X21934D1*
X19164Y42748D2*
X18093D1*
Y44128D1*
X19164D1*
Y42748D1*
X19069Y42013D2*
X19305D1*
X19074Y42638D2*
X19309D1*
X15476Y41123D2*
X14405D1*
Y42503D1*
X15476D1*
Y41123D1*
X15382Y40388D2*
X15617D1*
X15386Y41013D2*
X15622D1*
X12101Y39185D2*
X11030D1*
Y40566D1*
X12101D1*
Y39185D1*
X12007Y38450D2*
X12242D1*
X12011Y39075D2*
X12247D1*
X9164Y36435D2*
X8093D1*
Y37816D1*
X9164D1*
Y36435D1*
X9069Y35700D2*
X9305D1*
X9074Y36325D2*
X9309D1*
X6726Y33560D2*
X5655D1*
Y34941D1*
X6726D1*
Y33560D1*
X6632Y32825D2*
X6867D1*
X6636Y33450D2*
X6872D1*
X4851Y29998D2*
X3780D1*
Y31378D1*
X4851D1*
Y29998D1*
X4757Y29263D2*
X4992D1*
X4761Y29888D2*
X4997D1*
X3789Y26248D2*
X2718D1*
Y27628D1*
X3789D1*
Y26248D1*
X3694Y25513D2*
X3930D1*
X3699Y26138D2*
X3934D1*
X3351Y22310D2*
X2280D1*
Y23691D1*
X3351D1*
Y22310D1*
X3257Y21575D2*
X3492D1*
X3261Y22200D2*
X3497D1*
X3726Y18435D2*
X2655D1*
Y19816D1*
X3726D1*
Y18435D1*
X3632Y17700D2*
X3867D1*
X3636Y18325D2*
X3872D1*
X4789Y14623D2*
X3718D1*
Y16003D1*
X4789D1*
Y14623D1*
X4694Y13888D2*
X4930D1*
X4699Y14513D2*
X4934D1*
X6601Y11123D2*
X5530D1*
Y12503D1*
X6601D1*
Y11123D1*
X6507Y10388D2*
X6742D1*
X6511Y11013D2*
X6747D1*
X9252Y9289D2*
X7871D1*
Y8218D1*
X9252D1*
Y9289D1*
X9987Y9194D2*
Y9430D1*
X9362Y9199D2*
Y9434D1*
X12252Y6789D2*
X10871D1*
Y5718D1*
X12252D1*
Y6789D1*
X12987Y6694D2*
Y6930D1*
X12362Y6699D2*
Y6935D1*
X15752Y4914D2*
X14371D1*
Y3843D1*
X15752D1*
Y4914D1*
X16487Y4819D2*
Y5055D1*
X15862Y4824D2*
Y5060D1*
X19439Y3664D2*
X18059D1*
Y2593D1*
X19439D1*
Y3664D1*
X20174Y3569D2*
Y3805D1*
X19549Y3574D2*
Y3810D1*
X23314Y3102D2*
X21934D1*
Y2031D1*
X23314D1*
Y3102D1*
X24049Y3007D2*
Y3243D1*
X23424Y3011D2*
Y3247D1*
X27189Y2914D2*
X25809D1*
Y1843D1*
X27189D1*
Y2914D1*
X27924Y2819D2*
Y3055D1*
X27299Y2824D2*
Y3060D1*
X31189Y3102D2*
X29809D1*
Y2031D1*
X31189D1*
Y3102D1*
X31924Y3007D2*
Y3243D1*
X31299Y3011D2*
Y3247D1*
X33871Y3985D2*
X34942D1*
Y2605D1*
X33871D1*
Y3985D1*
X33965Y4720D2*
X33730D1*
X33961Y4095D2*
X33725D1*
X37523Y5065D2*
X38594D1*
Y3684D1*
X37523D1*
Y5065D1*
X37618Y5800D2*
X37382D1*
X37613Y5175D2*
X37377D1*
X41085Y6877D2*
X42156D1*
Y5497D1*
X41085D1*
Y6877D1*
X41180Y7612D2*
X40944D1*
X41176Y6987D2*
X40940D1*
X44335Y9252D2*
X45406D1*
Y7872D1*
X44335D1*
Y9252D1*
X44430Y9987D2*
X44194D1*
X44426Y9362D2*
X44190D1*
X46960Y12127D2*
X48031D1*
Y10747D1*
X46960D1*
Y12127D1*
X47055Y12862D2*
X46819D1*
X47051Y12237D2*
X46815D1*
X49183Y15298D2*
X50254D1*
Y13917D1*
X49183D1*
Y15298D1*
X49278Y16032D2*
X49042D1*
X49273Y15408D2*
X49038D1*
X52189Y18789D2*
X50809D1*
Y17718D1*
X52189D1*
Y18789D1*
X52924Y18694D2*
Y18930D1*
X52299Y18699D2*
Y18934D1*
X54091Y22244D2*
X52711D1*
Y21173D1*
X54091D1*
Y22244D1*
X54826Y22149D2*
Y22385D1*
X54201Y22153D2*
Y22389D1*
X54314Y17914D2*
X52934D1*
Y16843D1*
X54314D1*
Y17914D1*
X55049Y17819D2*
Y18055D1*
X54424Y17824D2*
Y18060D1*
X54627Y13539D2*
X53246D1*
Y12468D1*
X54627D1*
Y13539D1*
X55362Y13444D2*
Y13680D1*
X54737Y13449D2*
Y13685D1*
X55002Y9227D2*
X53621D1*
Y8156D1*
X55002D1*
Y9227D1*
X55737Y9132D2*
Y9368D1*
X55112Y9136D2*
Y9372D1*
X55439Y4977D2*
X54059D1*
Y3906D1*
X55439D1*
Y4977D1*
X56174Y4882D2*
Y5117D1*
X55549Y4886D2*
Y5122D1*
X58183Y5173D2*
X59254D1*
Y3792D1*
X58183D1*
Y5173D1*
X58278Y5907D2*
X58042D1*
X58273Y5283D2*
X58038D1*
X62210Y5190D2*
X63281D1*
Y3809D1*
X62210D1*
Y5190D1*
X62305Y5925D2*
X62069D1*
X62301Y5300D2*
X62065D1*
X61389Y7746D2*
X62770D1*
Y8817D1*
X61389D1*
Y7746D1*
X60655Y7841D2*
Y7605D1*
X61279Y7836D2*
Y7601D1*
X60997Y11711D2*
X62378D1*
Y12782D1*
X60997D1*
Y11711D1*
X60262Y11805D2*
Y11570D1*
X60887Y11801D2*
Y11565D1*
X60810Y15648D2*
X62190D1*
Y16719D1*
X60810D1*
Y15648D1*
X60075Y15743D2*
Y15507D1*
X60700Y15738D2*
Y15503D1*
X60810Y19586D2*
X62190D1*
Y20657D1*
X60810D1*
Y19586D1*
X60075Y19680D2*
Y19445D1*
X60700Y19676D2*
Y19440D1*
X60872Y23586D2*
X62253D1*
Y24657D1*
X60872D1*
Y23586D1*
X60137Y23680D2*
Y23445D1*
X60762Y23676D2*
Y23440D1*
X60810Y27461D2*
X62190D1*
Y28532D1*
X60810D1*
Y27461D1*
X60075Y27555D2*
Y27320D1*
X60700Y27551D2*
Y27315D1*
X60872Y31461D2*
X62253D1*
Y32532D1*
X60872D1*
Y31461D1*
X60137Y31555D2*
Y31320D1*
X60762Y31551D2*
Y31315D1*
X60872Y35398D2*
X62253D1*
Y36469D1*
X60872D1*
Y35398D1*
X60137Y35493D2*
Y35257D1*
X60762Y35488D2*
Y35253D1*
X60872Y39336D2*
X62253D1*
Y40407D1*
X60872D1*
Y39336D1*
X60137Y39430D2*
Y39195D1*
X60762Y39426D2*
Y39190D1*
X60872Y43273D2*
X62253D1*
Y44344D1*
X60872D1*
Y43273D1*
X60137Y43368D2*
Y43132D1*
X60762Y43363D2*
Y43128D1*
X60872Y47273D2*
X62253D1*
Y48344D1*
X60872D1*
Y47273D1*
X60137Y47368D2*
Y47132D1*
X60762Y47363D2*
Y47128D1*
X60747Y51148D2*
X62128D1*
Y52219D1*
X60747D1*
Y51148D1*
X60012Y51243D2*
Y51007D1*
X60637Y51238D2*
Y51003D1*
X60372Y55086D2*
X61753D1*
Y56157D1*
X60372D1*
Y55086D1*
X59637Y55180D2*
Y54945D1*
X60262Y55176D2*
Y54940D1*
X59747Y59086D2*
X61128D1*
Y60156D1*
X59747D1*
Y59086D1*
X59012Y59180D2*
Y58945D1*
X59637Y59176D2*
Y58940D1*
X58685Y62836D2*
X60065D1*
Y63907D1*
X58685D1*
Y62836D1*
X57950Y62930D2*
Y62695D1*
X58575Y62926D2*
Y62690D1*
X57122Y66461D2*
X58503D1*
Y67532D1*
X57122D1*
Y66461D1*
X56387Y66555D2*
Y66320D1*
X57012Y66551D2*
Y66315D1*
X54747Y69586D2*
X56128D1*
Y70657D1*
X54747D1*
Y69586D1*
X54012Y69680D2*
Y69445D1*
X54637Y69676D2*
Y69440D1*
X51560Y72023D2*
X52940D1*
Y73094D1*
X51560D1*
Y72023D1*
X50825Y72118D2*
Y71882D1*
X51450Y72113D2*
Y71878D1*
X48060Y73711D2*
X49440D1*
Y74782D1*
X48060D1*
Y73711D1*
X47325Y73805D2*
Y73570D1*
X47950Y73801D2*
Y73565D1*
X44185Y74711D2*
X45565D1*
Y75781D1*
X44185D1*
Y74711D1*
X43450Y74805D2*
Y74570D1*
X44075Y74801D2*
Y74565D1*
X41503Y75140D2*
X40433D1*
Y76520D1*
X41503D1*
Y75140D1*
X41409Y74405D2*
X41644D1*
X41413Y75030D2*
X41649D1*
X37539Y75373D2*
X36468D1*
Y76753D1*
X37539D1*
Y75373D1*
X37444Y74638D2*
X37680D1*
X37449Y75263D2*
X37684D1*
X33601Y75373D2*
X32530D1*
Y76753D1*
X33601D1*
Y75373D1*
X33507Y74638D2*
X33742D1*
X33511Y75263D2*
X33747D1*
X29664Y75123D2*
X28593D1*
Y76503D1*
X29664D1*
Y75123D1*
X29569Y74388D2*
X29805D1*
X29574Y75013D2*
X29809D1*
X25789Y74560D2*
X24718D1*
Y75941D1*
X25789D1*
Y74560D1*
X25694Y73825D2*
X25930D1*
X25699Y74450D2*
X25934D1*
X21914Y73748D2*
X20843D1*
Y75128D1*
X21914D1*
Y73748D1*
X21819Y73013D2*
X22055D1*
X21824Y73638D2*
X22059D1*
X18164Y72373D2*
X17093D1*
Y73753D1*
X18164D1*
Y72373D1*
X18069Y71638D2*
X18305D1*
X18074Y72263D2*
X18309D1*
X14664Y70623D2*
X13593D1*
Y72003D1*
X14664D1*
Y70623D1*
X14569Y69888D2*
X14805D1*
X14574Y70513D2*
X14809D1*
X11539Y68185D2*
X10468D1*
Y69566D1*
X11539D1*
Y68185D1*
X11444Y67450D2*
X11680D1*
X11449Y68075D2*
X11684D1*
X8976Y65248D2*
X7905D1*
Y66628D1*
X8976D1*
Y65248D1*
X8882Y64513D2*
X9117D1*
X8886Y65138D2*
X9122D1*
X6976Y61810D2*
X5905D1*
Y63191D1*
X6976D1*
Y61810D1*
X6882Y61075D2*
X7117D1*
X6886Y61700D2*
X7122D1*
X5922Y59316D2*
X4542D1*
Y58245D1*
X5922D1*
Y59316D1*
X6657Y59222D2*
Y59457D1*
X6032Y59226D2*
Y59462D1*
X54360Y41191D2*
X52979D1*
Y40120D1*
X54360D1*
Y41191D1*
X55095Y41097D2*
Y41332D1*
X54470Y41101D2*
Y41337D1*
X54564Y37289D2*
X53184D1*
Y36218D1*
X54564D1*
Y37289D1*
X55299Y37194D2*
Y37430D1*
X54674Y37199D2*
Y37435D1*
X54564Y33414D2*
X53184D1*
Y32343D1*
X54564D1*
Y33414D1*
X55299Y33319D2*
Y33555D1*
X54674Y33324D2*
Y33560D1*
X54127Y29602D2*
X52746D1*
Y28531D1*
X54127D1*
Y29602D1*
X54862Y29507D2*
Y29743D1*
X54237Y29511D2*
Y29747D1*
X53127Y25852D2*
X51746D1*
Y24781D1*
X53127D1*
Y25852D1*
X53862Y25757D2*
Y25993D1*
X53237Y25761D2*
Y25997D1*
X51493Y21096D2*
X50422D1*
Y22476D1*
X51493D1*
Y21096D1*
X51399Y20361D2*
X51634D1*
X51403Y20986D2*
X51639D1*
X49493Y17783D2*
X48422D1*
Y19164D1*
X49493D1*
Y17783D1*
X49399Y17048D2*
X49634D1*
X49403Y17673D2*
X49639D1*
X47101Y14748D2*
X46030D1*
Y16128D1*
X47101D1*
Y14748D1*
X47007Y14013D2*
X47242D1*
X47011Y14638D2*
X47247D1*
X44377Y13352D2*
X42996D1*
Y12281D1*
X44377D1*
Y13352D1*
X45112Y12132D2*
Y12368D1*
X44487Y12136D2*
Y12372D1*
X41189Y11289D2*
X39809D1*
Y10218D1*
X41189D1*
Y11289D1*
X41924Y10070D2*
Y10305D1*
X41299Y10074D2*
Y10310D1*
X37627Y9727D2*
X36246D1*
Y8656D1*
X37627D1*
Y9727D1*
X38362Y8507D2*
Y8743D1*
X37737Y8511D2*
Y8747D1*
X33877Y8789D2*
X32496D1*
Y7718D1*
X33877D1*
Y8789D1*
X34612Y7570D2*
Y7805D1*
X33987Y7574D2*
Y7810D1*
X30064Y8414D2*
X28684D1*
Y7343D1*
X30064D1*
Y8414D1*
X30799Y7195D2*
Y7430D1*
X30174Y7199D2*
Y7435D1*
X26189Y8664D2*
X24809D1*
Y7593D1*
X26189D1*
Y8664D1*
X26924Y7445D2*
Y7680D1*
X26299Y7449D2*
Y7685D1*
X22439Y9477D2*
X21059D1*
Y8406D1*
X22439D1*
Y9477D1*
X23174Y8257D2*
Y8493D1*
X22549Y8261D2*
Y8497D1*
X18743Y9846D2*
X17673D1*
Y11226D1*
X18743D1*
Y9846D1*
X17524Y9111D2*
X17759D1*
X17528Y9736D2*
X17764D1*
X15851Y12373D2*
X14781D1*
Y13753D1*
X15851D1*
Y12373D1*
X14632Y11638D2*
X14867D1*
X14636Y12263D2*
X14872D1*
X13664Y15560D2*
X12593D1*
Y16941D1*
X13664D1*
Y15560D1*
X12444Y14825D2*
X12680D1*
X12449Y15450D2*
X12684D1*
X12476Y19248D2*
X11406D1*
Y20628D1*
X12476D1*
Y19248D1*
X11257Y18513D2*
X11492D1*
X11261Y19138D2*
X11497D1*
X12351Y23123D2*
X11281D1*
Y24503D1*
X12351D1*
Y23123D1*
X11132Y22388D2*
X11367D1*
X11136Y23013D2*
X11372D1*
X13101Y26873D2*
X12031D1*
Y28253D1*
X13101D1*
Y26873D1*
X11882Y26138D2*
X12117D1*
X11886Y26763D2*
X12122D1*
X13470Y30506D2*
X14851D1*
Y31577D1*
X13470D1*
Y30506D1*
X12735Y31726D2*
Y31490D1*
X13360Y31721D2*
Y31486D1*
X15935Y33461D2*
X17315D1*
Y34531D1*
X15935D1*
Y33461D1*
X15200Y34680D2*
Y34445D1*
X15825Y34676D2*
Y34440D1*
X18997Y35836D2*
X20378D1*
Y36906D1*
X18997D1*
Y35836D1*
X18262Y37055D2*
Y36820D1*
X18887Y37051D2*
Y36815D1*
X22435Y37586D2*
X23815D1*
Y38656D1*
X22435D1*
Y37586D1*
X21700Y38805D2*
Y38570D1*
X22325Y38801D2*
Y38565D1*
X26060Y38898D2*
X27440D1*
Y39969D1*
X26060D1*
Y38898D1*
X25325Y40118D2*
Y39882D1*
X25950Y40113D2*
Y39878D1*
X30006Y40967D2*
X31077D1*
Y39586D1*
X30006D1*
Y40967D1*
X31225Y41702D2*
X30990D1*
X31221Y41077D2*
X30985D1*
X33835Y41440D2*
X34906D1*
Y40059D1*
X33835D1*
Y41440D1*
X35055Y42175D2*
X34819D1*
X35051Y41550D2*
X34815D1*
X37710Y41815D2*
X38781D1*
Y40434D1*
X37710D1*
Y41815D1*
X38930Y42550D2*
X38694D1*
X38926Y41925D2*
X38690D1*
X41523Y41815D2*
X42594D1*
Y40434D1*
X41523D1*
Y41815D1*
X42742Y42550D2*
X42507D1*
X42738Y41925D2*
X42502D1*
X45398Y41815D2*
X46469D1*
Y40434D1*
X45398D1*
Y41815D1*
X46617Y42550D2*
X46382D1*
X46613Y41925D2*
X46377D1*
X49273Y41565D2*
X50344D1*
Y40184D1*
X49273D1*
Y41565D1*
X50492Y42300D2*
X50257D1*
X50488Y41675D2*
X50252D1*
D15*
X49789Y40843D3*
X45930Y41035D3*
X42068Y41138D3*
X38205Y41065D3*
X34352Y40778D3*
X30528Y40229D3*
X26765Y39358D3*
X23118Y38090D3*
X19676Y36342D3*
X16607Y34005D3*
X14147Y31039D3*
X12527Y27543D3*
X11817Y23753D3*
X11957Y19901D3*
X13129Y16233D3*
X15303Y13054D3*
X18229Y10549D3*
X21718Y8913D3*
X25487Y8088D3*
X29343Y7890D3*
X33189Y8221D3*
X36938Y9139D3*
X40476Y10680D3*
X43694Y12812D3*
X46519Y15442D3*
X48945Y18445D3*
X50943Y21749D3*
X52442Y25307D3*
X53404Y29045D3*
X53837Y32882D3*
X53829Y36745D3*
X51528Y18166D3*
X49691Y14680D3*
X47477Y11424D3*
X44790Y8546D3*
X41652Y6171D3*
X38147Y4381D3*
X34396Y3184D3*
X30513Y2528D3*
X26579Y2330D3*
X22645Y2523D3*
X18759Y3162D3*
X15009Y4360D3*
X11540Y6216D3*
X8533Y8752D3*
X6056Y11810D3*
X4218Y15288D3*
X3138Y19070D3*
X2814Y22992D3*
X3179Y26911D3*
X4286Y30686D3*
X6144Y34154D3*
X8638Y37197D3*
X11601Y39791D3*
X14954Y41851D3*
X18582Y43382D3*
X22357Y44508D3*
X26213Y45321D3*
X30112Y45889D3*
X34035Y46261D3*
X37970Y46471D3*
X41910Y46547D3*
X45850Y46491D3*
X49788Y46352D3*
X54309Y8702D3*
X53939Y13021D3*
X53629Y17345D3*
X6464Y62469D3*
X8395Y65910D3*
X10986Y68884D3*
X14122Y71279D3*
X17630Y73089D3*
X21361Y74384D3*
X25215Y75252D3*
X29131Y75777D3*
X33075Y76024D3*
X37026Y76042D3*
X40970Y75800D3*
X44877Y75218D3*
X48687Y74180D3*
X52273Y72534D3*
X55395Y70130D3*
X57761Y66979D3*
X59379Y63379D3*
X60430Y59572D3*
X61068Y55673D3*
X61398Y51736D3*
X61493Y47786D3*
Y43834D3*
Y39882D3*
Y35930D3*
Y31978D3*
Y28026D3*
Y24074D3*
Y20122D3*
X61497Y16170D3*
X61650Y12222D3*
X62045Y8290D3*
X53698Y50136D3*
X53504Y54125D3*
X53007Y58086D3*
X51876Y61906D3*
X49599Y65163D3*
X46428Y67572D3*
X42774Y69164D3*
X38878Y70025D3*
X34899Y70343D3*
X30906Y70261D3*
X26947Y69758D3*
X23099Y68700D3*
X19520Y66944D3*
X16449Y64407D3*
X14120Y61175D3*
X54811Y4396D3*
X62711D3*
X12609Y57448D3*
X5194Y58718D3*
X53723Y46141D3*
X53646Y40605D3*
X8901Y58083D3*
X58761Y4396D3*
X53331Y21670D3*
X4407Y58718D2*
D16*
G02X4407Y58718I787J0D01*
G01*
X8114Y58083D2*
G02X8114Y58083I787J0D01*
G01*
X11821Y57448D2*
G02X11821Y57448I787J0D01*
G01*
X13333Y61175D2*
G02X13333Y61175I787J0D01*
G01*
X15661Y64407D2*
G02X15661Y64407I787J0D01*
G01*
X18733Y66944D2*
G02X18733Y66944I787J0D01*
G01*
X22312Y68700D2*
G02X22312Y68700I787J0D01*
G01*
X26159Y69758D2*
G02X26159Y69758I787J0D01*
G01*
X30119Y70261D2*
G02X30119Y70261I787J0D01*
G01*
X34111Y70343D2*
G02X34111Y70343I787J0D01*
G01*
X38090Y70025D2*
G02X38090Y70025I787J0D01*
G01*
X41986Y69164D2*
G02X41986Y69164I787J0D01*
G01*
X45641Y67572D2*
G02X45641Y67572I787J0D01*
G01*
X48812Y65163D2*
G02X48812Y65163I787J0D01*
G01*
X51089Y61906D2*
G02X51089Y61906I787J0D01*
G01*
X52220Y58086D2*
G02X52220Y58086I787J0D01*
G01*
X52716Y54125D2*
G02X52716Y54125I787J0D01*
G01*
X52911Y50136D2*
G02X52911Y50136I787J0D01*
G01*
X52936Y46141D2*
G02X52936Y46141I787J0D01*
G01*
X49001Y46352D2*
G02X49001Y46352I787J0D01*
G01*
X45063Y46491D2*
G02X45063Y46491I787J0D01*
G01*
X41122Y46547D2*
G02X41122Y46547I787J0D01*
G01*
X37182Y46471D2*
G02X37182Y46471I787J0D01*
G01*
X33247Y46261D2*
G02X33247Y46261I787J0D01*
G01*
X29324Y45889D2*
G02X29324Y45889I787J0D01*
G01*
X25425Y45321D2*
G02X25425Y45321I787J0D01*
G01*
X21570Y44508D2*
G02X21570Y44508I787J0D01*
G01*
X17795Y43382D2*
G02X17795Y43382I787J0D01*
G01*
X14167Y41851D2*
G02X14167Y41851I787J0D01*
G01*
X10813Y39791D2*
G02X10813Y39791I787J0D01*
G01*
X7851Y37197D2*
G02X7851Y37197I787J0D01*
G01*
X5356Y34154D2*
G02X5356Y34154I787J0D01*
G01*
X3498Y30686D2*
G02X3498Y30686I787J0D01*
G01*
X2391Y26911D2*
G02X2391Y26911I787J0D01*
G01*
X2027Y22992D2*
G02X2027Y22992I787J0D01*
G01*
X2350Y19070D2*
G02X2350Y19070I787J0D01*
G01*
X3430Y15288D2*
G02X3430Y15288I787J0D01*
G01*
X5269Y11810D2*
G02X5269Y11810I787J0D01*
G01*
X7746Y8752D2*
G02X7746Y8752I787J0D01*
G01*
X10753Y6216D2*
G02X10753Y6216I787J0D01*
G01*
X14222Y4360D2*
G02X14222Y4360I787J0D01*
G01*
X17972Y3162D2*
G02X17972Y3162I787J0D01*
G01*
X21858Y2523D2*
G02X21858Y2523I787J0D01*
G01*
X25792Y2330D2*
G02X25792Y2330I787J0D01*
G01*
X29726Y2528D2*
G02X29726Y2528I787J0D01*
G01*
X33609Y3184D2*
G02X33609Y3184I787J0D01*
G01*
X37360Y4381D2*
G02X37360Y4381I787J0D01*
G01*
X40865Y6171D2*
G02X40865Y6171I787J0D01*
G01*
X44003Y8546D2*
G02X44003Y8546I787J0D01*
G01*
X46690Y11424D2*
G02X46690Y11424I787J0D01*
G01*
X48903Y14680D2*
G02X48903Y14680I787J0D01*
G01*
X50740Y18166D2*
G02X50740Y18166I787J0D01*
G01*
X52842Y17345D2*
G02X52842Y17345I787J0D01*
G01*
X53152Y13021D2*
G02X53152Y13021I787J0D01*
G01*
X53522Y8702D2*
G02X53522Y8702I787J0D01*
G01*
X54023Y4396D2*
G02X54023Y4396I787J0D01*
G01*
X57974D2*
G02X57974Y4396I787J0D01*
G01*
X61924D2*
G02X61924Y4396I787J0D01*
G01*
X61257Y8290D2*
G02X61257Y8290I787J0D01*
G01*
X60863Y12222D2*
G02X60863Y12222I787J0D01*
G01*
X60710Y16170D2*
G02X60710Y16170I787J0D01*
G01*
X60706Y20122D2*
G02X60706Y20122I787J0D01*
G01*
Y24074D2*
G02X60706Y24074I787J0D01*
G01*
Y28026D2*
G02X60706Y28026I787J0D01*
G01*
Y31978D2*
G02X60706Y31978I787J0D01*
G01*
Y35930D2*
G02X60706Y35930I787J0D01*
G01*
Y39882D2*
G02X60706Y39882I787J0D01*
G01*
Y43834D2*
G02X60706Y43834I787J0D01*
G01*
Y47786D2*
G02X60706Y47786I787J0D01*
G01*
X60610Y51736D2*
G02X60610Y51736I787J0D01*
G01*
X60280Y55673D2*
G02X60280Y55673I787J0D01*
G01*
X59643Y59572D2*
G02X59643Y59572I787J0D01*
G01*
X58592Y63379D2*
G02X58592Y63379I787J0D01*
G01*
X56974Y66979D2*
G02X56974Y66979I787J0D01*
G01*
X54608Y70130D2*
G02X54608Y70130I787J0D01*
G01*
X51485Y72534D2*
G02X51485Y72534I787J0D01*
G01*
X47899Y74180D2*
G02X47899Y74180I787J0D01*
G01*
X44089Y75218D2*
G02X44089Y75218I787J0D01*
G01*
X40182Y75800D2*
G02X40182Y75800I787J0D01*
G01*
X36239Y76042D2*
G02X36239Y76042I787J0D01*
G01*
X32287Y76024D2*
G02X32287Y76024I787J0D01*
G01*
X28344Y75777D2*
G02X28344Y75777I787J0D01*
G01*
X24428Y75252D2*
G02X24428Y75252I787J0D01*
G01*
X20574Y74384D2*
G02X20574Y74384I787J0D01*
G01*
X16843Y73089D2*
G02X16843Y73089I787J0D01*
G01*
X13335Y71279D2*
G02X13335Y71279I787J0D01*
G01*
X10199Y68884D2*
G02X10199Y68884I787J0D01*
G01*
X7607Y65910D2*
G02X7607Y65910I787J0D01*
G01*
X5677Y62469D2*
G02X5677Y62469I787J0D01*
G01*
X52858Y40605D2*
G02X52858Y40605I787J0D01*
G01*
X49002Y40843D2*
G02X49002Y40843I787J0D01*
G01*
X45143Y41035D2*
G02X45143Y41035I787J0D01*
G01*
X41280Y41138D2*
G02X41280Y41138I787J0D01*
G01*
X37417Y41065D2*
G02X37417Y41065I787J0D01*
G01*
X33565Y40778D2*
G02X33565Y40778I787J0D01*
G01*
X29741Y40229D2*
G02X29741Y40229I787J0D01*
G01*
X25978Y39358D2*
G02X25978Y39358I787J0D01*
G01*
X22330Y38090D2*
G02X22330Y38090I787J0D01*
G01*
X18888Y36342D2*
G02X18888Y36342I787J0D01*
G01*
X15820Y34005D2*
G02X15820Y34005I787J0D01*
G01*
X13360Y31039D2*
G02X13360Y31039I787J0D01*
G01*
X11740Y27543D2*
G02X11740Y27543I787J0D01*
G01*
X11030Y23753D2*
G02X11030Y23753I787J0D01*
G01*
X11170Y19901D2*
G02X11170Y19901I787J0D01*
G01*
X12341Y16233D2*
G02X12341Y16233I787J0D01*
G01*
X14515Y13054D2*
G02X14515Y13054I787J0D01*
G01*
X17442Y10549D2*
G02X17442Y10549I787J0D01*
G01*
X20931Y8913D2*
G02X20931Y8913I787J0D01*
G01*
X24700Y8088D2*
G02X24700Y8088I787J0D01*
G01*
X28556Y7890D2*
G02X28556Y7890I787J0D01*
G01*
X32402Y8221D2*
G02X32402Y8221I787J0D01*
G01*
X36151Y9139D2*
G02X36151Y9139I787J0D01*
G01*
X39689Y10680D2*
G02X39689Y10680I787J0D01*
G01*
X42906Y12812D2*
G02X42906Y12812I787J0D01*
G01*
X45732Y15442D2*
G02X45732Y15442I787J0D01*
G01*
X48158Y18445D2*
G02X48158Y18445I787J0D01*
G01*
X50156Y21749D2*
G02X50156Y21749I787J0D01*
G01*
X51654Y25307D2*
G02X51654Y25307I787J0D01*
G01*
X52617Y29045D2*
G02X52617Y29045I787J0D01*
G01*
X53049Y32882D2*
G02X53049Y32882I787J0D01*
G01*
X53042Y36745D2*
G02X53042Y36745I787J0D01*
G01*
X52544Y21670D2*
G02X52544Y21670I787J0D01*
G01*
M02*
