G04 DipTrace 2.4.0.2*
%INBottom.gbr*%
%MOIN*%
%ADD12C,0.003*%
%ADD14C,0.0591*%
%ADD17R,0.0748X0.0799*%
%ADD18R,0.0748X0.0382*%
%ADD19R,0.063X0.0709*%
%ADD20R,0.0799X0.0748*%
%ADD21R,0.0382X0.0748*%
%ADD22R,0.0709X0.063*%
%ADD23R,0.1969X0.1969*%
%ADD24C,0.1969*%
%ADD25C,0.0394*%
%FSLAX44Y44*%
G04*
G70*
G90*
G75*
G01*
%LNBottom*%
%LPD*%
X60957Y7179D2*
D14*
Y5687D1*
X61578D1*
X61643Y5622D1*
X55871Y5543D2*
X56469D1*
Y5544D1*
X57555D1*
X57616Y5605D1*
X54315Y69019D2*
Y67077D1*
X54465Y66927D1*
G02X56623Y63872I-14358J-12433D01*
G01*
G02X57531Y62052I-16524J-9382D01*
G01*
G02X58688Y58425I-17423J-7558D01*
G01*
G02X59062Y55687I-18584J-3931D01*
G01*
Y54519D1*
Y50581D1*
Y46706D1*
Y42706D1*
Y38769D1*
Y34831D1*
Y31010D1*
Y27002D1*
Y23019D1*
Y18839D1*
Y15081D1*
Y11144D1*
Y7125D1*
X60903D1*
X60957Y7179D1*
X60565Y11144D2*
X59062D1*
X60378Y15081D2*
X59062D1*
X60378Y19019D2*
X59242D1*
X59062Y18839D1*
X60440Y23019D2*
X59062D1*
X60378Y26894D2*
X59171D1*
X59062Y27002D1*
X60440Y30894D2*
X59178D1*
X59062Y31010D1*
X60440Y34831D2*
X59062D1*
X60440Y38769D2*
X59062D1*
X60440Y42706D2*
X59062D1*
X60440Y46706D2*
X59062D1*
X60315Y50581D2*
X59062D1*
X59940Y54519D2*
X59062D1*
X59315Y58519D2*
X58688D1*
Y58425D1*
X58253Y62269D2*
X57747D1*
X57531Y62052D1*
X56690Y65894D2*
Y63872D1*
X56623D1*
X57616Y5605D2*
Y7250D1*
X58937D1*
X59062Y7125D1*
X51128Y71456D2*
X49315D1*
X47628Y73144D1*
X42973D1*
X42070D1*
X38106D1*
X34168D1*
X30231D1*
X26356D1*
X23247D1*
X22831D1*
X22653D1*
X22481Y73316D1*
X23075D1*
X23247Y73144D1*
X26356Y74128D2*
Y73144D1*
X22831D2*
X21625Y71937D1*
G03X20570Y71317I13114J-23513D01*
G01*
G03X18607Y69979I14169J-22894D01*
G01*
G03X16501Y68229I16133J-21557D01*
G01*
G03X13823Y65377I18239J-19806D01*
G01*
G03X11899Y62679I20919J-16955D01*
G01*
G03X10060Y59186I22840J-14256D01*
G01*
X11518Y58596D2*
X10650D1*
X10060Y59186D1*
X13064Y62310D2*
X12268D1*
X11899Y62679D1*
X15314Y65560D2*
X14007D1*
X13823Y65377D1*
X18376Y68060D2*
X16670D1*
X16501Y68229D1*
X21939Y69810D2*
X18776D1*
X18607Y69979D1*
X25876Y70873D2*
X28372D1*
X28875Y71375D1*
X29753D1*
X29814Y71435D1*
X33751D1*
X33814Y71498D1*
X37376D1*
X37751Y71123D1*
X37376Y71498D2*
X43502D1*
X43875Y71125D1*
Y70357D1*
X43855Y70338D1*
Y69687D1*
X47687D1*
Y68795D1*
X47605Y68713D1*
X50747Y66311D2*
Y66940D1*
X50593Y67094D1*
X50062Y67625D1*
X48062D1*
X47687Y68000D1*
Y68631D1*
X47605Y68713D1*
X52997Y62998D2*
Y64061D1*
X50747Y66311D1*
X52997Y62998D2*
X53001D1*
X54375Y61625D1*
G02X55093Y59166I-28781J-9745D01*
G01*
G02X55798Y55198I-29495J-7285D01*
G01*
G02X55972Y51220I-30202J-3317D01*
G01*
G02X55752Y48165I-30377J660D01*
G01*
G02X55625Y47250I-30158J3716D01*
G01*
X54872Y47248D1*
Y51248D2*
X55972D1*
Y51220D1*
X54622Y55248D2*
X55798D1*
Y55198D1*
X54185Y59186D2*
X55093D1*
Y59166D1*
X6354Y59883D2*
X6883D1*
X7437Y60437D1*
Y61272D1*
X7543Y61378D1*
X8503D1*
X8750Y61625D1*
G02X10655Y64592I19465J-10407D01*
G01*
G02X12123Y66325I17561J-13376D01*
G01*
G02X15164Y69018I16092J-15108D01*
G01*
G02X18812Y71187I13052J-17801D01*
G01*
Y71859D1*
X18731Y71941D1*
X15231Y70191D2*
Y69018D1*
X15164D1*
X12106Y67753D2*
Y66325D1*
X12123D1*
X9543Y64816D2*
X10431D1*
X10655Y64592D1*
X18812Y71187D2*
X20570D1*
Y71317D1*
X55752Y48165D2*
Y44564D1*
X55250Y44062D1*
X50764D1*
X48925D1*
X47060D1*
X44537D1*
X43491D1*
X40689D1*
X39656D1*
X36877D1*
X35659D1*
X32812D1*
G03X32121Y44036I610J-25319D01*
G01*
G03X29079Y43695I1303J-25311D01*
G01*
G03X25765Y42885I4344J-24968D01*
G01*
G03X24975Y42620I7654J-24148D01*
G01*
G03X20362Y40445I8448J-23892D01*
G01*
G03X19780Y40084I13058J-21714D01*
G01*
G03X17444Y38398I13644J-21358D01*
G01*
G03X16682Y37753I15983J-19676D01*
G01*
G03X15313Y36455I16740J-19025D01*
G01*
G03X14888Y36010I18196J-17810D01*
G01*
G03X12577Y33139I18532J-17281D01*
G01*
G03X11834Y32000I20849J-14414D01*
G01*
G03X10615Y29775I21596J-13277D01*
G01*
G03X9223Y26250I22810J-11049D01*
G01*
G03X9026Y25586I24137J-7504D01*
G01*
G03X8371Y22555I24400J-6859D01*
G01*
G03X8270Y21823I25122J-3838D01*
G01*
G03X8081Y18584I25151J-3095D01*
G01*
G03X8095Y17863I25325J143D01*
G01*
G03X8565Y13795I25328J865D01*
G01*
G03X9334Y10856I24861J4933D01*
G01*
G03X9684Y9856I24124J7884D01*
G01*
X48671Y45241D2*
Y44317D1*
X48925Y44062D1*
X44752Y45376D2*
Y44277D1*
X44537Y44062D1*
X40689Y45376D2*
Y44062D1*
X36877Y45439D2*
Y44062D1*
X32939Y45314D2*
Y44190D1*
X32812Y44062D1*
X29002Y44814D2*
Y43695D1*
X29079D1*
X25064Y44251D2*
Y42620D1*
X24975D1*
X21252Y43439D2*
X20854D1*
X19731Y42316D1*
Y41149D1*
X19780D1*
Y40084D1*
X16043Y40691D2*
X19272D1*
X19731Y41149D1*
X12668Y38753D2*
X17089D1*
X17444Y38398D1*
X9731Y36003D2*
X14888D1*
Y36010D1*
X7293Y33128D2*
X12577D1*
Y33139D1*
X5418Y29566D2*
X10406D1*
X10615Y29775D1*
X4356Y25816D2*
X8796D1*
X9026Y25586D1*
X3918Y21878D2*
X8270D1*
Y21823D1*
X4293Y18003D2*
X8095D1*
Y17863D1*
X5356Y14191D2*
X8169D1*
X8565Y13795D1*
X7168Y10691D2*
X9168D1*
X9334Y10856D1*
X12684Y7356D2*
Y7878D1*
X10687Y9875D1*
X9703D1*
X9684Y9856D1*
X12684Y7356D2*
X14309D1*
X16184Y5481D1*
X18621D1*
X19871Y4231D1*
X23184D1*
X23746Y3669D1*
X27434D1*
X27621Y3481D1*
X23184Y4231D2*
X24405D1*
X31429D1*
X33118D1*
X33304Y4417D1*
X31621Y3669D2*
Y4039D1*
X31429Y4231D1*
X36956Y5497D2*
X33809D1*
X33375Y5062D1*
Y4488D1*
X33304Y4417D1*
X40518Y7309D2*
Y8269D1*
X40875Y8625D1*
X43750D1*
Y9665D1*
X43768Y9684D1*
X42812D1*
X41680D1*
X41623Y9627D1*
X44811Y11690D2*
X43689D1*
X42812Y10812D1*
Y9684D1*
X44811Y11690D2*
X46312D1*
Y12478D1*
X46393Y12559D1*
Y13019D1*
X46750Y13375D1*
X47625D1*
Y14272D1*
X47668Y14316D1*
Y15442D1*
Y15856D1*
X48375Y16562D1*
X49937D1*
X50060Y16686D1*
Y17351D1*
X48616Y15730D2*
X47956D1*
X47668Y15442D1*
X50060Y17351D2*
Y18936D1*
X50562Y19437D1*
X51963D1*
X52540D1*
X52621Y19356D1*
X52060Y20663D2*
Y19534D1*
X51963Y19437D1*
X54524Y22811D2*
X54588Y22875D1*
X56437D1*
Y26564D1*
X55937D1*
Y30169D1*
X56437D1*
Y33981D1*
Y37856D1*
Y41875D1*
X56085D1*
X54909D1*
X54792Y41758D1*
X54996Y37856D2*
X56437D1*
X54996Y33981D2*
X56437D1*
X54559Y30169D2*
X55937D1*
X53559Y26419D2*
X56291D1*
X56437Y26564D1*
Y22875D2*
X57187D1*
Y14106D1*
X56593D1*
Y9794D1*
Y5667D1*
X56469Y5543D1*
X55434Y9794D2*
X56593D1*
X55059Y14106D2*
X56593D1*
X50935Y41998D2*
Y43892D1*
X50764Y44062D1*
X56085Y41875D2*
Y43227D1*
X55250Y44062D1*
X47060Y42248D2*
Y44062D1*
X43185Y42248D2*
Y43756D1*
X43491Y44062D1*
X39372Y42248D2*
Y43779D1*
X39656Y44062D1*
X35497Y41873D2*
Y43901D1*
X35659Y44062D1*
X31668Y41400D2*
Y43584D1*
X32121Y44036D1*
X25626Y40560D2*
Y42746D1*
X25765Y42885D1*
X22001Y39248D2*
X21559D1*
X20362Y40445D1*
X18564Y37498D2*
X16937D1*
X16682Y37753D1*
X15501Y35123D2*
Y36268D1*
X15313Y36455D1*
X13037Y32168D2*
X11834D1*
Y32000D1*
X11439Y26439D2*
X9412D1*
X9223Y26250D1*
X10689Y22689D2*
X8505D1*
X8371Y22555D1*
X10814Y18814D2*
X8310D1*
X8081Y18584D1*
X12002Y15126D2*
X11123D1*
X10687Y15562D1*
Y18687D1*
X10814Y18814D1*
X10687Y15562D2*
Y14236D1*
X12984Y11939D1*
X15708Y9215D1*
X17736Y7187D1*
X22204D1*
X22875D1*
Y7813D1*
X22873Y7815D1*
X17081Y9412D2*
X15904D1*
X15708Y9215D1*
X14189Y11939D2*
X12984D1*
X26623Y7002D2*
Y6187D1*
X30187D1*
X30437Y6437D1*
Y6691D1*
X30498Y6752D1*
X33936D1*
X34311Y7127D1*
X37123D1*
X38061Y8065D1*
X40314D1*
X40518Y8269D1*
X26623Y6187D2*
X26790Y6020D1*
X24142D1*
X23371D1*
X22204Y7187D1*
X24142Y6020D2*
Y4494D1*
X24405Y4231D1*
X34168Y73144D2*
Y73864D1*
Y74941D1*
X42973Y73144D2*
Y74144D1*
X43753D1*
X38106Y73144D2*
Y74941D1*
X42070Y73144D2*
Y74708D1*
X30231Y73144D2*
Y74691D1*
X52621Y19356D2*
X54750D1*
Y18484D1*
X54746Y18481D1*
X54315Y69019D2*
X52518D1*
X50593Y67094D1*
Y70921D1*
X51128Y71456D1*
X61881Y71508D2*
Y72945D1*
X61444Y73383D1*
X55318D1*
X52693Y70757D1*
Y69302D1*
X52410Y69019D1*
X52518D1*
X61881Y75883D2*
X63819D1*
G02X63507Y56721I-323160J-4313D01*
G01*
X63500Y54826D1*
Y51687D1*
Y47812D1*
X63562D1*
Y43812D1*
Y39875D1*
X63125D1*
Y35937D1*
Y32000D1*
X63187D1*
Y28000D1*
X63125D1*
Y24125D1*
X63750D1*
Y20125D1*
X63812D1*
Y16187D1*
X63750D1*
Y12250D1*
Y8285D1*
X63812D1*
Y4375D1*
X62875D1*
X62750Y4250D1*
X58740D1*
X58722Y4233D1*
Y3410D1*
X58375Y3062D1*
X54812D1*
X54312Y3562D1*
Y4250D1*
X54500Y4437D1*
X54062Y8687D2*
Y4875D1*
X54500Y4437D1*
X53687Y13000D2*
Y11908D1*
Y9062D1*
X54062Y8687D1*
X53375Y17375D2*
Y15946D1*
Y13312D1*
X53687Y13000D1*
X53750Y49875D2*
X52950D1*
Y52398D1*
X53500Y52947D1*
Y53875D1*
X49722Y14358D2*
X50522D1*
X51242Y13637D1*
Y11908D1*
X50522Y11187D1*
X47500D1*
X48954Y18723D2*
Y20076D1*
X50066Y21187D1*
Y22035D1*
X50954D1*
X11812Y24062D2*
X12736D1*
Y20187D1*
Y17713D1*
X13125Y17325D1*
Y16500D1*
X8312Y8750D2*
X5982D1*
X5261Y9470D1*
Y12062D1*
X4076D1*
X3356Y12783D1*
Y14842D1*
X2635Y15562D1*
X2266Y15931D1*
Y19375D1*
X3187D1*
X63500Y54826D2*
X61312D1*
Y55625D1*
X35187Y70375D2*
Y69513D1*
X31187D1*
X28311D1*
X28074Y69750D1*
X27250D1*
X61881Y75883D2*
X60631Y77133D1*
X52500D1*
X50391D1*
X49000Y75742D1*
Y75250D1*
X45125D1*
X49794Y46615D2*
X50777D1*
X52950Y48789D1*
Y49875D1*
X25250Y8125D2*
Y8924D1*
X28875D1*
X29125Y8674D1*
X31065D1*
X31490Y8250D1*
X32937D1*
X53375Y17375D2*
X51250D1*
Y18250D1*
X14410Y31045D2*
Y28766D1*
X13361Y27717D1*
Y25608D1*
X12641Y24887D1*
X11812D1*
Y24062D1*
X50954Y22035D2*
X51753D1*
X52084Y21704D1*
X53152D1*
X63125Y28000D2*
X62574D1*
X61750D1*
X63750Y20125D2*
X61750D1*
X63125Y39875D2*
X61812D1*
X63125Y24125D2*
X61812D1*
X63125Y32000D2*
X61812D1*
X63750Y8285D2*
X62329D1*
X53687Y11908D2*
X51242D1*
X63500Y51687D2*
X61687D1*
X63750Y16187D2*
X61750D1*
X63125Y35937D2*
X61812D1*
X63562Y43812D2*
X61812D1*
X63500Y47812D2*
X61812D1*
X63750Y12250D2*
X61937D1*
X2635Y15562D2*
Y15667D1*
X3356Y16387D1*
X4250D1*
Y15562D1*
X27250Y69750D2*
Y68687D1*
X23312D1*
X31187Y69513D2*
Y70312D1*
X39125Y70000D2*
Y68793D1*
X37594D1*
X36012Y70375D1*
X35187D1*
X42733Y68964D2*
X40985D1*
X39949Y70000D1*
X39125D1*
X46483Y67339D2*
X43453D1*
X42733Y68060D1*
Y68964D1*
X49625Y64937D2*
X47203D1*
X46483Y65658D1*
Y67339D1*
X51875Y61625D2*
X50345D1*
X49625Y62345D1*
Y64937D1*
X53062Y57812D2*
X51875D1*
Y61625D1*
X53500Y53875D2*
X52263D1*
Y55854D1*
X53062Y56653D1*
Y57812D1*
X50777Y46615D2*
X51517Y45875D1*
X53750D1*
X45875Y46750D2*
X48206D1*
X48342Y46615D1*
X49794D1*
X41812Y46750D2*
X45875D1*
X38000Y46812D2*
X40261D1*
X40324Y46750D1*
X41812D1*
X34062Y46687D2*
X34861D1*
X34986Y46812D1*
X38000D1*
X30125Y46187D2*
X30924D1*
X31424Y46687D1*
X34062D1*
X26187Y45625D2*
X26986D1*
X27549Y46187D1*
X30125D1*
X22375Y44812D2*
X23174D1*
X23986Y45625D1*
X26187D1*
X18625Y43687D2*
Y44812D1*
X22375D1*
X14937Y42062D2*
Y42967D1*
X15658Y43687D1*
X18625D1*
X11562Y40125D2*
Y41342D1*
X12283Y42062D1*
X14937D1*
X8625Y37375D2*
Y39404D1*
X9345Y40125D1*
X11562D1*
X6187Y34500D2*
Y36654D1*
X6908Y37375D1*
X8625D1*
X4312Y30937D2*
Y33779D1*
X5033Y34500D1*
X6187D1*
X3250Y27187D2*
Y30937D1*
X4312D1*
X2812Y23250D2*
Y24738D1*
X2300Y25250D1*
Y27187D1*
X3250D1*
X3187Y19375D2*
Y20200D1*
X1293Y22094D1*
Y23250D1*
X2812D1*
X5261Y12062D2*
X6062D1*
X11312Y6250D2*
X9033D1*
X8312Y6970D1*
Y8750D1*
X14812Y4375D2*
X12033D1*
X11312Y5095D1*
Y6250D1*
X18500Y3125D2*
X14812D1*
Y4375D1*
X22375Y2562D2*
Y1063D1*
X18500D1*
Y3125D1*
X26250Y2375D2*
Y1043D1*
X22647D1*
X22375Y1315D1*
Y2562D1*
X30250D2*
Y1041D1*
X26250D1*
X34410Y3045D2*
Y2469D1*
X33003Y1063D1*
X30250D1*
Y2562D1*
X38062Y4125D2*
Y3496D1*
X37611Y3045D1*
X34410D1*
X41625Y5937D2*
Y4845D1*
X40904Y4125D1*
X38062D1*
X44875Y8312D2*
Y6658D1*
X44154Y5937D1*
X41625D1*
X47500Y11187D2*
Y9033D1*
X46779Y8312D1*
X44875D1*
X16687Y64437D2*
X19029D1*
X19750Y65158D1*
Y66937D1*
X14437Y61187D2*
X15967D1*
X16687Y61908D1*
Y64437D1*
X12892Y57473D2*
X13717D1*
X14437Y58193D1*
Y61187D1*
X8937Y57812D2*
Y56477D1*
X12892D1*
Y57473D1*
X4983Y58777D2*
Y57812D1*
X8937D1*
X6437Y62750D2*
X4983D1*
Y58777D1*
X8437Y66187D2*
X7158D1*
X6437Y65467D1*
Y62750D1*
X11000Y69125D2*
X9158D1*
X8437Y68404D1*
Y66187D1*
X14125Y71562D2*
X11720D1*
X11000Y70842D1*
Y69125D1*
X17625Y73312D2*
X14845D1*
X14125Y72592D1*
Y71562D1*
X21375Y74687D2*
X17625D1*
Y73312D1*
X25250Y75500D2*
X23627D1*
X22815Y74687D1*
X21375D1*
X29125Y76062D2*
X26611D1*
X26049Y75500D1*
X25250D1*
X33062Y76312D2*
X30174D1*
X29924Y76062D1*
X29125D1*
X37000Y76312D2*
X33062D1*
X40964Y76079D2*
X39414D1*
X39181Y76312D1*
X37000D1*
X45125Y75250D2*
Y76079D1*
X40964D1*
X49000Y75250D2*
Y74250D1*
X43437Y12812D2*
Y14284D1*
X44348D1*
X45752Y15687D1*
X46562D1*
X40250Y10750D2*
Y12253D1*
X41804D1*
X42363Y12812D1*
X43437D1*
X36687Y9187D2*
Y10029D1*
X37408Y10750D1*
X40250D1*
X32937Y8250D2*
Y9187D1*
X36687D1*
X29125Y8674D2*
Y7875D1*
X21500Y8937D2*
Y9737D1*
X23372D1*
X24092Y9016D1*
Y8125D1*
X25250D1*
X18204Y10785D2*
X19003D1*
Y9658D1*
X19724Y8937D1*
X21500D1*
X15312Y13312D2*
X16683D1*
X17403Y12592D1*
Y10785D1*
X18204D1*
X13125Y16500D2*
X14511D1*
Y13312D1*
X15312D1*
X12736Y20187D2*
X11937D1*
X13361Y27717D2*
Y27812D1*
X12562D1*
X16875Y34000D2*
Y31766D1*
X16154Y31045D1*
X14410D1*
X19937Y36375D2*
Y34720D1*
X19217Y34000D1*
X16875D1*
X23375Y38125D2*
Y37095D1*
X22654Y36375D1*
X19937D1*
X27000Y39437D2*
Y38125D1*
X23375D1*
X30545Y40027D2*
X28414D1*
X27824Y39437D1*
X27000D1*
X34375Y40500D2*
X31819D1*
X31346Y40027D1*
X30545D1*
X38250Y40875D2*
X35550D1*
X35175Y40500D1*
X34375D1*
X42062Y40875D2*
X38250D1*
X45937D2*
X43925D1*
X42062D1*
X49812Y40625D2*
X47925D1*
X47675Y40875D1*
X45937D1*
X53420Y40652D2*
X49812D1*
Y40625D1*
X53625Y36750D2*
Y39596D1*
X53420Y39800D1*
Y40652D1*
X53625Y32875D2*
Y36750D1*
X53187Y29062D2*
Y31637D1*
X53625Y32074D1*
Y32875D1*
X52187Y25312D2*
Y29062D1*
X53187D1*
X50954Y22035D2*
Y25312D1*
X52187D1*
X58062Y67000D2*
Y69404D1*
X57342Y70125D1*
X55687D1*
X59625Y63375D2*
Y66279D1*
X58904Y67000D1*
X58062D1*
X60687Y59625D2*
Y63375D1*
X59625D1*
X61312Y55625D2*
Y57128D1*
X60687Y57753D1*
Y59625D1*
X46562Y15687D2*
Y17187D1*
X48375Y19000D1*
X48677D1*
X48954Y18723D1*
X53375Y15946D2*
X55446D1*
X55812Y16312D1*
Y19812D1*
X55250Y20375D1*
X53125D1*
Y21677D1*
X53152Y21704D1*
X52500Y72562D2*
Y77133D1*
D17*
X8937Y57812D3*
D18*
X8939Y58600D3*
D19*
X8956Y59184D3*
X10060Y59186D3*
D20*
X12892Y57473D3*
D21*
X12104Y57474D3*
D22*
X11520Y57492D3*
X11518Y58596D3*
D20*
X14437Y61187D3*
D21*
X13649Y61189D3*
D22*
X13065Y61206D3*
X13064Y62310D3*
D20*
X16687Y64437D3*
D21*
X15899Y64439D3*
D22*
X15315Y64456D3*
X15314Y65560D3*
D20*
X19750Y66937D3*
D21*
X18962Y66939D3*
D22*
X18378Y66956D3*
X18376Y68060D3*
D20*
X23312Y68687D3*
D21*
X22524Y68689D3*
D22*
X21940Y68706D3*
X21939Y69810D3*
D20*
X27250Y69750D3*
D21*
X26462Y69751D3*
D22*
X25878Y69769D3*
X25876Y70873D3*
D20*
X31187Y70312D3*
D21*
X30399Y70314D3*
D22*
X29815Y70331D3*
X29814Y71435D3*
D20*
X35187Y70375D3*
D21*
X34399Y70376D3*
D22*
X33815Y70394D3*
X33814Y71498D3*
D20*
X39125Y70000D3*
D21*
X38337Y70001D3*
D22*
X37753Y70019D3*
X37751Y71123D3*
D17*
X42733Y68964D3*
D18*
X42734Y69752D3*
D19*
X42751Y70336D3*
X43855Y70338D3*
D17*
X46483Y67339D3*
D18*
X46484Y68127D3*
D19*
X46501Y68711D3*
X47605Y68713D3*
D17*
X49625Y64937D3*
D18*
X49626Y65725D3*
D19*
X49643Y66309D3*
X50747Y66311D3*
D17*
X51875Y61625D3*
D18*
X51876Y62413D3*
D19*
X51893Y62997D3*
X52997Y62998D3*
D17*
X53062Y57812D3*
D18*
X53064Y58600D3*
D19*
X53081Y59184D3*
X54185Y59186D3*
D17*
X53500Y53875D3*
D18*
X53501Y54663D3*
D19*
X53518Y55247D3*
X54622Y55248D3*
D17*
X53750Y49875D3*
D18*
X53751Y50663D3*
D19*
X53768Y51247D3*
X54872Y51248D3*
D17*
X53750Y45875D3*
D18*
X53751Y46663D3*
D19*
X53768Y47247D3*
X54872Y47248D3*
D17*
X49794Y46615D3*
D18*
X49792Y45827D3*
D19*
X49775Y45243D3*
X48671Y45241D3*
D17*
X45875Y46750D3*
D18*
X45873Y45962D3*
D19*
X45856Y45378D3*
X44752Y45376D3*
D17*
X41812Y46750D3*
D18*
X41811Y45962D3*
D19*
X41793Y45378D3*
X40689Y45376D3*
D17*
X38000Y46812D3*
D18*
X37998Y46025D3*
D19*
X37981Y45441D3*
X36877Y45439D3*
D17*
X34062Y46687D3*
D18*
X34061Y45900D3*
D19*
X34043Y45316D3*
X32939Y45314D3*
D17*
X30125Y46187D3*
D18*
X30123Y45400D3*
D19*
X30106Y44816D3*
X29002Y44814D3*
D17*
X26187Y45625D3*
D18*
X26186Y44837D3*
D19*
X26168Y44253D3*
X25064Y44251D3*
D17*
X22375Y44812D3*
D18*
X22373Y44025D3*
D19*
X22356Y43441D3*
X21252Y43439D3*
D17*
X18625Y43687D3*
D18*
X18623Y42900D3*
D19*
X19731Y42316D3*
X18627Y42314D3*
D17*
X14937Y42062D3*
D18*
X14936Y41275D3*
D19*
X16043Y40691D3*
X14939Y40689D3*
D17*
X11562Y40125D3*
D18*
X11561Y39337D3*
D19*
X12668Y38753D3*
X11564Y38751D3*
D17*
X8625Y37375D3*
D18*
X8623Y36587D3*
D19*
X9731Y36003D3*
X8627Y36001D3*
D17*
X6187Y34500D3*
D18*
X6186Y33712D3*
D19*
X7293Y33128D3*
X6189Y33126D3*
D17*
X4312Y30937D3*
D18*
X4311Y30150D3*
D19*
X5418Y29566D3*
X4314Y29564D3*
D17*
X3250Y27187D3*
D18*
X3248Y26400D3*
D19*
X4356Y25816D3*
X3252Y25814D3*
D17*
X2812Y23250D3*
D18*
X2811Y22462D3*
D19*
X3918Y21878D3*
X2814Y21876D3*
D17*
X3187Y19375D3*
D18*
X3186Y18587D3*
D19*
X4293Y18003D3*
X3189Y18001D3*
D17*
X4250Y15562D3*
D18*
X4248Y14775D3*
D19*
X5356Y14191D3*
X4252Y14189D3*
D17*
X6062Y12062D3*
D18*
X6061Y11275D3*
D19*
X7168Y10691D3*
X6064Y10689D3*
D20*
X8312Y8750D3*
D21*
X9100Y8748D3*
D22*
X9684Y9856D3*
X9686Y8752D3*
D20*
X11312Y6250D3*
D21*
X12100Y6248D3*
D22*
X12684Y7356D3*
X12686Y6252D3*
D20*
X14812Y4375D3*
D21*
X15600Y4373D3*
D22*
X16184Y5481D3*
X16186Y4377D3*
D20*
X18500Y3125D3*
D21*
X19287Y3123D3*
D22*
X19871Y4231D3*
X19873Y3127D3*
D20*
X22375Y2562D3*
D21*
X23162Y2561D3*
D22*
X23746Y3669D3*
X23748Y2565D3*
D20*
X26250Y2375D3*
D21*
X27037Y2373D3*
D22*
X27621Y3481D3*
X27623Y2377D3*
D20*
X30250Y2562D3*
D21*
X31037Y2561D3*
D22*
X31621Y3669D3*
X31623Y2565D3*
D17*
X34410Y3045D3*
D18*
X34411Y3833D3*
D19*
X33304Y4417D3*
X34408Y4419D3*
D17*
X38062Y4125D3*
D18*
X38064Y4913D3*
D19*
X36956Y5497D3*
X38060Y5498D3*
D17*
X41625Y5937D3*
D18*
X41626Y6725D3*
D19*
X40518Y7309D3*
X41622Y7311D3*
D17*
X44875Y8312D3*
D18*
X44876Y9100D3*
D19*
X43768Y9684D3*
X44872Y9686D3*
D17*
X47500Y11187D3*
D18*
X47501Y11975D3*
D19*
X46393Y12559D3*
X47497Y12561D3*
D17*
X49722Y14358D3*
D18*
X49724Y15146D3*
D19*
X48616Y15730D3*
X49720Y15731D3*
D20*
X51250Y18250D3*
D21*
X52037Y18248D3*
D22*
X52621Y19356D3*
X52623Y18252D3*
D20*
X53152Y21704D3*
D21*
X53939Y21703D3*
D22*
X54524Y22811D3*
X54525Y21707D3*
D20*
X53375Y17375D3*
D21*
X54162Y17373D3*
D22*
X54746Y18481D3*
X54748Y17377D3*
D20*
X53687Y13000D3*
D21*
X54475Y12998D3*
D22*
X55059Y14106D3*
X55061Y13002D3*
D20*
X54062Y8687D3*
D21*
X54850Y8686D3*
D22*
X55434Y9794D3*
X55436Y8690D3*
D20*
X54500Y4437D3*
D21*
X55287Y4436D3*
D22*
X55871Y5543D3*
X55873Y4439D3*
D17*
X58722Y4233D3*
D18*
X58724Y5021D3*
D19*
X57616Y5605D3*
X58720Y5606D3*
D17*
X62750Y4250D3*
D18*
X62751Y5038D3*
D19*
X61643Y5622D3*
X62747Y5623D3*
D20*
X62329Y8285D3*
D21*
X61541Y8287D3*
D22*
X60957Y7179D3*
X60956Y8283D3*
D20*
X61937Y12250D3*
D21*
X61149Y12251D3*
D22*
X60565Y11144D3*
X60564Y12248D3*
D20*
X61750Y16187D3*
D21*
X60962Y16189D3*
D22*
X60378Y15081D3*
X60376Y16185D3*
D20*
X61750Y20125D3*
D21*
X60962Y20126D3*
D22*
X60378Y19019D3*
X60376Y20123D3*
D20*
X61812Y24125D3*
D21*
X61024Y24126D3*
D22*
X60440Y23019D3*
X60439Y24123D3*
D20*
X61750Y28000D3*
D21*
X60962Y28001D3*
D22*
X60378Y26894D3*
X60376Y27998D3*
D20*
X61812Y32000D3*
D21*
X61024Y32001D3*
D22*
X60440Y30894D3*
X60439Y31998D3*
D20*
X61812Y35937D3*
D21*
X61024Y35939D3*
D22*
X60440Y34831D3*
X60439Y35935D3*
D20*
X61812Y39875D3*
D21*
X61024Y39876D3*
D22*
X60440Y38769D3*
X60439Y39873D3*
D20*
X61812Y43812D3*
D21*
X61024Y43814D3*
D22*
X60440Y42706D3*
X60439Y43810D3*
D20*
X61812Y47812D3*
D21*
X61024Y47814D3*
D22*
X60440Y46706D3*
X60439Y47810D3*
D20*
X61687Y51687D3*
D21*
X60899Y51689D3*
D22*
X60315Y50581D3*
X60314Y51685D3*
D20*
X61312Y55625D3*
D21*
X60524Y55626D3*
D22*
X59940Y54519D3*
X59939Y55623D3*
D20*
X60687Y59625D3*
D21*
X59899Y59626D3*
D22*
X59315Y58519D3*
X59314Y59623D3*
D20*
X59625Y63375D3*
D21*
X58837Y63376D3*
D22*
X58253Y62269D3*
X58251Y63373D3*
D20*
X58062Y67000D3*
D21*
X57274Y67001D3*
D22*
X56690Y65894D3*
X56689Y66998D3*
D20*
X55687Y70125D3*
D21*
X54899Y70126D3*
D22*
X54315Y69019D3*
X54314Y70123D3*
D20*
X52500Y72562D3*
D21*
X51712Y72564D3*
D22*
X51128Y71456D3*
X51126Y72560D3*
D20*
X49000Y74250D3*
D21*
X48212Y74251D3*
D22*
X47628Y73144D3*
X47626Y74248D3*
D20*
X45125Y75250D3*
D21*
X44337Y75251D3*
D22*
X43753Y74144D3*
X43751Y75248D3*
D17*
X40964Y76079D3*
D18*
X40963Y75292D3*
D19*
X42070Y74708D3*
X40966Y74706D3*
D17*
X37000Y76312D3*
D18*
X36998Y75525D3*
D19*
X38106Y74941D3*
X37002Y74939D3*
D17*
X33062Y76312D3*
D18*
X33061Y75525D3*
D19*
X34168Y74941D3*
X33064Y74939D3*
D17*
X29125Y76062D3*
D18*
X29123Y75275D3*
D19*
X30231Y74691D3*
X29127Y74689D3*
D17*
X25250Y75500D3*
D18*
X25248Y74712D3*
D19*
X26356Y74128D3*
X25252Y74126D3*
D17*
X21375Y74687D3*
D18*
X21373Y73900D3*
D19*
X22481Y73316D3*
X21377Y73314D3*
D17*
X17625Y73312D3*
D18*
X17623Y72525D3*
D19*
X18731Y71941D3*
X17627Y71939D3*
D17*
X14125Y71562D3*
D18*
X14123Y70775D3*
D19*
X15231Y70191D3*
X14127Y70189D3*
D17*
X11000Y69125D3*
D18*
X10998Y68337D3*
D19*
X12106Y67753D3*
X11002Y67751D3*
D17*
X8437Y66187D3*
D18*
X8436Y65400D3*
D19*
X9543Y64816D3*
X8439Y64814D3*
D17*
X6437Y62750D3*
D18*
X6436Y61962D3*
D19*
X7543Y61378D3*
X6439Y61376D3*
D20*
X4983Y58777D3*
D21*
X5770Y58776D3*
D22*
X6354Y59883D3*
X6356Y58779D3*
D20*
X53420Y40652D3*
D21*
X54208Y40651D3*
D22*
X54792Y41758D3*
X54794Y40654D3*
D20*
X53625Y36750D3*
D21*
X54412Y36748D3*
D22*
X54996Y37856D3*
X54998Y36752D3*
D20*
X53625Y32875D3*
D21*
X54412Y32873D3*
D22*
X54996Y33981D3*
X54998Y32877D3*
D20*
X53187Y29062D3*
D21*
X53975Y29061D3*
D22*
X54559Y30169D3*
X54561Y29065D3*
D20*
X52187Y25312D3*
D21*
X52975Y25311D3*
D22*
X53559Y26419D3*
X53561Y25315D3*
D17*
X50954Y22035D3*
D18*
X50953Y21248D3*
D19*
X52060Y20663D3*
X50956Y20662D3*
D17*
X48954Y18723D3*
D18*
X48953Y17935D3*
D19*
X50060Y17351D3*
X48956Y17349D3*
D17*
X46562Y15687D3*
D18*
X46561Y14900D3*
D19*
X47668Y14316D3*
X46564Y14314D3*
D20*
X43437Y12812D3*
D21*
X44225Y12811D3*
D22*
X44809Y12794D3*
X44811Y11690D3*
D20*
X40250Y10750D3*
D21*
X41037Y10748D3*
D22*
X41621Y10731D3*
X41623Y9627D3*
D20*
X36687Y9187D3*
D21*
X37475Y9186D3*
D22*
X38059Y9169D3*
X38061Y8065D3*
D20*
X32937Y8250D3*
D21*
X33725Y8248D3*
D22*
X34309Y8231D3*
X34311Y7127D3*
D20*
X29125Y7875D3*
D21*
X29912Y7873D3*
D22*
X30496Y7856D3*
X30498Y6752D3*
D20*
X25250Y8125D3*
D21*
X26037Y8123D3*
D22*
X26621Y8106D3*
X26623Y7002D3*
D20*
X21500Y8937D3*
D21*
X22287Y8936D3*
D22*
X22871Y8919D3*
X22873Y7815D3*
D17*
X18204Y10785D3*
D18*
X18203Y9998D3*
D19*
X18185Y9413D3*
X17081Y9412D3*
D17*
X15312Y13312D3*
D18*
X15311Y12525D3*
D19*
X15293Y11941D3*
X14189Y11939D3*
D17*
X13125Y16500D3*
D18*
X13123Y15712D3*
D19*
X13106Y15128D3*
X12002Y15126D3*
D17*
X11937Y20187D3*
D18*
X11936Y19400D3*
D19*
X11918Y18816D3*
X10814Y18814D3*
D17*
X11812Y24062D3*
D18*
X11811Y23275D3*
D19*
X11793Y22691D3*
X10689Y22689D3*
D17*
X12562Y27812D3*
D18*
X12561Y27025D3*
D19*
X12543Y26441D3*
X11439Y26439D3*
D20*
X14410Y31045D3*
D21*
X13622Y31047D3*
D22*
X13038Y31064D3*
X13037Y32168D3*
D20*
X16875Y34000D3*
D21*
X16087Y34001D3*
D22*
X15503Y34019D3*
X15501Y35123D3*
D20*
X19937Y36375D3*
D21*
X19149Y36376D3*
D22*
X18565Y36394D3*
X18564Y37498D3*
D20*
X23375Y38125D3*
D21*
X22587Y38126D3*
D22*
X22003Y38144D3*
X22001Y39248D3*
D20*
X27000Y39437D3*
D21*
X26212Y39439D3*
D22*
X25628Y39456D3*
X25626Y40560D3*
D17*
X30545Y40027D3*
D18*
X30547Y40815D3*
D19*
X30564Y41399D3*
X31668Y41400D3*
D17*
X34375Y40500D3*
D18*
X34376Y41288D3*
D19*
X34393Y41872D3*
X35497Y41873D3*
D17*
X38250Y40875D3*
D18*
X38251Y41663D3*
D19*
X38268Y42247D3*
X39372Y42248D3*
D17*
X42062Y40875D3*
D18*
X42064Y41663D3*
D19*
X42081Y42247D3*
X43185Y42248D3*
D17*
X45937Y40875D3*
D18*
X45939Y41663D3*
D19*
X45956Y42247D3*
X47060Y42248D3*
D17*
X49812Y40625D3*
D18*
X49814Y41413D3*
D19*
X49831Y41997D3*
X50935Y41998D3*
D23*
X61881Y71508D3*
D24*
Y75883D3*
D25*
X15694Y58636D3*
X44828D3*
X15877Y19065D3*
X45011D3*
G36*
X8618Y59539D2*
X9255D1*
Y58445D1*
X8618D1*
Y59539D1*
G37*
G36*
X11165Y57790D2*
X12259D1*
Y57154D1*
X11165D1*
Y57790D1*
G37*
G36*
X12711Y61505D2*
X13804D1*
Y60868D1*
X12711D1*
Y61505D1*
G37*
G36*
X14961Y64755D2*
X16054D1*
Y64118D1*
X14961D1*
Y64755D1*
G37*
G36*
X18023Y67255D2*
X19117D1*
Y66618D1*
X18023D1*
Y67255D1*
G37*
G36*
X21586Y69005D2*
X22679D1*
Y68368D1*
X21586D1*
Y69005D1*
G37*
G36*
X25523Y70067D2*
X26617D1*
Y69431D1*
X25523D1*
Y70067D1*
G37*
G36*
X29461Y70630D2*
X30554D1*
Y69993D1*
X29461D1*
Y70630D1*
G37*
G36*
X33461Y70692D2*
X34554D1*
Y70056D1*
X33461D1*
Y70692D1*
G37*
G36*
X37398Y70317D2*
X38492D1*
Y69681D1*
X37398D1*
Y70317D1*
G37*
G36*
X42414Y70691D2*
X43050D1*
Y69598D1*
X42414D1*
Y70691D1*
G37*
G36*
X46164Y69066D2*
X46800D1*
Y67973D1*
X46164D1*
Y69066D1*
G37*
G36*
X49306Y66664D2*
X49942D1*
Y65570D1*
X49306D1*
Y66664D1*
G37*
G36*
X51556Y63351D2*
X52192D1*
Y62258D1*
X51556D1*
Y63351D1*
G37*
G36*
X52743Y59539D2*
X53380D1*
Y58445D1*
X52743D1*
Y59539D1*
G37*
G36*
X53181Y55601D2*
X53817D1*
Y54508D1*
X53181D1*
Y55601D1*
G37*
G36*
X53431Y51601D2*
X54067D1*
Y50508D1*
X53431D1*
Y51601D1*
G37*
G36*
Y47601D2*
X54067D1*
Y46508D1*
X53431D1*
Y47601D1*
G37*
G36*
X49476Y45982D2*
X50113D1*
Y44889D1*
X49476D1*
Y45982D1*
G37*
G36*
X45557Y46117D2*
X46194D1*
Y45024D1*
X45557D1*
Y46117D1*
G37*
G36*
X41495D2*
X42131D1*
Y45024D1*
X41495D1*
Y46117D1*
G37*
G36*
X37682Y46179D2*
X38319D1*
Y45086D1*
X37682D1*
Y46179D1*
G37*
G36*
X33745Y46054D2*
X34381D1*
Y44961D1*
X33745D1*
Y46054D1*
G37*
G36*
X29807Y45554D2*
X30444D1*
Y44461D1*
X29807D1*
Y45554D1*
G37*
G36*
X25870Y44992D2*
X26506D1*
Y43899D1*
X25870D1*
Y44992D1*
G37*
G36*
X22057Y44179D2*
X22694D1*
Y43086D1*
X22057D1*
Y44179D1*
G37*
G36*
X18307Y43054D2*
X18944D1*
Y41961D1*
X18307D1*
Y43054D1*
G37*
G36*
X14620Y41429D2*
X15256D1*
Y40336D1*
X14620D1*
Y41429D1*
G37*
G36*
X11245Y39492D2*
X11881D1*
Y38399D1*
X11245D1*
Y39492D1*
G37*
G36*
X8307Y36742D2*
X8944D1*
Y35649D1*
X8307D1*
Y36742D1*
G37*
G36*
X5870Y33867D2*
X6506D1*
Y32774D1*
X5870D1*
Y33867D1*
G37*
G36*
X3995Y30304D2*
X4631D1*
Y29211D1*
X3995D1*
Y30304D1*
G37*
G36*
X2932Y26554D2*
X3569D1*
Y25461D1*
X2932D1*
Y26554D1*
G37*
G36*
X2495Y22617D2*
X3131D1*
Y21524D1*
X2495D1*
Y22617D1*
G37*
G36*
X2870Y18742D2*
X3506D1*
Y17649D1*
X2870D1*
Y18742D1*
G37*
G36*
X3932Y14929D2*
X4569D1*
Y13836D1*
X3932D1*
Y14929D1*
G37*
G36*
X5745Y11429D2*
X6381D1*
Y10336D1*
X5745D1*
Y11429D1*
G37*
G36*
X8945Y9069D2*
X10038D1*
Y8432D1*
X8945D1*
Y9069D1*
G37*
G36*
X11945Y6569D2*
X13038D1*
Y5932D1*
X11945D1*
Y6569D1*
G37*
G36*
X15445Y4694D2*
X16538D1*
Y4057D1*
X15445D1*
Y4694D1*
G37*
G36*
X19133Y3444D2*
X20226D1*
Y2807D1*
X19133D1*
Y3444D1*
G37*
G36*
X23008Y2881D2*
X24101D1*
Y2245D1*
X23008D1*
Y2881D1*
G37*
G36*
X26883Y2694D2*
X27976D1*
Y2057D1*
X26883D1*
Y2694D1*
G37*
G36*
X30883Y2881D2*
X31976D1*
Y2245D1*
X30883D1*
Y2881D1*
G37*
G36*
X34091Y4772D2*
X34728D1*
Y3678D1*
X34091D1*
Y4772D1*
G37*
G36*
X37743Y5851D2*
X38380D1*
Y4758D1*
X37743D1*
Y5851D1*
G37*
G36*
X41306Y7664D2*
X41942D1*
Y6570D1*
X41306D1*
Y7664D1*
G37*
G36*
X44556Y10039D2*
X45192D1*
Y8945D1*
X44556D1*
Y10039D1*
G37*
G36*
X47181Y12914D2*
X47817D1*
Y11820D1*
X47181D1*
Y12914D1*
G37*
G36*
X49403Y16084D2*
X50040D1*
Y14991D1*
X49403D1*
Y16084D1*
G37*
G36*
X51883Y18569D2*
X52976D1*
Y17932D1*
X51883D1*
Y18569D1*
G37*
G36*
X53785Y22023D2*
X54878D1*
Y21387D1*
X53785D1*
Y22023D1*
G37*
G36*
X54008Y17694D2*
X55101D1*
Y17057D1*
X54008D1*
Y17694D1*
G37*
G36*
X54320Y13319D2*
X55413D1*
Y12682D1*
X54320D1*
Y13319D1*
G37*
G36*
X54695Y9006D2*
X55788D1*
Y8370D1*
X54695D1*
Y9006D1*
G37*
G36*
X55133Y4756D2*
X56226D1*
Y4120D1*
X55133D1*
Y4756D1*
G37*
G36*
X58403Y5959D2*
X59040D1*
Y4866D1*
X58403D1*
Y5959D1*
G37*
G36*
X62431Y5976D2*
X63067D1*
Y4883D1*
X62431D1*
Y5976D1*
G37*
G36*
X60603Y8603D2*
X61696D1*
Y7966D1*
X60603D1*
Y8603D1*
G37*
G36*
X60211Y12567D2*
X61304D1*
Y11931D1*
X60211D1*
Y12567D1*
G37*
G36*
X60023Y16505D2*
X61117D1*
Y15868D1*
X60023D1*
Y16505D1*
G37*
G36*
Y20442D2*
X61117D1*
Y19806D1*
X60023D1*
Y20442D1*
G37*
G36*
X60086Y24442D2*
X61179D1*
Y23806D1*
X60086D1*
Y24442D1*
G37*
G36*
X60023Y28317D2*
X61117D1*
Y27681D1*
X60023D1*
Y28317D1*
G37*
G36*
X60086Y32317D2*
X61179D1*
Y31681D1*
X60086D1*
Y32317D1*
G37*
G36*
Y36255D2*
X61179D1*
Y35618D1*
X60086D1*
Y36255D1*
G37*
G36*
Y40192D2*
X61179D1*
Y39556D1*
X60086D1*
Y40192D1*
G37*
G36*
Y44130D2*
X61179D1*
Y43493D1*
X60086D1*
Y44130D1*
G37*
G36*
Y48130D2*
X61179D1*
Y47493D1*
X60086D1*
Y48130D1*
G37*
G36*
X59961Y52005D2*
X61054D1*
Y51368D1*
X59961D1*
Y52005D1*
G37*
G36*
X59586Y55942D2*
X60679D1*
Y55306D1*
X59586D1*
Y55942D1*
G37*
G36*
X58961Y59942D2*
X60054D1*
Y59306D1*
X58961D1*
Y59942D1*
G37*
G36*
X57898Y63692D2*
X58992D1*
Y63056D1*
X57898D1*
Y63692D1*
G37*
G36*
X56336Y67317D2*
X57429D1*
Y66681D1*
X56336D1*
Y67317D1*
G37*
G36*
X53961Y70442D2*
X55054D1*
Y69806D1*
X53961D1*
Y70442D1*
G37*
G36*
X50773Y72880D2*
X51867D1*
Y72243D1*
X50773D1*
Y72880D1*
G37*
G36*
X47273Y74567D2*
X48367D1*
Y73931D1*
X47273D1*
Y74567D1*
G37*
G36*
X43398Y75567D2*
X44492D1*
Y74931D1*
X43398D1*
Y75567D1*
G37*
G36*
X40647Y75446D2*
X41283D1*
Y74353D1*
X40647D1*
Y75446D1*
G37*
G36*
X36682Y75679D2*
X37319D1*
Y74586D1*
X36682D1*
Y75679D1*
G37*
G36*
X32745D2*
X33381D1*
Y74586D1*
X32745D1*
Y75679D1*
G37*
G36*
X28807Y75429D2*
X29444D1*
Y74336D1*
X28807D1*
Y75429D1*
G37*
G36*
X24932Y74867D2*
X25569D1*
Y73774D1*
X24932D1*
Y74867D1*
G37*
G36*
X21057Y74054D2*
X21694D1*
Y72961D1*
X21057D1*
Y74054D1*
G37*
G36*
X17307Y72679D2*
X17944D1*
Y71586D1*
X17307D1*
Y72679D1*
G37*
G36*
X13807Y70929D2*
X14444D1*
Y69836D1*
X13807D1*
Y70929D1*
G37*
G36*
X10682Y68492D2*
X11319D1*
Y67399D1*
X10682D1*
Y68492D1*
G37*
G36*
X8120Y65554D2*
X8756D1*
Y64461D1*
X8120D1*
Y65554D1*
G37*
G36*
X6120Y62117D2*
X6756D1*
Y61024D1*
X6120D1*
Y62117D1*
G37*
G36*
X5616Y59096D2*
X6709D1*
Y58459D1*
X5616D1*
Y59096D1*
G37*
G36*
X54053Y40971D2*
X55146D1*
Y40334D1*
X54053D1*
Y40971D1*
G37*
G36*
X54258Y37069D2*
X55351D1*
Y36432D1*
X54258D1*
Y37069D1*
G37*
G36*
Y33194D2*
X55351D1*
Y32557D1*
X54258D1*
Y33194D1*
G37*
G36*
X53820Y29381D2*
X54913D1*
Y28745D1*
X53820D1*
Y29381D1*
G37*
G36*
X52820Y25631D2*
X53913D1*
Y24995D1*
X52820D1*
Y25631D1*
G37*
G36*
X50637Y21402D2*
X51273D1*
Y20309D1*
X50637D1*
Y21402D1*
G37*
G36*
X48637Y18090D2*
X49273D1*
Y16997D1*
X48637D1*
Y18090D1*
G37*
G36*
X46245Y15054D2*
X46881D1*
Y13961D1*
X46245D1*
Y15054D1*
G37*
G36*
X44070Y13131D2*
X45163D1*
Y12495D1*
X44070D1*
Y13131D1*
G37*
G36*
X40883Y11069D2*
X41976D1*
Y10432D1*
X40883D1*
Y11069D1*
G37*
G36*
X37320Y9506D2*
X38413D1*
Y8870D1*
X37320D1*
Y9506D1*
G37*
G36*
X33570Y8569D2*
X34663D1*
Y7932D1*
X33570D1*
Y8569D1*
G37*
G36*
X29758Y8194D2*
X30851D1*
Y7557D1*
X29758D1*
Y8194D1*
G37*
G36*
X25883Y8444D2*
X26976D1*
Y7807D1*
X25883D1*
Y8444D1*
G37*
G36*
X22133Y9256D2*
X23226D1*
Y8620D1*
X22133D1*
Y9256D1*
G37*
G36*
X17887Y10152D2*
X18523D1*
Y9059D1*
X17887D1*
Y10152D1*
G37*
G36*
X14995Y12679D2*
X15631D1*
Y11586D1*
X14995D1*
Y12679D1*
G37*
G36*
X12807Y15867D2*
X13444D1*
Y14774D1*
X12807D1*
Y15867D1*
G37*
G36*
X11620Y19554D2*
X12256D1*
Y18461D1*
X11620D1*
Y19554D1*
G37*
G36*
X11495Y23429D2*
X12131D1*
Y22336D1*
X11495D1*
Y23429D1*
G37*
G36*
X12245Y27179D2*
X12881D1*
Y26086D1*
X12245D1*
Y27179D1*
G37*
G36*
X12684Y31363D2*
X13777D1*
Y30726D1*
X12684D1*
Y31363D1*
G37*
G36*
X15148Y34317D2*
X16242D1*
Y33681D1*
X15148D1*
Y34317D1*
G37*
G36*
X18211Y36692D2*
X19304D1*
Y36056D1*
X18211D1*
Y36692D1*
G37*
G36*
X21648Y38442D2*
X22742D1*
Y37806D1*
X21648D1*
Y38442D1*
G37*
G36*
X25273Y39755D2*
X26367D1*
Y39118D1*
X25273D1*
Y39755D1*
G37*
G36*
X30226Y41753D2*
X30863D1*
Y40660D1*
X30226D1*
Y41753D1*
G37*
G36*
X34056Y42226D2*
X34692D1*
Y41133D1*
X34056D1*
Y42226D1*
G37*
G36*
X37931Y42601D2*
X38567D1*
Y41508D1*
X37931D1*
Y42601D1*
G37*
G36*
X41743D2*
X42380D1*
Y41508D1*
X41743D1*
Y42601D1*
G37*
G36*
X45618D2*
X46255D1*
Y41508D1*
X45618D1*
Y42601D1*
G37*
G36*
X49493Y42351D2*
X50130D1*
Y41258D1*
X49493D1*
Y42351D1*
G37*
X61754Y77340D2*
D12*
X62098D1*
X61754Y77325D2*
X62098D1*
X61754Y77310D2*
X62098D1*
X61754Y77295D2*
X62098D1*
X61754Y77280D2*
X62098D1*
X61754Y77265D2*
X62098D1*
X61754Y77251D2*
X62098D1*
X61476Y69666D2*
X61565D1*
X61476Y69651D2*
X61565D1*
X61476Y69636D2*
X61565D1*
X61476Y69621D2*
X61565D1*
X61476Y69606D2*
X61565D1*
X61476Y69591D2*
X61565D1*
X61476Y69576D2*
X61565D1*
X61476Y69561D2*
X61565D1*
X61476Y69546D2*
X61565D1*
X61476Y69531D2*
X61565D1*
X61476Y69516D2*
X61565D1*
X61476Y69501D2*
X61565D1*
X61476Y69486D2*
X61565D1*
X61476Y69471D2*
X61565D1*
X61476Y69456D2*
X61565D1*
X61476Y69442D2*
X61565D1*
X61476Y69427D2*
X61565D1*
X61221Y69412D2*
X61820D1*
X61221Y69397D2*
X61820D1*
X61221Y69382D2*
X61820D1*
X61221Y69367D2*
X61820D1*
X61221Y69352D2*
X61820D1*
X61221Y69337D2*
X61820D1*
X61221Y69322D2*
X61820D1*
X61476Y69307D2*
X61565D1*
X61476Y69292D2*
X61565D1*
X61476Y69277D2*
X61565D1*
X61476Y69262D2*
X61565D1*
X61476Y69247D2*
X61565D1*
X61476Y69232D2*
X61565D1*
X61476Y69217D2*
X61565D1*
X61476Y69202D2*
X61565D1*
X61476Y69187D2*
X61565D1*
X61476Y69172D2*
X61565D1*
X61476Y69157D2*
X61565D1*
X61476Y69142D2*
X61565D1*
X61476Y69127D2*
X61565D1*
X61476Y69112D2*
X61565D1*
X61476Y69097D2*
X61565D1*
X61476Y69082D2*
X61565D1*
X61476Y69067D2*
X61565D1*
X61754Y77340D2*
Y77325D1*
Y77310D1*
Y77295D1*
Y77280D1*
Y77265D1*
Y77251D1*
X62098Y77340D2*
Y77325D1*
Y77310D1*
Y77295D1*
Y77280D1*
Y77265D1*
Y77251D1*
X61476Y69666D2*
Y69651D1*
Y69636D1*
Y69621D1*
Y69606D1*
Y69591D1*
Y69576D1*
Y69561D1*
Y69546D1*
Y69531D1*
Y69516D1*
Y69501D1*
Y69486D1*
Y69471D1*
Y69456D1*
Y69442D1*
Y69427D1*
Y69412D1*
X61565Y69666D2*
Y69651D1*
Y69636D1*
Y69621D1*
Y69606D1*
Y69591D1*
Y69576D1*
Y69561D1*
Y69546D1*
Y69531D1*
Y69516D1*
Y69501D1*
Y69486D1*
Y69471D1*
Y69456D1*
Y69442D1*
Y69427D1*
Y69412D1*
X61221D2*
Y69397D1*
Y69382D1*
Y69367D1*
Y69352D1*
Y69337D1*
Y69322D1*
X61820Y69412D2*
Y69397D1*
Y69382D1*
Y69367D1*
Y69352D1*
Y69337D1*
Y69322D1*
X61476D2*
Y69307D1*
Y69292D1*
Y69277D1*
Y69262D1*
Y69247D1*
Y69232D1*
Y69217D1*
Y69202D1*
Y69187D1*
Y69172D1*
Y69157D1*
Y69142D1*
Y69127D1*
Y69112D1*
Y69097D1*
Y69082D1*
Y69067D1*
X61565Y69322D2*
Y69307D1*
Y69292D1*
Y69277D1*
Y69262D1*
Y69247D1*
Y69232D1*
Y69217D1*
Y69202D1*
Y69187D1*
Y69172D1*
Y69157D1*
Y69142D1*
Y69127D1*
Y69112D1*
Y69097D1*
Y69082D1*
Y69067D1*
M02*
