G04 DipTrace 2.4.0.2*
%INThrough.gbr*%
%MOIN*%
G04 Drill Symbols*
G04 D=0.1181 - Cross*
G04 D=0.1378 - X*
%ADD10C,0.008*%
%FSLAX44Y44*%
G04*
G70*
G90*
G75*
G01*
X48375Y97423D2*
D10*
Y96952D1*
X48140Y97187D2*
X48610D1*
X47938Y92298D2*
Y91827D1*
X47702Y92062D2*
X48173D1*
X61890Y69360D2*
X62360Y68890D1*
Y69360D2*
X61890Y68890D1*
X26515Y94235D2*
X26985Y93765D1*
Y94235D2*
X26515Y93765D1*
X6890Y69923D2*
X7360Y69452D1*
Y69923D2*
X6890Y69452D1*
X6827Y20610D2*
X7298Y20140D1*
Y20610D2*
X6827Y20140D1*
M02*
