G04 DipTrace 2.4.0.2*
%INBottom.gbr*%
%MOIN*%
%ADD14C,0.0748*%
%ADD15C,0.0591*%
%ADD18R,0.0748X0.0799*%
%ADD19R,0.0748X0.0382*%
%ADD20R,0.063X0.0709*%
%ADD21R,0.0799X0.0748*%
%ADD22R,0.0382X0.0748*%
%ADD23R,0.0709X0.063*%
%ADD24R,0.1969X0.1969*%
%ADD25C,0.1969*%
%ADD26C,0.0394*%
%ADD50C,0.0154*%
%FSLAX44Y44*%
G04*
G70*
G90*
G75*
G01*
%LNBottom*%
%LPD*%
X2689Y96915D2*
D14*
X6681D1*
X6715Y96880D1*
X10690D1*
X10744Y96934D1*
X10974Y92668D2*
Y88700D1*
Y84731D1*
Y80763D1*
Y76794D1*
Y72826D1*
Y68857D1*
Y64889D1*
Y60920D1*
Y56952D1*
Y52983D1*
Y45046D1*
Y41078D1*
Y49015D1*
Y41078D2*
Y37109D1*
Y33141D1*
Y29172D1*
Y25204D1*
Y21235D1*
Y17267D1*
Y13298D1*
Y9330D1*
Y5361D1*
X11768D1*
Y1041D1*
X10779D1*
X10715Y1105D1*
X6727D1*
X6722Y1110D1*
X2669D1*
X2665Y1106D1*
X1392D1*
Y5354D1*
X2380D1*
X2417Y5391D1*
Y9359D1*
Y13328D1*
Y17296D1*
Y21265D1*
Y25233D1*
Y29202D1*
Y33170D1*
Y37139D1*
Y41107D1*
Y45076D1*
Y49044D1*
Y53013D1*
Y56981D1*
Y60950D1*
Y64918D1*
Y68887D1*
Y72855D1*
Y76824D1*
Y80792D1*
Y84761D1*
Y88729D1*
Y92698D1*
X1329D1*
Y96864D1*
X2638D1*
X2689Y96915D1*
X7455Y98676D2*
Y98148D1*
X6715Y97408D1*
Y96880D1*
X10744Y96934D2*
X11893D1*
Y92738D1*
X11044D1*
X10974Y92668D1*
X3795Y95543D2*
D15*
Y94301D1*
X7821D1*
X7944D1*
X9643D1*
X9705Y94363D1*
Y95477D1*
X9621Y95561D1*
X7821Y95509D2*
Y94301D1*
X7944D2*
Y93477D1*
X7455Y92988D1*
X3790Y91575D2*
X4642D1*
Y87606D1*
Y83638D1*
Y55858D1*
Y28079D1*
Y24110D1*
Y20142D1*
Y16173D1*
Y12205D1*
Y8236D1*
Y4268D1*
Y3729D1*
X7845D1*
X8768D1*
Y55846D1*
Y75688D1*
Y79657D1*
Y83625D1*
Y87594D1*
Y91675D1*
X7455Y92988D1*
X9602Y91562D2*
X8881D1*
X8768Y91675D1*
X9602Y87594D2*
X8768D1*
X3790Y87606D2*
X4642D1*
X3790Y83638D2*
X4642D1*
Y4268D2*
X3790D1*
X7845Y3729D2*
Y2484D1*
X3790Y4268D2*
Y2480D1*
X3788D1*
X7845Y2484D2*
X9609D1*
Y2477D1*
X3790Y55858D2*
X4642D1*
X3790Y28079D2*
X4642D1*
X3790Y79669D2*
X4642D1*
Y28079D1*
X3790Y75701D2*
X4642D1*
Y28079D1*
X3790Y71732D2*
X4642D1*
Y28079D1*
X3790Y67764D2*
X4642D1*
Y28079D1*
X3790Y63795D2*
X4642D1*
Y28079D1*
X3790Y59827D2*
X4642D1*
Y28079D1*
X3790Y51890D2*
X4642D1*
Y28079D1*
X3790Y47921D2*
X4642D1*
Y28079D1*
X3790Y43953D2*
X4642D1*
Y28079D1*
X3790Y39984D2*
X4642D1*
Y28079D1*
X3790Y36016D2*
X4642D1*
Y28079D1*
X3790Y32047D2*
X4642D1*
Y28079D1*
X3790Y24110D2*
X4642D1*
X3790Y20142D2*
X4642D1*
X3790Y16173D2*
X4642D1*
X3790Y12205D2*
X4642D1*
X3790Y8236D2*
X4642D1*
X9602Y79657D2*
X8768D1*
X9603Y55846D2*
X8768D1*
X9602Y28066D2*
X8768D1*
Y55846D1*
X9602Y75688D2*
X8768D1*
X9602Y71720D2*
X8768D1*
Y75688D1*
X9602Y67751D2*
X8768D1*
Y75688D1*
X9602Y63783D2*
X8768D1*
Y75688D1*
X9602Y59814D2*
X8768D1*
Y75688D1*
X9602Y51877D2*
X8768D1*
Y75688D1*
X9602Y47909D2*
X8768D1*
Y75688D1*
X9602Y43940D2*
X8768D1*
Y75688D1*
X9602Y39972D2*
X8768D1*
Y75688D1*
X9602Y36003D2*
X8768D1*
Y75688D1*
X9602Y32035D2*
X8768D1*
Y75688D1*
X9602Y24098D2*
X8768D1*
Y75688D1*
X9602Y20129D2*
X8768D1*
Y75688D1*
X9602Y16161D2*
X8768D1*
Y75688D1*
X9602Y12192D2*
X8768D1*
Y75688D1*
X9602Y8224D2*
X8768D1*
Y75688D1*
X9602Y83625D2*
X8768D1*
X9602Y4255D2*
X8872D1*
X8768Y4359D1*
Y75688D1*
D18*
X2689Y96915D3*
D19*
X2688Y96127D3*
D20*
X3795Y95543D3*
X2691Y95541D3*
D21*
X2417Y92698D3*
D22*
X3205Y92696D3*
D23*
X3789Y92679D3*
X3790Y91575D3*
D21*
X2417Y88729D3*
D22*
X3205Y88728D3*
D23*
X3789Y88710D3*
X3790Y87606D3*
D21*
X2417Y84761D3*
D22*
X3205Y84759D3*
D23*
X3789Y84742D3*
X3790Y83638D3*
D21*
X2417Y80792D3*
D22*
X3205Y80791D3*
D23*
X3789Y80773D3*
X3790Y79669D3*
D21*
X2417Y76824D3*
D22*
X3205Y76822D3*
D23*
X3789Y76805D3*
X3790Y75701D3*
D21*
X2417Y72855D3*
D22*
X3205Y72854D3*
D23*
X3789Y72836D3*
X3790Y71732D3*
D21*
X2417Y68887D3*
D22*
X3205Y68885D3*
D23*
X3789Y68868D3*
X3790Y67764D3*
D21*
X2417Y64918D3*
D22*
X3205Y64917D3*
D23*
X3789Y64899D3*
X3790Y63795D3*
D21*
X2417Y60950D3*
D22*
X3205Y60948D3*
D23*
X3789Y60931D3*
X3790Y59827D3*
D21*
X2417Y56981D3*
D22*
X3205Y56980D3*
D23*
X3789Y56962D3*
X3790Y55858D3*
D21*
X2417Y53013D3*
D22*
X3205Y53011D3*
D23*
X3789Y52994D3*
X3790Y51890D3*
D21*
X2417Y49044D3*
D22*
X3205Y49043D3*
D23*
X3789Y49025D3*
X3790Y47921D3*
D21*
X2417Y45076D3*
D22*
X3205Y45074D3*
D23*
X3789Y45057D3*
X3790Y43953D3*
D21*
X2417Y41107D3*
D22*
X3205Y41106D3*
D23*
X3789Y41088D3*
X3790Y39984D3*
D21*
X2417Y37139D3*
D22*
X3205Y37137D3*
D23*
X3789Y37120D3*
X3790Y36016D3*
D21*
X2417Y33170D3*
D22*
X3205Y33169D3*
D23*
X3789Y33151D3*
X3790Y32047D3*
D21*
X2417Y29202D3*
D22*
X3205Y29200D3*
D23*
X3789Y29183D3*
X3790Y28079D3*
D21*
X2417Y25233D3*
D22*
X3205Y25232D3*
D23*
X3789Y25214D3*
X3790Y24110D3*
D21*
X2417Y21265D3*
D22*
X3205Y21263D3*
D23*
X3789Y21246D3*
X3790Y20142D3*
D21*
X2417Y17296D3*
D22*
X3205Y17295D3*
D23*
X3789Y17277D3*
X3790Y16173D3*
D21*
X2417Y13328D3*
D22*
X3205Y13326D3*
D23*
X3789Y13309D3*
X3790Y12205D3*
D21*
X2417Y9359D3*
D22*
X3205Y9358D3*
D23*
X3789Y9340D3*
X3790Y8236D3*
D21*
X2417Y5391D3*
D22*
X3205Y5389D3*
D23*
X3789Y5372D3*
X3790Y4268D3*
D18*
X2665Y1106D3*
D19*
X2667Y1894D3*
D20*
X2684Y2478D3*
X3788Y2480D3*
D18*
X6722Y1110D3*
D19*
X6723Y1898D3*
D20*
X6741Y2482D3*
X7845Y2484D3*
D18*
X10715Y1105D3*
D19*
X10717Y1893D3*
D20*
X9609Y2477D3*
X10713Y2478D3*
D21*
X10974Y5361D3*
D22*
X10187Y5363D3*
D23*
X9602Y4255D3*
X9601Y5359D3*
D21*
X10974Y9330D3*
D22*
X10187Y9331D3*
D23*
X9602Y8224D3*
X9601Y9328D3*
D21*
X10974Y13298D3*
D22*
X10187Y13300D3*
D23*
X9602Y12192D3*
X9601Y13296D3*
D21*
X10974Y17267D3*
D22*
X10187Y17268D3*
D23*
X9602Y16161D3*
X9601Y17265D3*
D21*
X10974Y21235D3*
D22*
X10187Y21237D3*
D23*
X9602Y20129D3*
X9601Y21233D3*
D21*
X10974Y25204D3*
D22*
X10187Y25205D3*
D23*
X9602Y24098D3*
X9601Y25202D3*
D21*
X10974Y29172D3*
D22*
X10187Y29174D3*
D23*
X9602Y28066D3*
X9601Y29170D3*
D21*
X10974Y33141D3*
D22*
X10187Y33142D3*
D23*
X9602Y32035D3*
X9601Y33139D3*
D21*
X10974Y37109D3*
D22*
X10187Y37111D3*
D23*
X9602Y36003D3*
X9601Y37107D3*
D21*
X10974Y41078D3*
D22*
X10187Y41079D3*
D23*
X9602Y39972D3*
X9601Y41076D3*
D21*
X10974Y45046D3*
D22*
X10187Y45048D3*
D23*
X9602Y43940D3*
X9601Y45044D3*
D21*
X10974Y49015D3*
D22*
X10187Y49016D3*
D23*
X9602Y47909D3*
X9601Y49013D3*
D21*
X10974Y52983D3*
D22*
X10187Y52985D3*
D23*
X9602Y51877D3*
X9601Y52981D3*
D21*
X10974Y56952D3*
D22*
X10187Y56953D3*
D23*
X9603Y55846D3*
X9601Y56950D3*
D21*
X10974Y60920D3*
D22*
X10187Y60922D3*
D23*
X9602Y59814D3*
X9601Y60918D3*
D21*
X10974Y64889D3*
D22*
X10187Y64890D3*
D23*
X9602Y63783D3*
X9601Y64887D3*
D21*
X10974Y68857D3*
D22*
X10187Y68859D3*
D23*
X9602Y67751D3*
X9601Y68855D3*
D21*
X10974Y72826D3*
D22*
X10187Y72827D3*
D23*
X9602Y71720D3*
X9601Y72824D3*
D21*
X10974Y76794D3*
D22*
X10187Y76796D3*
D23*
X9602Y75688D3*
X9601Y76792D3*
D21*
X10974Y80763D3*
D22*
X10187Y80764D3*
D23*
X9602Y79657D3*
X9601Y80761D3*
D21*
X10974Y84731D3*
D22*
X10187Y84733D3*
D23*
X9602Y83625D3*
X9601Y84729D3*
D21*
X10974Y88700D3*
D22*
X10187Y88701D3*
D23*
X9602Y87594D3*
X9601Y88698D3*
D21*
X10974Y92668D3*
D22*
X10187Y92670D3*
D23*
X9602Y91562D3*
X9601Y92666D3*
D18*
X10744Y96934D3*
D19*
X10743Y96147D3*
D20*
X10725Y95563D3*
X9621Y95561D3*
D18*
X6715Y96880D3*
D19*
X6714Y96093D3*
D20*
X7821Y95509D3*
X6717Y95507D3*
D24*
X7455Y92988D3*
D25*
Y98676D3*
D26*
X7063Y6126D3*
X7188Y80758D3*
G36*
X2371Y96282D2*
X3008D1*
Y95188D1*
X2371D1*
Y96282D1*
G37*
G36*
X3050Y93017D2*
X4143D1*
Y92380D1*
X3050D1*
Y93017D1*
G37*
G36*
Y89048D2*
X4143D1*
Y88412D1*
X3050D1*
Y89048D1*
G37*
G36*
Y85080D2*
X4143D1*
Y84443D1*
X3050D1*
Y85080D1*
G37*
G36*
Y81111D2*
X4143D1*
Y80475D1*
X3050D1*
Y81111D1*
G37*
G36*
Y77143D2*
X4143D1*
Y76506D1*
X3050D1*
Y77143D1*
G37*
G36*
Y73174D2*
X4143D1*
Y72538D1*
X3050D1*
Y73174D1*
G37*
G36*
Y69206D2*
X4143D1*
Y68569D1*
X3050D1*
Y69206D1*
G37*
G36*
Y65237D2*
X4143D1*
Y64601D1*
X3050D1*
Y65237D1*
G37*
G36*
Y61269D2*
X4143D1*
Y60632D1*
X3050D1*
Y61269D1*
G37*
G36*
Y57300D2*
X4143D1*
Y56664D1*
X3050D1*
Y57300D1*
G37*
G36*
Y53332D2*
X4143D1*
Y52695D1*
X3050D1*
Y53332D1*
G37*
G36*
Y49363D2*
X4143D1*
Y48727D1*
X3050D1*
Y49363D1*
G37*
G36*
Y45395D2*
X4143D1*
Y44758D1*
X3050D1*
Y45395D1*
G37*
G36*
Y41426D2*
X4143D1*
Y40790D1*
X3050D1*
Y41426D1*
G37*
G36*
Y37457D2*
X4143D1*
Y36821D1*
X3050D1*
Y37457D1*
G37*
G36*
Y33489D2*
X4143D1*
Y32853D1*
X3050D1*
Y33489D1*
G37*
G36*
Y29520D2*
X4143D1*
Y28884D1*
X3050D1*
Y29520D1*
G37*
G36*
Y25552D2*
X4143D1*
Y24916D1*
X3050D1*
Y25552D1*
G37*
G36*
Y21583D2*
X4143D1*
Y20947D1*
X3050D1*
Y21583D1*
G37*
G36*
Y17615D2*
X4143D1*
Y16979D1*
X3050D1*
Y17615D1*
G37*
G36*
Y13646D2*
X4143D1*
Y13010D1*
X3050D1*
Y13646D1*
G37*
G36*
Y9678D2*
X4143D1*
Y9042D1*
X3050D1*
Y9678D1*
G37*
G36*
Y5709D2*
X4143D1*
Y5073D1*
X3050D1*
Y5709D1*
G37*
G36*
X2346Y2832D2*
X2983D1*
Y1739D1*
X2346D1*
Y2832D1*
G37*
G36*
X6403Y2836D2*
X7039D1*
Y1743D1*
X6403D1*
Y2836D1*
G37*
G36*
X10396Y2831D2*
X11033D1*
Y1738D1*
X10396D1*
Y2831D1*
G37*
G36*
X9248Y5679D2*
X10341D1*
Y5042D1*
X9248D1*
Y5679D1*
G37*
G36*
Y9647D2*
X10341D1*
Y9011D1*
X9248D1*
Y9647D1*
G37*
G36*
Y13616D2*
X10341D1*
Y12979D1*
X9248D1*
Y13616D1*
G37*
G36*
Y17584D2*
X10341D1*
Y16948D1*
X9248D1*
Y17584D1*
G37*
G36*
Y21553D2*
X10341D1*
Y20916D1*
X9248D1*
Y21553D1*
G37*
G36*
Y25521D2*
X10341D1*
Y24885D1*
X9248D1*
Y25521D1*
G37*
G36*
Y29490D2*
X10341D1*
Y28853D1*
X9248D1*
Y29490D1*
G37*
G36*
Y33458D2*
X10341D1*
Y32822D1*
X9248D1*
Y33458D1*
G37*
G36*
Y37427D2*
X10341D1*
Y36790D1*
X9248D1*
Y37427D1*
G37*
G36*
Y41395D2*
X10341D1*
Y40759D1*
X9248D1*
Y41395D1*
G37*
G36*
Y45364D2*
X10341D1*
Y44727D1*
X9248D1*
Y45364D1*
G37*
G36*
Y49332D2*
X10341D1*
Y48696D1*
X9248D1*
Y49332D1*
G37*
G36*
Y53301D2*
X10341D1*
Y52664D1*
X9248D1*
Y53301D1*
G37*
G36*
Y57269D2*
X10341D1*
Y56633D1*
X9248D1*
Y57269D1*
G37*
G36*
Y61238D2*
X10341D1*
Y60601D1*
X9248D1*
Y61238D1*
G37*
G36*
Y65206D2*
X10341D1*
Y64570D1*
X9248D1*
Y65206D1*
G37*
G36*
Y69175D2*
X10341D1*
Y68538D1*
X9248D1*
Y69175D1*
G37*
G36*
Y73143D2*
X10341D1*
Y72507D1*
X9248D1*
Y73143D1*
G37*
G36*
Y77112D2*
X10341D1*
Y76475D1*
X9248D1*
Y77112D1*
G37*
G36*
Y81080D2*
X10341D1*
Y80444D1*
X9248D1*
Y81080D1*
G37*
G36*
Y85049D2*
X10341D1*
Y84412D1*
X9248D1*
Y85049D1*
G37*
G36*
Y89017D2*
X10341D1*
Y88381D1*
X9248D1*
Y89017D1*
G37*
G36*
Y92986D2*
X10341D1*
Y92349D1*
X9248D1*
Y92986D1*
G37*
G36*
X10427Y96301D2*
X11063D1*
Y95208D1*
X10427D1*
Y96301D1*
G37*
G36*
X6398Y96247D2*
X7034D1*
Y95154D1*
X6398D1*
Y96247D1*
G37*
X6944Y90835D2*
D50*
Y89974D1*
X7374Y90404D2*
X6513D1*
X9668Y98859D2*
X9115D1*
M02*
