G04 DipTrace 2.4.0.2*
%INBottomAssy.gbr*%
%MOIN*%
%ADD10C,0.0098*%
%ADD11C,0.0055*%
%ADD51C,0.0062*%
%FSLAX44Y44*%
G04*
G70*
G90*
G75*
G01*
%LNBotAssy*%
%LPD*%
X3228Y95975D2*
D10*
X2157D1*
Y97355D1*
X3228D1*
Y95975D1*
X3134Y95240D2*
X3369D1*
X3138Y95865D2*
X3374D1*
G36*
X3008Y95188D2*
X2371D1*
Y96282D1*
X3008D1*
Y95188D1*
G37*
X3357Y93237D2*
D10*
X1976D1*
Y92166D1*
X3357D1*
Y93237D1*
X4092Y92017D2*
Y92253D1*
X3467Y92022D2*
Y92257D1*
G36*
X4143Y93017D2*
X3050D1*
Y92380D1*
X4143D1*
Y93017D1*
G37*
X3357Y89269D2*
D10*
X1976D1*
Y88198D1*
X3357D1*
Y89269D1*
X4092Y88049D2*
Y88284D1*
X3467Y88053D2*
Y88289D1*
G36*
X4143Y89048D2*
X3050D1*
Y88412D1*
X4143D1*
Y89048D1*
G37*
X3357Y85300D2*
D10*
X1976D1*
Y84229D1*
X3357D1*
Y85300D1*
X4092Y84080D2*
Y84316D1*
X3467Y84085D2*
Y84320D1*
G36*
X4143Y85080D2*
X3050D1*
Y84443D1*
X4143D1*
Y85080D1*
G37*
X3357Y81331D2*
D10*
X1976D1*
Y80261D1*
X3357D1*
Y81331D1*
X4092Y80112D2*
Y80347D1*
X3467Y80116D2*
Y80352D1*
G36*
X4143Y81111D2*
X3050D1*
Y80475D1*
X4143D1*
Y81111D1*
G37*
X3357Y77363D2*
D10*
X1976D1*
Y76292D1*
X3357D1*
Y77363D1*
X4092Y76143D2*
Y76379D1*
X3467Y76148D2*
Y76383D1*
G36*
X4143Y77143D2*
X3050D1*
Y76506D1*
X4143D1*
Y77143D1*
G37*
X3357Y73394D2*
D10*
X1976D1*
Y72324D1*
X3357D1*
Y73394D1*
X4092Y72175D2*
Y72410D1*
X3467Y72179D2*
Y72415D1*
G36*
X4143Y73174D2*
X3050D1*
Y72538D1*
X4143D1*
Y73174D1*
G37*
X3357Y69426D2*
D10*
X1976D1*
Y68355D1*
X3357D1*
Y69426D1*
X4092Y68206D2*
Y68442D1*
X3467Y68211D2*
Y68446D1*
G36*
X4143Y69206D2*
X3050D1*
Y68569D1*
X4143D1*
Y69206D1*
G37*
X3357Y65457D2*
D10*
X1976D1*
Y64387D1*
X3357D1*
Y65457D1*
X4092Y64238D2*
Y64473D1*
X3467Y64242D2*
Y64478D1*
G36*
X4143Y65237D2*
X3050D1*
Y64601D1*
X4143D1*
Y65237D1*
G37*
X3357Y61489D2*
D10*
X1976D1*
Y60418D1*
X3357D1*
Y61489D1*
X4092Y60269D2*
Y60505D1*
X3467Y60274D2*
Y60509D1*
G36*
X4143Y61269D2*
X3050D1*
Y60632D1*
X4143D1*
Y61269D1*
G37*
X3357Y57520D2*
D10*
X1976D1*
Y56450D1*
X3357D1*
Y57520D1*
X4092Y56301D2*
Y56536D1*
X3467Y56305D2*
Y56541D1*
G36*
X4143Y57300D2*
X3050D1*
Y56664D1*
X4143D1*
Y57300D1*
G37*
X3357Y53552D2*
D10*
X1976D1*
Y52481D1*
X3357D1*
Y53552D1*
X4092Y52332D2*
Y52568D1*
X3467Y52337D2*
Y52572D1*
G36*
X4143Y53332D2*
X3050D1*
Y52695D1*
X4143D1*
Y53332D1*
G37*
X3357Y49583D2*
D10*
X1976D1*
Y48513D1*
X3357D1*
Y49583D1*
X4092Y48364D2*
Y48599D1*
X3467Y48368D2*
Y48604D1*
G36*
X4143Y49363D2*
X3050D1*
Y48727D1*
X4143D1*
Y49363D1*
G37*
X3357Y45615D2*
D10*
X1976D1*
Y44544D1*
X3357D1*
Y45615D1*
X4092Y44395D2*
Y44631D1*
X3467Y44400D2*
Y44635D1*
G36*
X4143Y45395D2*
X3050D1*
Y44758D1*
X4143D1*
Y45395D1*
G37*
X3357Y41646D2*
D10*
X1976D1*
Y40576D1*
X3357D1*
Y41646D1*
X4092Y40427D2*
Y40662D1*
X3467Y40431D2*
Y40667D1*
G36*
X4143Y41426D2*
X3050D1*
Y40790D1*
X4143D1*
Y41426D1*
G37*
X3357Y37678D2*
D10*
X1976D1*
Y36607D1*
X3357D1*
Y37678D1*
X4092Y36458D2*
Y36694D1*
X3467Y36463D2*
Y36698D1*
G36*
X4143Y37457D2*
X3050D1*
Y36821D1*
X4143D1*
Y37457D1*
G37*
X3357Y33709D2*
D10*
X1976D1*
Y32639D1*
X3357D1*
Y33709D1*
X4092Y32490D2*
Y32725D1*
X3467Y32494D2*
Y32730D1*
G36*
X4143Y33489D2*
X3050D1*
Y32853D1*
X4143D1*
Y33489D1*
G37*
X3357Y29741D2*
D10*
X1976D1*
Y28670D1*
X3357D1*
Y29741D1*
X4092Y28521D2*
Y28757D1*
X3467Y28526D2*
Y28761D1*
G36*
X4143Y29520D2*
X3050D1*
Y28884D1*
X4143D1*
Y29520D1*
G37*
X3357Y25772D2*
D10*
X1976D1*
Y24702D1*
X3357D1*
Y25772D1*
X4092Y24553D2*
Y24788D1*
X3467Y24557D2*
Y24793D1*
G36*
X4143Y25552D2*
X3050D1*
Y24916D1*
X4143D1*
Y25552D1*
G37*
X3357Y21804D2*
D10*
X1976D1*
Y20733D1*
X3357D1*
Y21804D1*
X4092Y20584D2*
Y20820D1*
X3467Y20589D2*
Y20824D1*
G36*
X4143Y21583D2*
X3050D1*
Y20947D1*
X4143D1*
Y21583D1*
G37*
X3357Y17835D2*
D10*
X1976D1*
Y16765D1*
X3357D1*
Y17835D1*
X4092Y16616D2*
Y16851D1*
X3467Y16620D2*
Y16856D1*
G36*
X4143Y17615D2*
X3050D1*
Y16979D1*
X4143D1*
Y17615D1*
G37*
X3357Y13867D2*
D10*
X1976D1*
Y12796D1*
X3357D1*
Y13867D1*
X4092Y12647D2*
Y12883D1*
X3467Y12652D2*
Y12887D1*
G36*
X4143Y13646D2*
X3050D1*
Y13010D1*
X4143D1*
Y13646D1*
G37*
X3357Y9898D2*
D10*
X1976D1*
Y8828D1*
X3357D1*
Y9898D1*
X4092Y8679D2*
Y8914D1*
X3467Y8683D2*
Y8919D1*
G36*
X4143Y9678D2*
X3050D1*
Y9042D1*
X4143D1*
Y9678D1*
G37*
X3357Y5930D2*
D10*
X1976D1*
Y4859D1*
X3357D1*
Y5930D1*
X4092Y4710D2*
Y4946D1*
X3467Y4715D2*
Y4950D1*
G36*
X4143Y5709D2*
X3050D1*
Y5073D1*
X4143D1*
Y5709D1*
G37*
X2126Y2046D2*
D10*
X3197D1*
Y665D1*
X2126D1*
Y2046D1*
X3346Y2781D2*
X3110D1*
X3341Y2156D2*
X3106D1*
G36*
X2346Y2832D2*
X2983D1*
Y1739D1*
X2346D1*
Y2832D1*
G37*
X6182Y2050D2*
D10*
X7253D1*
Y669D1*
X6182D1*
Y2050D1*
X7402Y2785D2*
X7166D1*
X7398Y2160D2*
X7162D1*
G36*
X6403Y2836D2*
X7039D1*
Y1743D1*
X6403D1*
Y2836D1*
G37*
X10176Y2045D2*
D10*
X11247D1*
Y664D1*
X10176D1*
Y2045D1*
X10271Y2780D2*
X10035D1*
X10266Y2155D2*
X10031D1*
G36*
X10396Y2831D2*
X11033D1*
Y1738D1*
X10396D1*
Y2831D1*
G37*
X10034Y4822D2*
D10*
X11415D1*
Y5893D1*
X10034D1*
Y4822D1*
X9300Y4917D2*
Y4681D1*
X9925Y4912D2*
Y4677D1*
G36*
X9248Y5042D2*
X10341D1*
Y5679D1*
X9248D1*
Y5042D1*
G37*
X10034Y8791D2*
D10*
X11415D1*
Y9861D1*
X10034D1*
Y8791D1*
X9300Y8885D2*
Y8650D1*
X9925Y8881D2*
Y8645D1*
G36*
X9248Y9011D2*
X10341D1*
Y9647D1*
X9248D1*
Y9011D1*
G37*
X10034Y12759D2*
D10*
X11415D1*
Y13830D1*
X10034D1*
Y12759D1*
X9300Y12854D2*
Y12618D1*
X9925Y12849D2*
Y12614D1*
G36*
X9248Y12979D2*
X10341D1*
Y13616D1*
X9248D1*
Y12979D1*
G37*
X10034Y16728D2*
D10*
X11415D1*
Y17798D1*
X10034D1*
Y16728D1*
X9300Y16822D2*
Y16587D1*
X9925Y16818D2*
Y16582D1*
G36*
X9248Y16948D2*
X10341D1*
Y17584D1*
X9248D1*
Y16948D1*
G37*
X10034Y20696D2*
D10*
X11415D1*
Y21767D1*
X10034D1*
Y20696D1*
X9300Y20791D2*
Y20555D1*
X9925Y20786D2*
Y20551D1*
G36*
X9248Y20916D2*
X10341D1*
Y21553D1*
X9248D1*
Y20916D1*
G37*
X10034Y24665D2*
D10*
X11415D1*
Y25735D1*
X10034D1*
Y24665D1*
X9300Y24759D2*
Y24524D1*
X9925Y24755D2*
Y24519D1*
G36*
X9248Y24885D2*
X10341D1*
Y25521D1*
X9248D1*
Y24885D1*
G37*
X10034Y28633D2*
D10*
X11415D1*
Y29704D1*
X10034D1*
Y28633D1*
X9300Y28728D2*
Y28492D1*
X9925Y28723D2*
Y28488D1*
G36*
X9248Y28853D2*
X10341D1*
Y29490D1*
X9248D1*
Y28853D1*
G37*
X10034Y32602D2*
D10*
X11415D1*
Y33672D1*
X10034D1*
Y32602D1*
X9300Y32696D2*
Y32461D1*
X9925Y32692D2*
Y32456D1*
G36*
X9248Y32822D2*
X10341D1*
Y33458D1*
X9248D1*
Y32822D1*
G37*
X10034Y36570D2*
D10*
X11415D1*
Y37641D1*
X10034D1*
Y36570D1*
X9300Y36665D2*
Y36429D1*
X9925Y36660D2*
Y36425D1*
G36*
X9248Y36790D2*
X10341D1*
Y37427D1*
X9248D1*
Y36790D1*
G37*
X10034Y40539D2*
D10*
X11415D1*
Y41609D1*
X10034D1*
Y40539D1*
X9300Y40633D2*
Y40398D1*
X9925Y40629D2*
Y40393D1*
G36*
X9248Y40759D2*
X10341D1*
Y41395D1*
X9248D1*
Y40759D1*
G37*
X10034Y44507D2*
D10*
X11415D1*
Y45578D1*
X10034D1*
Y44507D1*
X9300Y44602D2*
Y44366D1*
X9925Y44597D2*
Y44362D1*
G36*
X9248Y44727D2*
X10341D1*
Y45364D1*
X9248D1*
Y44727D1*
G37*
X10034Y48476D2*
D10*
X11415D1*
Y49546D1*
X10034D1*
Y48476D1*
X9300Y48570D2*
Y48335D1*
X9925Y48566D2*
Y48330D1*
G36*
X9248Y48696D2*
X10341D1*
Y49332D1*
X9248D1*
Y48696D1*
G37*
X10034Y52444D2*
D10*
X11415D1*
Y53515D1*
X10034D1*
Y52444D1*
X9300Y52539D2*
Y52303D1*
X9925Y52534D2*
Y52299D1*
G36*
X9248Y52664D2*
X10341D1*
Y53301D1*
X9248D1*
Y52664D1*
G37*
X10035Y56412D2*
D10*
X11415D1*
Y57483D1*
X10035D1*
Y56412D1*
X9300Y56507D2*
Y56271D1*
X9925Y56503D2*
Y56267D1*
G36*
X9248Y56633D2*
X10341D1*
Y57269D1*
X9248D1*
Y56633D1*
G37*
X10034Y60381D2*
D10*
X11415D1*
Y61452D1*
X10034D1*
Y60381D1*
X9300Y60476D2*
Y60240D1*
X9925Y60471D2*
Y60236D1*
G36*
X9248Y60601D2*
X10341D1*
Y61238D1*
X9248D1*
Y60601D1*
G37*
X10034Y64350D2*
D10*
X11415D1*
Y65420D1*
X10034D1*
Y64350D1*
X9300Y64444D2*
Y64209D1*
X9925Y64440D2*
Y64204D1*
G36*
X9248Y64570D2*
X10341D1*
Y65206D1*
X9248D1*
Y64570D1*
G37*
X10034Y68318D2*
D10*
X11415D1*
Y69389D1*
X10034D1*
Y68318D1*
X9300Y68413D2*
Y68177D1*
X9925Y68408D2*
Y68173D1*
G36*
X9248Y68538D2*
X10341D1*
Y69175D1*
X9248D1*
Y68538D1*
G37*
X10034Y72287D2*
D10*
X11415D1*
Y73357D1*
X10034D1*
Y72287D1*
X9300Y72381D2*
Y72146D1*
X9925Y72377D2*
Y72141D1*
G36*
X9248Y72507D2*
X10341D1*
Y73143D1*
X9248D1*
Y72507D1*
G37*
X10034Y76255D2*
D10*
X11415D1*
Y77326D1*
X10034D1*
Y76255D1*
X9300Y76350D2*
Y76114D1*
X9925Y76345D2*
Y76110D1*
G36*
X9248Y76475D2*
X10341D1*
Y77112D1*
X9248D1*
Y76475D1*
G37*
X10034Y80224D2*
D10*
X11415D1*
Y81294D1*
X10034D1*
Y80224D1*
X9300Y80318D2*
Y80083D1*
X9925Y80314D2*
Y80078D1*
G36*
X9248Y80444D2*
X10341D1*
Y81080D1*
X9248D1*
Y80444D1*
G37*
X10034Y84192D2*
D10*
X11415D1*
Y85263D1*
X10034D1*
Y84192D1*
X9300Y84287D2*
Y84051D1*
X9925Y84282D2*
Y84047D1*
G36*
X9248Y84412D2*
X10341D1*
Y85049D1*
X9248D1*
Y84412D1*
G37*
X10034Y88161D2*
D10*
X11415D1*
Y89231D1*
X10034D1*
Y88161D1*
X9300Y88255D2*
Y88020D1*
X9925Y88251D2*
Y88015D1*
G36*
X9248Y88381D2*
X10341D1*
Y89017D1*
X9248D1*
Y88381D1*
G37*
X10034Y92129D2*
D10*
X11415D1*
Y93200D1*
X10034D1*
Y92129D1*
X9300Y92224D2*
Y91988D1*
X9925Y92219D2*
Y91984D1*
G36*
X9248Y92349D2*
X10341D1*
Y92986D1*
X9248D1*
Y92349D1*
G37*
X11283Y95995D2*
D10*
X10213D1*
Y97375D1*
X11283D1*
Y95995D1*
X10064Y95260D2*
X10299D1*
X10068Y95885D2*
X10304D1*
G36*
X11063Y95208D2*
X10427D1*
Y96301D1*
X11063D1*
Y95208D1*
G37*
X7254Y95941D2*
D10*
X6184D1*
Y97321D1*
X7254D1*
Y95941D1*
X7160Y95206D2*
X7395D1*
X7164Y95831D2*
X7400D1*
G36*
X7034Y95154D2*
X6398D1*
Y96247D1*
X7034D1*
Y95154D1*
G37*
X2066Y96125D2*
D51*
X1722D1*
X1894Y95953D2*
Y96298D1*
X2029Y96939D2*
X1808D1*
X3206Y92075D2*
Y91731D1*
X3378Y91903D2*
X3034D1*
X2392Y92038D2*
Y91817D1*
X3206Y88107D2*
Y87762D1*
X3378Y87934D2*
X3034D1*
X2392Y88070D2*
Y87849D1*
X3206Y84138D2*
Y83794D1*
X3378Y83966D2*
X3034D1*
X2392Y84101D2*
Y83880D1*
X3206Y80170D2*
Y79825D1*
X3378Y79997D2*
X3034D1*
X2392Y80133D2*
Y79912D1*
X3206Y76201D2*
Y75857D1*
X3378Y76029D2*
X3034D1*
X2392Y76164D2*
Y75943D1*
X3206Y72233D2*
Y71888D1*
X3378Y72060D2*
X3034D1*
X2392Y72196D2*
Y71975D1*
X3206Y68264D2*
Y67920D1*
X3378Y68092D2*
X3034D1*
X2392Y68227D2*
Y68006D1*
X3206Y64296D2*
Y63951D1*
X3378Y64123D2*
X3034D1*
X2392Y64259D2*
Y64037D1*
X3206Y60327D2*
Y59983D1*
X3378Y60155D2*
X3034D1*
X2392Y60290D2*
Y60069D1*
X3206Y56359D2*
Y56014D1*
X3378Y56186D2*
X3034D1*
X2392Y56322D2*
Y56100D1*
X3206Y52390D2*
Y52046D1*
X3378Y52218D2*
X3034D1*
X2392Y52353D2*
Y52132D1*
X3206Y48422D2*
Y48077D1*
X3378Y48249D2*
X3034D1*
X2392Y48385D2*
Y48163D1*
X3206Y44453D2*
Y44109D1*
X3378Y44281D2*
X3034D1*
X2392Y44416D2*
Y44195D1*
X3206Y40485D2*
Y40140D1*
X3378Y40312D2*
X3034D1*
X2392Y40448D2*
Y40226D1*
X3206Y36516D2*
Y36172D1*
X3378Y36344D2*
X3034D1*
X2392Y36479D2*
Y36258D1*
X3206Y32548D2*
Y32203D1*
X3378Y32375D2*
X3034D1*
X2392Y32511D2*
Y32289D1*
X3206Y28579D2*
Y28235D1*
X3378Y28407D2*
X3034D1*
X2392Y28542D2*
Y28321D1*
X3206Y24611D2*
Y24266D1*
X3378Y24438D2*
X3034D1*
X2392Y24574D2*
Y24352D1*
X3206Y20642D2*
Y20298D1*
X3378Y20470D2*
X3034D1*
X2392Y20605D2*
Y20384D1*
X3206Y16674D2*
Y16329D1*
X3378Y16501D2*
X3034D1*
X2392Y16637D2*
Y16415D1*
X3206Y12705D2*
Y12361D1*
X3378Y12533D2*
X3034D1*
X2392Y12668D2*
Y12447D1*
X3206Y8736D2*
Y8392D1*
X3378Y8564D2*
X3034D1*
X2392Y8700D2*
Y8478D1*
X3206Y4768D2*
Y4424D1*
X3378Y4596D2*
X3034D1*
X2392Y4731D2*
Y4510D1*
X3288Y1896D2*
X3632D1*
X3460Y2068D2*
Y1723D1*
X3325Y1081D2*
X3546D1*
X7344Y1900D2*
X7689D1*
X7517Y2072D2*
Y1727D1*
X7381Y1085D2*
X7602D1*
X11338Y1894D2*
X11682D1*
X11510Y2066D2*
Y1722D1*
X11375Y1080D2*
X11596D1*
X10185Y5984D2*
Y6328D1*
X10013Y6156D2*
X10357D1*
X10999Y6021D2*
Y6242D1*
X10185Y9952D2*
Y10297D1*
X10013Y10125D2*
X10357D1*
X10999Y9989D2*
Y10210D1*
X10185Y13921D2*
Y14265D1*
X10013Y14093D2*
X10357D1*
X10999Y13958D2*
Y14179D1*
X10185Y17889D2*
Y18234D1*
X10013Y18062D2*
X10357D1*
X10999Y17926D2*
Y18147D1*
X10185Y21858D2*
Y22202D1*
X10013Y22030D2*
X10357D1*
X10999Y21895D2*
Y22116D1*
X10185Y25826D2*
Y26171D1*
X10013Y25999D2*
X10357D1*
X10999Y25863D2*
Y26084D1*
X10185Y29795D2*
Y30139D1*
X10013Y29967D2*
X10357D1*
X10999Y29832D2*
Y30053D1*
X10185Y33763D2*
Y34108D1*
X10013Y33936D2*
X10357D1*
X10999Y33800D2*
Y34021D1*
X10185Y37732D2*
Y38076D1*
X10013Y37904D2*
X10357D1*
X10999Y37769D2*
Y37990D1*
X10185Y41700D2*
Y42045D1*
X10013Y41873D2*
X10357D1*
X10999Y41737D2*
Y41958D1*
X10185Y45669D2*
Y46013D1*
X10013Y45841D2*
X10357D1*
X10999Y45706D2*
Y45927D1*
X10185Y49637D2*
Y49982D1*
X10013Y49810D2*
X10357D1*
X10999Y49674D2*
Y49895D1*
X10185Y53606D2*
Y53950D1*
X10013Y53778D2*
X10357D1*
X10999Y53643D2*
Y53864D1*
X10185Y57574D2*
Y57919D1*
X10013Y57747D2*
X10357D1*
X10999Y57611D2*
Y57832D1*
X10185Y61543D2*
Y61887D1*
X10013Y61715D2*
X10357D1*
X10999Y61580D2*
Y61801D1*
X10185Y65511D2*
Y65856D1*
X10013Y65684D2*
X10357D1*
X10999Y65548D2*
Y65769D1*
X10185Y69480D2*
Y69824D1*
X10013Y69652D2*
X10357D1*
X10999Y69517D2*
Y69738D1*
X10185Y73448D2*
Y73793D1*
X10013Y73621D2*
X10357D1*
X10999Y73485D2*
Y73707D1*
X10185Y77417D2*
Y77761D1*
X10013Y77589D2*
X10357D1*
X10999Y77454D2*
Y77675D1*
X10185Y81385D2*
Y81730D1*
X10013Y81558D2*
X10357D1*
X10999Y81422D2*
Y81644D1*
X10185Y85354D2*
Y85698D1*
X10013Y85526D2*
X10357D1*
X10999Y85391D2*
Y85612D1*
X10185Y89323D2*
Y89667D1*
X10013Y89495D2*
X10357D1*
X10999Y89359D2*
Y89581D1*
X10185Y93291D2*
Y93635D1*
X10013Y93463D2*
X10357D1*
X10999Y93328D2*
Y93549D1*
X10122Y96145D2*
X9777D1*
X9949Y95973D2*
Y96317D1*
X10085Y96959D2*
X9863D1*
X6093Y96091D2*
X5748D1*
X5920Y95919D2*
Y96264D1*
X6056Y96905D2*
X5835D1*
X12992Y-2756D2*
D11*
X0D1*
Y103543D1*
X12992D1*
Y0D1*
Y-2756D1*
M02*
