G04 DipTrace 2.4.0.2*
%INThrough.gbr*%
%MOIN*%
G04 Drill Symbols*
G04 D=0.1181 - Cross*
G04 D=0.1378 - X*
%ADD10C,0.008*%
%FSLAX44Y44*%
G04*
G70*
G90*
G75*
G01*
X6657Y49219D2*
D10*
X7128Y48748D1*
Y49219D2*
X6657Y48748D1*
X5392Y98974D2*
Y98504D1*
X5157Y98739D2*
X5627D1*
X5392Y93161D2*
Y92691D1*
X5157Y92926D2*
X5627D1*
X6407Y88660D2*
X6877Y88190D1*
Y88660D2*
X6407Y88190D1*
X6345Y10902D2*
X6815Y10432D1*
Y10902D2*
X6345Y10432D1*
M02*
