G04 DipTrace 2.4.0.2*
%INBottomPaste.gbr*%
%MOIN*%
%ADD26R,0.0776X0.0819*%
%ADD28R,0.1102X0.0709*%
%FSLAX44Y44*%
G04*
G70*
G90*
G75*
G01*
%LNBotPaste*%
%LPD*%
D28*
X274484Y7282D3*
X274486Y4528D3*
X4592Y7327D3*
X4588Y4545D3*
D26*
X5236Y6213D3*
G36*
X4848Y5125D2*
X5623D1*
Y5527D1*
X4848D1*
Y5125D1*
G37*
D26*
X8433Y6213D3*
G36*
X8046Y5125D2*
X8821D1*
Y5527D1*
X8046D1*
Y5125D1*
G37*
D26*
X11630Y6213D3*
G36*
X11242Y5125D2*
X12018D1*
Y5527D1*
X11242D1*
Y5125D1*
G37*
D26*
X14828Y6213D3*
G36*
X14440Y5125D2*
X15216D1*
Y5527D1*
X14440D1*
Y5125D1*
G37*
D26*
X18026Y6213D3*
G36*
X17638Y5125D2*
X18414D1*
Y5527D1*
X17638D1*
Y5125D1*
G37*
D26*
X21223Y6213D3*
G36*
X20835Y5125D2*
X21611D1*
Y5527D1*
X20835D1*
Y5125D1*
G37*
D26*
X24421Y6213D3*
G36*
X24033Y5125D2*
X24809D1*
Y5527D1*
X24033D1*
Y5125D1*
G37*
D26*
X27617Y6213D3*
G36*
X27229Y5125D2*
X28005D1*
Y5527D1*
X27229D1*
Y5125D1*
G37*
D26*
X30815Y6213D3*
G36*
X30427Y5125D2*
X31203D1*
Y5527D1*
X30427D1*
Y5125D1*
G37*
D26*
X34014Y6213D3*
G36*
X33626Y5125D2*
X34401D1*
Y5527D1*
X33626D1*
Y5125D1*
G37*
D26*
X37210Y6213D3*
G36*
X36823Y5125D2*
X37598D1*
Y5527D1*
X36823D1*
Y5125D1*
G37*
D26*
X40408Y6213D3*
G36*
X40020Y5125D2*
X40796D1*
Y5527D1*
X40020D1*
Y5125D1*
G37*
D26*
X43605Y6213D3*
G36*
X43217Y5125D2*
X43992D1*
Y5527D1*
X43217D1*
Y5125D1*
G37*
D26*
X46803Y6213D3*
G36*
X46415Y5125D2*
X47190D1*
Y5527D1*
X46415D1*
Y5125D1*
G37*
D26*
X50001Y6213D3*
G36*
X49613Y5125D2*
X50389D1*
Y5527D1*
X49613D1*
Y5125D1*
G37*
D26*
X53198Y6213D3*
G36*
X52810Y5125D2*
X53586D1*
Y5527D1*
X52810D1*
Y5125D1*
G37*
D26*
X56396Y6213D3*
G36*
X56008Y5125D2*
X56783D1*
Y5527D1*
X56008D1*
Y5125D1*
G37*
D26*
X59592Y6213D3*
G36*
X59204Y5125D2*
X59980D1*
Y5527D1*
X59204D1*
Y5125D1*
G37*
D26*
X62790Y6213D3*
G36*
X62402Y5125D2*
X63178D1*
Y5527D1*
X62402D1*
Y5125D1*
G37*
D26*
X65988Y6213D3*
G36*
X65601Y5125D2*
X66376D1*
Y5527D1*
X65601D1*
Y5125D1*
G37*
D26*
X69185Y6213D3*
G36*
X68798Y5125D2*
X69573D1*
Y5527D1*
X68798D1*
Y5125D1*
G37*
D26*
X72383Y6213D3*
G36*
X71995Y5125D2*
X72771D1*
Y5527D1*
X71995D1*
Y5125D1*
G37*
D26*
X75579Y6213D3*
G36*
X75192Y5125D2*
X75967D1*
Y5527D1*
X75192D1*
Y5125D1*
G37*
D26*
X78777Y6213D3*
G36*
X78390Y5125D2*
X79165D1*
Y5527D1*
X78390D1*
Y5125D1*
G37*
D26*
X81976Y6213D3*
G36*
X81588Y5125D2*
X82364D1*
Y5527D1*
X81588D1*
Y5125D1*
G37*
D26*
X85173Y6213D3*
G36*
X84785Y5125D2*
X85560D1*
Y5527D1*
X84785D1*
Y5125D1*
G37*
D26*
X88370Y6213D3*
G36*
X87983Y5125D2*
X88758D1*
Y5527D1*
X87983D1*
Y5125D1*
G37*
D26*
X91567Y6213D3*
G36*
X91179Y5125D2*
X91955D1*
Y5527D1*
X91179D1*
Y5125D1*
G37*
D26*
X94765Y6213D3*
G36*
X94377Y5125D2*
X95153D1*
Y5527D1*
X94377D1*
Y5125D1*
G37*
D26*
X97963Y6213D3*
G36*
X97575Y5125D2*
X98351D1*
Y5527D1*
X97575D1*
Y5125D1*
G37*
D26*
X101160Y6213D3*
G36*
X100772Y5125D2*
X101548D1*
Y5527D1*
X100772D1*
Y5125D1*
G37*
D26*
X104358Y6213D3*
G36*
X103970Y5125D2*
X104746D1*
Y5527D1*
X103970D1*
Y5125D1*
G37*
D26*
X107554Y6213D3*
G36*
X107166Y5125D2*
X107942D1*
Y5527D1*
X107166D1*
Y5125D1*
G37*
D26*
X110752Y6213D3*
G36*
X110364Y5125D2*
X111140D1*
Y5527D1*
X110364D1*
Y5125D1*
G37*
D26*
X113951Y6213D3*
G36*
X113563Y5125D2*
X114338D1*
Y5527D1*
X113563D1*
Y5125D1*
G37*
D26*
X117148Y6213D3*
G36*
X116760Y5125D2*
X117535D1*
Y5527D1*
X116760D1*
Y5125D1*
G37*
D26*
X120345Y6213D3*
G36*
X119957Y5125D2*
X120733D1*
Y5527D1*
X119957D1*
Y5125D1*
G37*
D26*
X123542Y6213D3*
G36*
X123154Y5125D2*
X123929D1*
Y5527D1*
X123154D1*
Y5125D1*
G37*
D26*
X126740Y6213D3*
G36*
X126352Y5125D2*
X127127D1*
Y5527D1*
X126352D1*
Y5125D1*
G37*
D26*
X129938Y6213D3*
G36*
X129550Y5125D2*
X130326D1*
Y5527D1*
X129550D1*
Y5125D1*
G37*
D26*
X133135Y6213D3*
G36*
X132747Y5125D2*
X133523D1*
Y5527D1*
X132747D1*
Y5125D1*
G37*
D26*
X136333Y6213D3*
G36*
X135945Y5125D2*
X136720D1*
Y5527D1*
X135945D1*
Y5125D1*
G37*
D26*
X139529Y6213D3*
G36*
X139141Y5125D2*
X139917D1*
Y5527D1*
X139141D1*
Y5125D1*
G37*
D26*
X142727Y6213D3*
G36*
X142339Y5125D2*
X143115D1*
Y5527D1*
X142339D1*
Y5125D1*
G37*
D26*
X145925Y6213D3*
G36*
X145538Y5125D2*
X146313D1*
Y5527D1*
X145538D1*
Y5125D1*
G37*
D26*
X149122Y6213D3*
G36*
X148735Y5125D2*
X149510D1*
Y5527D1*
X148735D1*
Y5125D1*
G37*
D26*
X152320Y6213D3*
G36*
X151932Y5125D2*
X152708D1*
Y5527D1*
X151932D1*
Y5125D1*
G37*
D26*
X155516Y6213D3*
G36*
X155129Y5125D2*
X155904D1*
Y5527D1*
X155129D1*
Y5125D1*
G37*
D26*
X158714Y6213D3*
G36*
X158327Y5125D2*
X159102D1*
Y5527D1*
X158327D1*
Y5125D1*
G37*
D26*
X161913Y6213D3*
G36*
X161525Y5125D2*
X162301D1*
Y5527D1*
X161525D1*
Y5125D1*
G37*
D26*
X165110Y6213D3*
G36*
X164722Y5125D2*
X165498D1*
Y5527D1*
X164722D1*
Y5125D1*
G37*
D26*
X168307Y6213D3*
G36*
X167920Y5125D2*
X168695D1*
Y5527D1*
X167920D1*
Y5125D1*
G37*
D26*
X171504Y6213D3*
G36*
X171116Y5125D2*
X171892D1*
Y5527D1*
X171116D1*
Y5125D1*
G37*
D26*
X174702Y6213D3*
G36*
X174314Y5125D2*
X175090D1*
Y5527D1*
X174314D1*
Y5125D1*
G37*
D26*
X177900Y6213D3*
G36*
X177512Y5125D2*
X178288D1*
Y5527D1*
X177512D1*
Y5125D1*
G37*
D26*
X181097Y6213D3*
G36*
X180709Y5125D2*
X181485D1*
Y5527D1*
X180709D1*
Y5125D1*
G37*
D26*
X184295Y6213D3*
G36*
X183907Y5125D2*
X184683D1*
Y5527D1*
X183907D1*
Y5125D1*
G37*
D26*
X187491Y6213D3*
G36*
X187103Y5125D2*
X187879D1*
Y5527D1*
X187103D1*
Y5125D1*
G37*
D26*
X190689Y6213D3*
G36*
X190301Y5125D2*
X191077D1*
Y5527D1*
X190301D1*
Y5125D1*
G37*
D26*
X193888Y6213D3*
G36*
X193500Y5125D2*
X194275D1*
Y5527D1*
X193500D1*
Y5125D1*
G37*
D26*
X197085Y6213D3*
G36*
X196697Y5125D2*
X197472D1*
Y5527D1*
X196697D1*
Y5125D1*
G37*
D26*
X200282Y6213D3*
G36*
X199894Y5125D2*
X200670D1*
Y5527D1*
X199894D1*
Y5125D1*
G37*
D26*
X203479Y6213D3*
G36*
X203091Y5125D2*
X203866D1*
Y5527D1*
X203091D1*
Y5125D1*
G37*
D26*
X206677Y6213D3*
G36*
X206289Y5125D2*
X207064D1*
Y5527D1*
X206289D1*
Y5125D1*
G37*
D26*
X209875Y6213D3*
G36*
X209487Y5125D2*
X210263D1*
Y5527D1*
X209487D1*
Y5125D1*
G37*
D26*
X213072Y6213D3*
G36*
X212684Y5125D2*
X213460D1*
Y5527D1*
X212684D1*
Y5125D1*
G37*
D26*
X216270Y6213D3*
G36*
X215882Y5125D2*
X216657D1*
Y5527D1*
X215882D1*
Y5125D1*
G37*
D26*
X219466Y6213D3*
G36*
X219078Y5125D2*
X219854D1*
Y5527D1*
X219078D1*
Y5125D1*
G37*
D26*
X222664Y6213D3*
G36*
X222276Y5125D2*
X223052D1*
Y5527D1*
X222276D1*
Y5125D1*
G37*
D26*
X225862Y6213D3*
G36*
X225475Y5125D2*
X226250D1*
Y5527D1*
X225475D1*
Y5125D1*
G37*
D26*
X229059Y6213D3*
G36*
X228672Y5125D2*
X229447D1*
Y5527D1*
X228672D1*
Y5125D1*
G37*
D26*
X232257Y6213D3*
G36*
X231869Y5125D2*
X232645D1*
Y5527D1*
X231869D1*
Y5125D1*
G37*
D26*
X235453Y6213D3*
G36*
X235066Y5125D2*
X235841D1*
Y5527D1*
X235066D1*
Y5125D1*
G37*
D26*
X238651Y6213D3*
G36*
X238264Y5125D2*
X239039D1*
Y5527D1*
X238264D1*
Y5125D1*
G37*
D26*
X241850Y6213D3*
G36*
X241462Y5125D2*
X242238D1*
Y5527D1*
X241462D1*
Y5125D1*
G37*
D26*
X245047Y6213D3*
G36*
X244659Y5125D2*
X245435D1*
Y5527D1*
X244659D1*
Y5125D1*
G37*
D26*
X248244Y6213D3*
G36*
X247857Y5125D2*
X248632D1*
Y5527D1*
X247857D1*
Y5125D1*
G37*
D26*
X251441Y6213D3*
G36*
X251053Y5125D2*
X251829D1*
Y5527D1*
X251053D1*
Y5125D1*
G37*
D26*
X254639Y6213D3*
G36*
X254251Y5125D2*
X255027D1*
Y5527D1*
X254251D1*
Y5125D1*
G37*
D26*
X257837Y6213D3*
G36*
X257449Y5125D2*
X258225D1*
Y5527D1*
X257449D1*
Y5125D1*
G37*
D26*
X261034Y6213D3*
G36*
X260646Y5125D2*
X261422D1*
Y5527D1*
X260646D1*
Y5125D1*
G37*
D26*
X264232Y6213D3*
G36*
X263844Y5125D2*
X264620D1*
Y5527D1*
X263844D1*
Y5125D1*
G37*
D26*
X267428Y6213D3*
G36*
X267040Y5125D2*
X267816D1*
Y5527D1*
X267040D1*
Y5125D1*
G37*
D26*
X270626Y6213D3*
G36*
X270238Y5125D2*
X271014D1*
Y5527D1*
X270238D1*
Y5125D1*
G37*
D26*
X273825Y6213D3*
G36*
X273437Y5125D2*
X274212D1*
Y5527D1*
X273437D1*
Y5125D1*
G37*
M02*
