G04 DipTrace 2.4.0.2*
%INBottomPaste.gbr*%
%MOIN*%
%ADD33C,0.1888*%
%ADD35R,0.1888X0.1888*%
%ADD37R,0.0628X0.055*%
%ADD39R,0.0302X0.0668*%
%ADD41R,0.0719X0.0668*%
%ADD43R,0.055X0.0628*%
%ADD45R,0.0668X0.0302*%
%ADD47R,0.0668X0.0719*%
%FSLAX44Y44*%
G04*
G70*
G90*
G75*
G01*
%LNBotPaste*%
%LPD*%
D47*
X1727Y72094D3*
D45*
X1725Y71306D3*
D43*
X2833Y70722D3*
X1729Y70721D3*
D47*
X1744Y67696D3*
D45*
X1745Y68484D3*
D43*
X1762Y69068D3*
X2866Y69070D3*
D47*
X1711Y63861D3*
D45*
X1712Y64649D3*
D43*
X1730Y65233D3*
X2834Y65235D3*
D47*
X1736Y60010D3*
D45*
X1737Y60797D3*
D43*
X1755Y61382D3*
X2859Y61383D3*
D47*
X1698Y56207D3*
D45*
X1699Y56994D3*
D43*
X1717Y57578D3*
X2821Y57580D3*
D47*
X1724Y52262D3*
D45*
X1725Y53049D3*
D43*
X1743Y53634D3*
X2847Y53635D3*
D47*
X1759Y48470D3*
D45*
X1761Y49258D3*
D43*
X1778Y49842D3*
X2882Y49844D3*
D47*
X1688Y44535D3*
D45*
X1690Y45322D3*
D43*
X1707Y45906D3*
X2811Y45908D3*
D47*
X1738Y40684D3*
D45*
X1740Y41472D3*
D43*
X1757Y42056D3*
X2861Y42058D3*
D47*
X1728Y36802D3*
D45*
X1729Y37590D3*
D43*
X1747Y38174D3*
X2851Y38176D3*
D47*
X1740Y32926D3*
D45*
X1741Y33713D3*
D43*
X1758Y34298D3*
X2862Y34299D3*
D47*
X1724Y29052D3*
D45*
X1725Y29839D3*
D43*
X1743Y30424D3*
X2847Y30425D3*
D47*
X1692Y25222D3*
D45*
X1694Y26010D3*
D43*
X1711Y26594D3*
X2815Y26596D3*
D47*
X1740Y21360D3*
D45*
X1741Y22148D3*
D43*
X1758Y22732D3*
X2862Y22734D3*
D47*
X1732Y17480D3*
D45*
X1733Y18267D3*
D43*
X1751Y18851D3*
X2855Y18853D3*
D47*
X1729Y13570D3*
D45*
X1731Y14358D3*
D43*
X1748Y14942D3*
X2852Y14944D3*
D47*
X1753Y9692D3*
D45*
X1754Y10480D3*
D43*
X1772Y11064D3*
X2876Y11066D3*
D47*
X1730Y5825D3*
D45*
X1732Y6612D3*
D43*
X1749Y7197D3*
X2853Y7198D3*
D47*
X1796Y2015D3*
D45*
X1798Y2803D3*
D43*
X1815Y3387D3*
X2919Y3388D3*
D47*
X5536Y2043D3*
D45*
X5537Y2831D3*
D43*
X5555Y3415D3*
X6659Y3417D3*
D47*
X9317Y1967D3*
D45*
X9319Y2755D3*
D43*
X8211Y3339D3*
X9315Y3341D3*
D47*
X9396Y6425D3*
D45*
X9394Y5637D3*
D43*
X9377Y5053D3*
X8273Y5052D3*
D47*
X9358Y10352D3*
D45*
X9356Y9564D3*
D43*
X9339Y8980D3*
X8235Y8978D3*
D47*
X9379Y14304D3*
D45*
X9377Y13517D3*
D43*
X9360Y12933D3*
X8256Y12931D3*
D47*
X9341Y18294D3*
D45*
X9339Y17506D3*
D43*
X9322Y16922D3*
X8218Y16920D3*
D47*
X9322Y22215D3*
D45*
X9321Y21427D3*
D43*
X9303Y20843D3*
X8199Y20842D3*
D47*
X9321Y26144D3*
D45*
X9320Y25357D3*
D43*
X9302Y24772D3*
X8198Y24771D3*
D47*
X9354Y30080D3*
D45*
X9352Y29292D3*
D43*
X9335Y28708D3*
X8231Y28706D3*
D47*
X9363Y34080D3*
D45*
X9362Y33292D3*
D43*
X9344Y32708D3*
X8240Y32706D3*
D47*
X9300Y38003D3*
D45*
X9299Y37215D3*
D43*
X9281Y36631D3*
X8177Y36629D3*
D47*
X9349Y41926D3*
D45*
X9347Y41139D3*
D43*
X9330Y40555D3*
X8226Y40553D3*
D47*
X9397Y45858D3*
D45*
X9396Y45070D3*
D43*
X9378Y44486D3*
X8274Y44485D3*
D47*
X9799Y49778D3*
D45*
X9797Y48990D3*
D43*
X9780Y48406D3*
X8676Y48405D3*
D41*
X10999Y53249D3*
D39*
X10211Y53250D3*
D37*
X9627Y53268D3*
X9625Y54372D3*
D47*
X12311Y56749D3*
D45*
X12313Y57537D3*
D43*
X11205Y58121D3*
X12309Y58122D3*
D47*
X14555Y60072D3*
D45*
X14556Y60860D3*
D43*
X13448Y61444D3*
X14552Y61446D3*
D41*
X17593Y63045D3*
D39*
X16805Y63047D3*
D37*
X16221Y63064D3*
X16219Y64168D3*
D41*
X20765Y65419D3*
D39*
X19977Y65421D3*
D37*
X19393Y65438D3*
X19391Y66542D3*
D41*
X24307Y67000D3*
D39*
X23519Y67001D3*
D37*
X22935Y67018D3*
X22933Y68122D3*
D41*
X28136Y67614D3*
D39*
X27349Y67615D3*
D37*
X26764Y67633D3*
X26763Y68737D3*
D41*
X32134Y67371D3*
D39*
X31346Y67372D3*
D37*
X30762Y67390D3*
X30760Y68494D3*
D41*
X35879Y65921D3*
D39*
X35091Y65922D3*
D37*
X34507Y65940D3*
X34506Y67044D3*
D47*
X38838Y63506D3*
D45*
X38840Y64293D3*
D43*
X38857Y64877D3*
X39961Y64879D3*
D47*
X41520Y60617D3*
D45*
X41522Y61405D3*
D43*
X41539Y61989D3*
X42643Y61991D3*
D47*
X43246Y57066D3*
D45*
X43248Y57854D3*
D43*
X43265Y58438D3*
X44369Y58440D3*
D47*
X44209Y53251D3*
D45*
X44211Y54039D3*
D43*
X44228Y54623D3*
X45332Y54625D3*
D47*
X44488Y49316D3*
D45*
X44489Y50103D3*
D43*
X44507Y50687D3*
X45611Y50689D3*
D47*
X44534Y45356D3*
D45*
X44535Y46144D3*
D43*
X44552Y46728D3*
X45656Y46730D3*
D47*
X44522Y41449D3*
D45*
X44523Y42237D3*
D43*
X44541Y42821D3*
X45645Y42823D3*
D47*
X44566Y37451D3*
D45*
X44568Y38238D3*
D43*
X44585Y38822D3*
X45689Y38824D3*
D47*
X44543Y33536D3*
D45*
X44544Y34324D3*
D43*
X44562Y34908D3*
X45666Y34909D3*
D47*
X44526Y29600D3*
D45*
X44527Y30388D3*
D43*
X44545Y30972D3*
X45649Y30974D3*
D47*
X44496Y25661D3*
D45*
X44497Y26448D3*
D43*
X44514Y27032D3*
X45618Y27034D3*
D47*
X44499Y21733D3*
D45*
X44501Y22521D3*
D43*
X44518Y23105D3*
X45622Y23106D3*
D47*
X44562Y17747D3*
D45*
X44564Y18535D3*
D43*
X44581Y19119D3*
X45685Y19121D3*
D47*
X44501Y13774D3*
D45*
X44502Y14561D3*
D43*
X44520Y15145D3*
X45624Y15147D3*
D47*
X44535Y9965D3*
D45*
X44536Y10753D3*
D43*
X44554Y11337D3*
X45658Y11339D3*
D47*
X44564Y5913D3*
D45*
X44565Y6700D3*
D43*
X44583Y7284D3*
X45687Y7286D3*
D47*
X44557Y2032D3*
D45*
X44559Y2820D3*
D43*
X44576Y3404D3*
X45680Y3405D3*
D47*
X48445Y2020D3*
D45*
X48446Y2808D3*
D43*
X48464Y3392D3*
X49568Y3394D3*
D47*
X52327Y2009D3*
D45*
X52329Y2796D3*
D43*
X51221Y3380D3*
X52325Y3382D3*
D47*
X52254Y6424D3*
D45*
X52253Y5636D3*
D43*
X52235Y5052D3*
X51131Y5050D3*
D47*
X52284Y10352D3*
D45*
X52283Y9564D3*
D43*
X52265Y8980D3*
X51161Y8978D3*
D47*
X52233Y14272D3*
D45*
X52232Y13484D3*
D43*
X52214Y12900D3*
X51110Y12898D3*
D47*
X52301Y18237D3*
D45*
X52300Y17450D3*
D43*
X52282Y16866D3*
X51178Y16864D3*
D47*
X52295Y22181D3*
D45*
X52293Y21393D3*
D43*
X52276Y20809D3*
X51172Y20808D3*
D47*
X52313Y26098D3*
D45*
X52312Y25311D3*
D43*
X52294Y24726D3*
X51190Y24725D3*
D47*
X52265Y30046D3*
D45*
X52263Y29258D3*
D43*
X52246Y28674D3*
X51142Y28672D3*
D47*
X52267Y33971D3*
D45*
X52266Y33183D3*
D43*
X52248Y32599D3*
X51144Y32598D3*
D47*
X52313Y37912D3*
D45*
X52312Y37124D3*
D43*
X52294Y36540D3*
X51190Y36539D3*
D47*
X52248Y41833D3*
D45*
X52246Y41046D3*
D43*
X52229Y40461D3*
X51125Y40460D3*
D47*
X52388Y45789D3*
D45*
X52386Y45001D3*
D43*
X52369Y44417D3*
X51265Y44415D3*
D47*
X5057Y72106D3*
D45*
X5055Y71319D3*
D43*
X5038Y70735D3*
X3934Y70733D3*
D47*
X52982Y49623D3*
D45*
X52981Y48836D3*
D43*
X52964Y48251D3*
X51860Y48250D3*
D47*
X53996Y53506D3*
D45*
X53994Y52719D3*
D43*
X53977Y52135D3*
X52873Y52133D3*
D47*
X55624Y56561D3*
D45*
X55625Y57349D3*
D43*
X55643Y57933D3*
X56747Y57935D3*
D47*
X57876Y59737D3*
D45*
X57878Y60525D3*
D43*
X57895Y61109D3*
X58999Y61111D3*
D47*
X60694Y62516D3*
D45*
X60696Y63304D3*
D43*
X59588Y63888D3*
X60692Y63889D3*
D47*
X64013Y64752D3*
D45*
X64014Y65540D3*
D43*
X62907Y66124D3*
X64011Y66126D3*
D41*
X67754Y66599D3*
D39*
X66967Y66601D3*
D37*
X66383Y66618D3*
X66381Y67722D3*
D41*
X71626Y67359D3*
D39*
X70838Y67361D3*
D37*
X70254Y67378D3*
X70252Y68482D3*
D41*
X75538Y67021D3*
D39*
X74750Y67022D3*
D37*
X74166Y67039D3*
X74164Y68143D3*
D47*
X79035Y65546D3*
D45*
X79037Y66333D3*
D43*
X79054Y66918D3*
X80158Y66919D3*
D47*
X82306Y63334D3*
D45*
X82307Y64122D3*
D43*
X82325Y64706D3*
X83429Y64708D3*
D47*
X84947Y60418D3*
D45*
X84948Y61206D3*
D43*
X84966Y61790D3*
X86070Y61791D3*
D47*
X86790Y56938D3*
D45*
X86791Y57725D3*
D43*
X86808Y58309D3*
X87912Y58311D3*
D47*
X87557Y53134D3*
D45*
X87559Y53922D3*
D43*
X87576Y54506D3*
X88680Y54508D3*
D47*
X87780Y49243D3*
D45*
X87782Y50031D3*
D43*
X87799Y50615D3*
X88903Y50617D3*
D47*
X87902Y45255D3*
D45*
X87904Y46043D3*
D43*
X87921Y46627D3*
X89025Y46629D3*
D47*
X87935Y41325D3*
D45*
X87937Y42112D3*
D43*
X87954Y42696D3*
X89058Y42698D3*
D47*
X87858Y37363D3*
D45*
X87859Y38150D3*
D43*
X87877Y38735D3*
X88981Y38736D3*
D47*
X87914Y33512D3*
D45*
X87916Y34300D3*
D43*
X87933Y34884D3*
X89037Y34886D3*
D47*
X87896Y29543D3*
D45*
X87897Y30330D3*
D43*
X87915Y30914D3*
X89019Y30916D3*
D47*
X87896Y25579D3*
D45*
X87897Y26367D3*
D43*
X87915Y26951D3*
X89019Y26953D3*
D47*
X87891Y21717D3*
D45*
X87892Y22505D3*
D43*
X87909Y23089D3*
X89013Y23091D3*
D47*
X87914Y17732D3*
D45*
X87916Y18519D3*
D43*
X87933Y19103D3*
X89037Y19105D3*
D47*
X87929Y13767D3*
D45*
X87930Y14555D3*
D43*
X87947Y15139D3*
X89051Y15140D3*
D47*
X87939Y9898D3*
D45*
X87941Y10686D3*
D43*
X87958Y11270D3*
X89062Y11271D3*
D47*
X87881Y6006D3*
D45*
X87883Y6793D3*
D43*
X87900Y7378D3*
X89004Y7379D3*
D47*
X87917Y2011D3*
D45*
X87918Y2799D3*
D43*
X87936Y3383D3*
X89040Y3384D3*
D47*
X91935Y1995D3*
D45*
X91936Y2783D3*
D43*
X91954Y3367D3*
X93058Y3368D3*
D47*
X95971Y1965D3*
D45*
X95972Y2752D3*
D43*
X94865Y3336D3*
X95969Y3338D3*
D47*
X95951Y6396D3*
D45*
X95949Y5609D3*
D43*
X95932Y5024D3*
X94828Y5023D3*
D47*
X95973Y10264D3*
D45*
X95972Y9476D3*
D43*
X95954Y8892D3*
X94850Y8890D3*
D47*
X95965Y14144D3*
D45*
X95964Y13357D3*
D43*
X95946Y12772D3*
X94842Y12771D3*
D47*
X95980Y18081D3*
D45*
X95978Y17294D3*
D43*
X95961Y16709D3*
X94857Y16708D3*
D47*
X95963Y21954D3*
D45*
X95961Y21166D3*
D43*
X95944Y20582D3*
X94840Y20581D3*
D47*
X95982Y25849D3*
D45*
X95981Y25061D3*
D43*
X95964Y24477D3*
X94860Y24476D3*
D47*
X96002Y29752D3*
D45*
X96001Y28964D3*
D43*
X95983Y28380D3*
X94879Y28378D3*
D47*
X95967Y33649D3*
D45*
X95965Y32862D3*
D43*
X95948Y32278D3*
X94844Y32276D3*
D47*
X95935Y37551D3*
D45*
X95934Y36763D3*
D43*
X95916Y36179D3*
X94812Y36178D3*
D47*
X95950Y41429D3*
D45*
X95948Y40641D3*
D43*
X95931Y40057D3*
X94827Y40056D3*
D47*
X95940Y45366D3*
D45*
X95939Y44578D3*
D43*
X95922Y43994D3*
X94818Y43993D3*
D47*
X95917Y49220D3*
D45*
X95915Y48433D3*
D43*
X95898Y47849D3*
X94794Y47847D3*
D47*
X95713Y53143D3*
D45*
X95712Y52355D3*
D43*
X95695Y51771D3*
X94591Y51769D3*
D47*
X95304Y56966D3*
D45*
X95302Y56178D3*
D43*
X95285Y55594D3*
X94181Y55592D3*
D47*
X94498Y60814D3*
D45*
X94497Y60026D3*
D43*
X94479Y59442D3*
X93375Y59440D3*
D47*
X92917Y64409D3*
D45*
X92915Y63622D3*
D43*
X92898Y63038D3*
X91794Y63036D3*
D47*
X90633Y67518D3*
D45*
X90631Y66730D3*
D43*
X90614Y66146D3*
X89510Y66144D3*
D47*
X87676Y70157D3*
D45*
X87675Y69369D3*
D43*
X87657Y68785D3*
X86553Y68783D3*
D47*
X84425Y72203D3*
D45*
X84424Y71415D3*
D43*
X84406Y70831D3*
X83302Y70829D3*
D47*
X80735Y73491D3*
D45*
X80734Y72704D3*
D43*
X80716Y72120D3*
X79612Y72118D3*
D47*
X76922Y74108D3*
D45*
X76920Y73321D3*
D43*
X76903Y72736D3*
X75799Y72735D3*
D47*
X72996Y74022D3*
D45*
X72995Y73234D3*
D43*
X72977Y72650D3*
X71873Y72648D3*
D47*
X69125Y73205D3*
D45*
X69123Y72418D3*
D43*
X69106Y71834D3*
X68002Y71832D3*
D47*
X65640Y71821D3*
D45*
X65638Y71034D3*
D43*
X65621Y70449D3*
X64517Y70448D3*
D47*
X62391Y69722D3*
D45*
X62389Y68935D3*
D43*
X63497Y68350D3*
X62393Y68349D3*
D47*
X59627Y66995D3*
D45*
X59625Y66208D3*
D43*
X60733Y65623D3*
X59629Y65622D3*
D47*
X57288Y63930D3*
D45*
X57287Y63142D3*
D43*
X58394Y62558D3*
X57290Y62556D3*
D47*
X55249Y59936D3*
D45*
X55250Y60724D3*
D43*
X55268Y61308D3*
X56372Y61310D3*
D47*
X53589Y56953D3*
D45*
X53587Y56166D3*
D43*
X53570Y55582D3*
X52466Y55580D3*
D41*
X52257Y53152D3*
D39*
X51469Y53153D3*
D37*
X50885Y53171D3*
X50883Y54275D3*
D47*
X51171Y57203D3*
D45*
X51170Y56416D3*
D43*
X51153Y55831D3*
X50049Y55830D3*
D47*
X50122Y60936D3*
D45*
X50120Y60148D3*
D43*
X50103Y59564D3*
X48999Y59562D3*
D47*
X48467Y64377D3*
D45*
X48465Y63589D3*
D43*
X48448Y63005D3*
X47344Y63003D3*
D47*
X46337Y67504D3*
D45*
X46336Y66716D3*
D43*
X46318Y66132D3*
X45214Y66131D3*
D47*
X43555Y70244D3*
D45*
X43553Y69457D3*
D43*
X43536Y68872D3*
X42432Y68871D3*
D47*
X40380Y72369D3*
D45*
X40379Y71582D3*
D43*
X40362Y70998D3*
X39258Y70996D3*
D47*
X36703Y73664D3*
D45*
X36702Y72877D3*
D43*
X36684Y72292D3*
X35580Y72291D3*
D47*
X32951Y74187D3*
D45*
X32950Y73399D3*
D43*
X32932Y72815D3*
X31828Y72813D3*
D47*
X29063Y73942D3*
D45*
X29061Y73155D3*
D43*
X29044Y72571D3*
X27940Y72569D3*
D47*
X25367Y73049D3*
D45*
X25366Y72261D3*
D43*
X25348Y71677D3*
X24244Y71675D3*
D47*
X21886Y71412D3*
D45*
X21884Y70625D3*
D43*
X21867Y70040D3*
X20763Y70039D3*
D41*
X18477Y68845D3*
D39*
X19264Y68844D3*
D37*
X19848Y68827D3*
X19850Y67723D3*
D41*
X15735Y66129D3*
D39*
X16523Y66128D3*
D37*
X17107Y66110D3*
X17109Y65006D3*
D41*
X13495Y63008D3*
D39*
X14283Y63007D3*
D37*
X14867Y64114D3*
X14868Y63010D3*
D41*
X11421Y59719D3*
D39*
X12209Y59718D3*
D37*
X12793Y60825D3*
X12795Y59721D3*
D47*
X10061Y55999D3*
D45*
X10063Y56787D3*
D43*
X10080Y57371D3*
X11184Y57372D3*
D47*
X8296Y52551D3*
D45*
X8298Y53339D3*
D43*
X7190Y53923D3*
X8294Y53925D3*
D41*
X8555Y56730D3*
D39*
X7768Y56731D3*
D37*
X7183Y56749D3*
X7182Y57853D3*
D47*
X8310Y60644D3*
D45*
X8309Y59857D3*
D43*
X8292Y59272D3*
X7188Y59271D3*
D47*
X8295Y64450D3*
D45*
X8293Y63662D3*
D43*
X8276Y63078D3*
X7172Y63077D3*
D47*
X8280Y68335D3*
D45*
X8279Y67547D3*
D43*
X8261Y66963D3*
X7157Y66961D3*
D47*
X8329Y72054D3*
D45*
X8327Y71266D3*
D43*
X8310Y70682D3*
X7206Y70680D3*
D35*
X94572Y69945D3*
D33*
Y74320D3*
M02*
